Computer architecture/lab2/lab2/log/waveform_1.vcd
$date
	Tue Nov 28 09:49:12 2023
$end
$version
	Icarus Verilog
$end
$timescale
	1s
$end
$scope module TestBench $end
$var reg 1 ! Clk $end
$var reg 1 " Reset $end
$var integer 32 # counter [31:0] $end
$var integer 32 $ flush [31:0] $end
$var integer 32 % i [31:0] $end
$var integer 32 & outfile [31:0] $end
$var integer 32 ' stall [31:0] $end
$scope module CPU $end
$var wire 1 ! clk_i $end
$var wire 1 " rst_i $end
$var wire 1 ( zero_out $end
$var wire 32 ) pc_out [31:0] $end
$var wire 32 * next_pc_out [31:0] $end
$var wire 32 + instr_o [31:0] $end
$var wire 32 , added_pc_out [31:0] $end
$var wire 5 - WB_inst11_7_out [4:0] $end
$var wire 1 . WB_RegWrite_out $end
$var wire 1 / WB_MemtoReg_out $end
$var wire 32 0 WB_Data_Memory_out [31:0] $end
$var wire 32 1 WB_ALU_result_out [31:0] $end
$var wire 1 2 Stall_out $end
$var wire 32 3 Sign_Extend_out [31:0] $end
$var wire 12 4 Sign_Extend_in [11:0] $end
$var wire 32 5 RightMost_MUX_out [31:0] $end
$var wire 1 6 RegWrite_out $end
$var wire 32 7 RS2data_o [31:0] $end
$var wire 32 8 RS1data_o [31:0] $end
$var wire 1 9 PCWrite_out $end
$var wire 1 : NoOp_out $end
$var wire 32 ; Middle_MUX_out [31:0] $end
$var wire 1 < MemtoReg_out $end
$var wire 1 = MemWrite_out $end
$var wire 1 > MemRead_out $end
$var wire 5 ? MEM_inst11_7_out [4:0] $end
$var wire 1 @ MEM_RegWrite_out $end
$var wire 1 A MEM_MemtoReg_out $end
$var wire 1 B MEM_MemWrite_out $end
$var wire 1 C MEM_MemRead_out $end
$var wire 32 D MEM_Forward_B_MUX_out [31:0] $end
$var wire 32 E MEM_ALU_result_out [31:0] $end
$var wire 32 F LeftMost_Mux_out [31:0] $end
$var wire 32 G ID_pc_out [31:0] $end
$var wire 32 H ID_instr_out [31:0] $end
$var wire 2 I Forward_B_out [1:0] $end
$var wire 32 J Forward_B_MUX_out [31:0] $end
$var wire 2 K Forward_A_out [1:0] $end
$var wire 32 L Forward_A_MUX_out [31:0] $end
$var wire 1 M Flush_out $end
$var wire 5 N EX_inst24_20_out [4:0] $end
$var wire 5 O EX_inst19_15_out [4:0] $end
$var wire 5 P EX_inst11_7_out [4:0] $end
$var wire 7 Q EX_funct7_out [6:0] $end
$var wire 3 R EX_funct3_out [2:0] $end
$var wire 1 S EX_RegWrite_out $end
$var wire 32 T EX_Read_data_2_out [31:0] $end
$var wire 32 U EX_Read_data_1_out [31:0] $end
$var wire 1 V EX_MemtoReg_out $end
$var wire 1 W EX_MemWrite_out $end
$var wire 1 X EX_MemRead_out $end
$var wire 32 Y EX_Imme32_out [31:0] $end
$var wire 1 Z EX_ALUSrc_out $end
$var wire 2 [ EX_ALUOp_out [1:0] $end
$var wire 32 \ Data_Memory_out [31:0] $end
$var wire 1 ] Branch_out $end
$var wire 32 ^ ALU_result_out [31:0] $end
$var wire 1 _ ALUSrc_out $end
$var wire 2 ` ALUOp_out [1:0] $end
$var wire 3 a ALUControl_out [2:0] $end
$scope module ALU $end
$var wire 1 ( zero_out $end
$var wire 32 b read_data_2_in [31:0] $end
$var wire 32 c read_data_1_in [31:0] $end
$var wire 32 d ALU_result_out [31:0] $end
$var wire 3 e ALUControl_in [2:0] $end
$upscope $end
$scope module ALU_Control $end
$var wire 7 f funct7_in [6:0] $end
$var wire 3 g funct3_in [2:0] $end
$var wire 2 h ALUOp_in [1:0] $end
$var wire 3 i ALUControl_out [2:0] $end
$upscope $end
$scope module Add_PC $end
$var wire 32 j input_data_2 [31:0] $end
$var wire 32 k output_data [31:0] $end
$var wire 32 l input_data_1 [31:0] $end
$upscope $end
$scope module Branch_Unit $end
$var wire 32 m read_data_2_in [31:0] $end
$var wire 32 n read_data_1_in [31:0] $end
$var wire 32 o next_pc_out [31:0] $end
$var wire 32 p imme32_in [31:0] $end
$var wire 32 q ID_pc_in [31:0] $end
$var wire 1 M Flush_out $end
$var wire 1 ] Branch_in $end
$var reg 1 M flush_register $end
$upscope $end
$scope module Control $end
$var wire 7 r opcode_in [6:0] $end
$var wire 1 6 RegWrite_out $end
$var wire 1 : NoOp_in $end
$var wire 1 < MemtoReg_out $end
$var wire 1 = MemWrite_out $end
$var wire 1 > MemRead_out $end
$var wire 1 ] Branch_out $end
$var wire 1 _ ALUSrc_out $end
$var wire 2 s ALUOP_out [1:0] $end
$upscope $end
$scope module Data_Memory $end
$var wire 1 ! clk_i $end
$var wire 32 t data_o [31:0] $end
$var wire 32 u data_i [31:0] $end
$var wire 32 v addr_i [31:0] $end
$var wire 1 B MemWrite_i $end
$var wire 1 C MemRead_i $end
$upscope $end
$scope module EX_MEM_Register $end
$var wire 32 w ALU_result_in [31:0] $end
$var wire 32 x MUX_out [31:0] $end
$var wire 1 B MemWrite_out $end
$var wire 1 A MemtoReg_out $end
$var wire 1 @ RegWrite_out $end
$var wire 1 ! clk_i $end
$var wire 5 y inst11_7_out [4:0] $end
$var wire 1 " rst_i $end
$var wire 5 z inst11_7_in [4:0] $end
$var wire 1 S RegWrite_in $end
$var wire 1 V MemtoReg_in $end
$var wire 1 W MemWrite_in $end
$var wire 1 C MemRead_out $end
$var wire 1 X MemRead_in $end
$var wire 32 { MUX_in [31:0] $end
$var wire 32 | ALU_result_out [31:0] $end
$var reg 32 } ALU_result_register [31:0] $end
$var reg 32 ~ MUX_register [31:0] $end
$var reg 1 C MemRead_register $end
$var reg 1 !" MemWrite_register $end
$var reg 1 "" MemtoReg_register $end
$var reg 1 #" RegWrite_register $end
$var reg 5 $" inst11_7_register [4:0] $end
$upscope $end
$scope module Forward_A_MUX $end
$var wire 32 %" input_data_3 [31:0] $end
$var wire 32 &" input_data_4 [31:0] $end
$var wire 32 '" output_data [31:0] $end
$var wire 2 (" mux_select [1:0] $end
$var wire 32 )" input_data_2 [31:0] $end
$var wire 32 *" input_data_1 [31:0] $end
$upscope $end
$scope module Forward_B_MUX $end
$var wire 32 +" input_data_3 [31:0] $end
$var wire 32 ," input_data_4 [31:0] $end
$var wire 32 -" output_data [31:0] $end
$var wire 2 ." mux_select [1:0] $end
$var wire 32 /" input_data_2 [31:0] $end
$var wire 32 0" input_data_1 [31:0] $end
$upscope $end
$scope module Forwarding_Unit $end
$var wire 5 1" MEM_Rd_in [4:0] $end
$var wire 1 @ MEM_RegWrite_in $end
$var wire 1 . WB_RegWrite_in $end
$var wire 5 2" WB_Rd_in [4:0] $end
$var wire 2 3" Forward_B_out [1:0] $end
$var wire 2 4" Forward_A_out [1:0] $end
$var wire 5 5" EX_Rs2_in [4:0] $end
$var wire 5 6" EX_Rs1_in [4:0] $end
$var reg 2 7" Forward_A_register [1:0] $end
$var reg 2 8" Forward_B_register [1:0] $end
$upscope $end
$scope module Hazard_Detection_Unit $end
$var wire 1 9 PCWrite_out $end
$var wire 1 2 Stall_out $end
$var wire 5 9" inst19_15_in [4:0] $end
$var wire 5 :" inst24_20_in [4:0] $end
$var wire 1 " rst_i $end
$var wire 1 : NoOp_out $end
$var wire 5 ;" EX_inst11_7_in [4:0] $end
$var wire 1 X EX_MemRead_in $end
$var reg 1 : NoOp_register $end
$var reg 1 <" PCWrite_register $end
$var reg 1 =" Stall_register $end
$upscope $end
$scope module ID_EX_Register $end
$var wire 2 >" ALUOp_in [1:0] $end
$var wire 2 ?" ALUOp_out [1:0] $end
$var wire 1 _ ALUSrc_in $end
$var wire 1 > MemRead_in $end
$var wire 1 X MemRead_out $end
$var wire 1 = MemWrite_in $end
$var wire 1 W MemWrite_out $end
$var wire 1 < MemtoReg_in $end
$var wire 1 V MemtoReg_out $end
$var wire 1 6 RegWrite_in $end
$var wire 1 S RegWrite_out $end
$var wire 1 ! clk_i $end
$var wire 5 @" inst11_7_in [4:0] $end
$var wire 5 A" inst11_7_out [4:0] $end
$var wire 3 B" inst14_12_in [2:0] $end
$var wire 5 C" inst19_15_in [4:0] $end
$var wire 5 D" inst19_15_out [4:0] $end
$var wire 5 E" inst24_20_in [4:0] $end
$var wire 5 F" inst24_20_out [4:0] $end
$var wire 7 G" inst31_25_in [6:0] $end
$var wire 1 " rst_i $end
$var wire 32 H" read_data_2_out [31:0] $end
$var wire 32 I" read_data_2_in [31:0] $end
$var wire 32 J" read_data_1_out [31:0] $end
$var wire 32 K" read_data_1_in [31:0] $end
$var wire 7 L" inst31_25_out [6:0] $end
$var wire 3 M" inst14_12_out [2:0] $end
$var wire 32 N" imme_out [31:0] $end
$var wire 32 O" imme_in [31:0] $end
$var wire 1 Z ALUSrc_out $end
$var reg 2 P" ALUOP_register [1:0] $end
$var reg 1 Z ALUSrc_register $end
$var reg 1 Q" MemRead_register $end
$var reg 1 R" MemWrite_register $end
$var reg 1 S" MemtoReg_register $end
$var reg 1 T" RegWrite_register $end
$var reg 32 U" imme_register [31:0] $end
$var reg 5 V" inst11_7_register [4:0] $end
$var reg 3 W" inst14_12_register [2:0] $end
$var reg 5 X" inst19_15_register [4:0] $end
$var reg 5 Y" inst24_20_register [4:0] $end
$var reg 7 Z" inst31_25_register [6:0] $end
$var reg 32 [" read_data_1_register [31:0] $end
$var reg 32 \" read_data_2_register [31:0] $end
$upscope $end
$scope module IF_ID_Register $end
$var wire 1 M Flush_in $end
$var wire 1 2 Stall_in $end
$var wire 1 ! clk_i $end
$var wire 1 " rst_i $end
$var wire 32 ]" pc_out [31:0] $end
$var wire 32 ^" pc_in [31:0] $end
$var wire 32 _" instruction_out [31:0] $end
$var wire 32 `" instruction_in [31:0] $end
$var reg 32 a" instruction_register [31:0] $end
$var reg 32 b" pc_register [31:0] $end
$upscope $end
$scope module Instruction_Memory $end
$var wire 32 c" instr_o [31:0] $end
$var wire 32 d" addr_i [31:0] $end
$upscope $end
$scope module LeftMost_MUX $end
$var wire 32 e" input_data_1 [31:0] $end
$var wire 32 f" input_data_2 [31:0] $end
$var wire 1 M mux_select $end
$var wire 32 g" output_data [31:0] $end
$upscope $end
$scope module MEM_WB_Register $end
$var wire 32 h" ALU_result_in [31:0] $end
$var wire 1 A MemtoReg_in $end
$var wire 32 i" Read_data_in [31:0] $end
$var wire 1 @ RegWrite_in $end
$var wire 1 ! clk_i $end
$var wire 5 j" inst11_7_in [4:0] $end
$var wire 1 " rst_i $end
$var wire 5 k" inst11_7_out [4:0] $end
$var wire 1 . RegWrite_out $end
$var wire 32 l" Read_data_out [31:0] $end
$var wire 1 / MemtoReg_out $end
$var wire 32 m" ALU_result_out [31:0] $end
$var reg 32 n" ALU_result_register [31:0] $end
$var reg 1 / MemtoReg_register $end
$var reg 32 o" Read_data_register [31:0] $end
$var reg 1 . RegWrite_register $end
$var reg 5 p" inst11_7_register [4:0] $end
$upscope $end
$scope module MUX_ALUSrc $end
$var wire 32 q" input_data_1 [31:0] $end
$var wire 32 r" input_data_2 [31:0] $end
$var wire 1 Z mux_select $end
$var wire 32 s" output_data [31:0] $end
$upscope $end
$scope module PC $end
$var wire 1 9 PCWrite_i $end
$var wire 1 ! clk_i $end
$var wire 32 t" pc_i [31:0] $end
$var wire 1 " rst_i $end
$var reg 32 u" pc_o [31:0] $end
$upscope $end
$scope module Registers $end
$var wire 5 v" RDaddr_i [4:0] $end
$var wire 5 w" RS1addr_i [4:0] $end
$var wire 5 x" RS2addr_i [4:0] $end
$var wire 1 . RegWrite_i $end
$var wire 1 ! clk_i $end
$var wire 1 " rst_i $end
$var wire 32 y" RS2data_o [31:0] $end
$var wire 32 z" RS1data_o [31:0] $end
$var wire 32 {" RDdata_i [31:0] $end
$var integer 32 |" i [31:0] $end
$upscope $end
$scope module RightMost_MUX $end
$var wire 32 }" input_data_1 [31:0] $end
$var wire 32 ~" input_data_2 [31:0] $end
$var wire 1 / mux_select $end
$var wire 32 !# output_data [31:0] $end
$upscope $end
$scope module Sign_Extend $end
$var wire 12 "# instruction20to31 [11:0] $end
$var wire 32 ## SignExtend [31:0] $end
$upscope $end
$upscope $end
$upscope $end
$enddefinitions $end
#0
$dumpvars
bx ##
bx "#
bx !#
bx ~"
bx }"
bx |"
bx {"
bx z"
bx y"
bx x"
bx w"
bx v"
bx u"
bx t"
bx s"
bx r"
bx q"
bx p"
bx o"
bx n"
bx m"
bx l"
bx k"
bx j"
bx i"
bx h"
bx g"
bx f"
bx e"
bx d"
bx c"
bx b"
bx a"
bx `"
bx _"
bx ^"
bx ]"
bx \"
bx ["
bx Z"
bx Y"
bx X"
bx W"
bx V"
bx U"
xT"
xS"
xR"
xQ"
bx P"
bx O"
bx N"
bx M"
bx L"
bx K"
bx J"
bx I"
bx H"
bx G"
bx F"
bx E"
bx D"
bx C"
bx B"
bx A"
bx @"
bx ?"
bx >"
x="
x<"
bx ;"
bx :"
bx 9"
bx 8"
bx 7"
bx 6"
bx 5"
bx 4"
bx 3"
bx 2"
bx 1"
bx 0"
bx /"
bx ."
bx -"
b0 ,"
bx +"
bx *"
bx )"
bx ("
bx '"
b0 &"
bx %"
bx $"
x#"
x""
x!"
bx ~
bx }
bx |
bx {
bx z
bx y
bx x
bx w
bx v
bx u
bx t
bx s
bx r
bx q
bx p
bx o
bx n
bx m
bx l
bx k
b100 j
bx i
bx h
bx g
bx f
bx e
bx d
bx c
bx b
bx a
bx `
x_
bx ^
x]
bx \
bx [
xZ
bx Y
xX
xW
xV
bx U
bx T
xS
bx R
bx Q
bx P
bx O
bx N
0M
bx L
bx K
bx J
bx I
bx H
bx G
bx F
bx E
bx D
xC
xB
xA
x@
bx ?
x>
x=
x<
bx ;
x:
x9
bx 8
bx 7
x6
bx 5
bx 4
bx 3
x2
bx 1
bx 0
x/
x.
bx -
bx ,
bx +
bx *
bx )
z(
b0 '
b11 &
b100000 %
b0 $
b0 #
1"
0!
$end
#6
b0 ^
b0 d
b0 w
b101 a
b101 e
b101 i
b0 *
b0 o
b0 f"
b0 3
b0 p
b0 O"
b0 ##
b0 4
b0 "#
06
0<
0>
0=
0]
b0 `
b0 s
b0 >"
0_
b0 8
b0 n
b0 K"
b0 z"
b0 7
b0 m
b0 I"
b0 y"
b101000000000001000010011 +
b101000000000001000010011 `"
b101000000000001000010011 c"
b100 F
b100 g"
b100 t"
b0 @"
b0 E"
b0 C"
b0 B"
b0 G"
b0 :"
b0 9"
b0 x"
b0 w"
b0 r
b0 ;
b0 b
b0 s"
b0 J
b0 {
b0 -"
b0 q"
b0 L
b0 c
b0 '"
b0 \
b0 t
b0 i"
b0 5
b0 )"
b0 /"
b0 {"
b0 !#
b0 I
b0 ."
b0 3"
b0 8"
b0 K
b0 ("
b0 4"
b0 7"
b100 ,
b100 k
b100 e"
b0 )
b0 l
b0 ^"
b0 d"
b0 u"
b0 G
b0 q
b0 ]"
b0 b"
b0 H
b0 _"
b0 a"
b0 P
b0 z
b0 ;"
b0 A"
b0 V"
b0 N
b0 5"
b0 F"
b0 Y"
b0 O
b0 6"
b0 D"
b0 X"
b0 R
b0 g
b0 M"
b0 W"
b0 Q
b0 f
b0 L"
b0 Z"
b0 Y
b0 N"
b0 U"
b0 r"
b0 T
b0 0"
b0 H"
b0 \"
b0 U
b0 *"
b0 J"
b0 ["
0Z
b0 [
b0 h
b0 ?"
b0 P"
0W
0R"
0X
0Q"
0V
0S"
0S
0T"
b0 ?
b0 y
b0 1"
b0 j"
b0 $"
b0 D
b0 u
b0 x
b0 ~
b0 E
b0 v
b0 |
b0 }
b0 %"
b0 +"
b0 h"
0B
0!"
0C
0A
0""
0@
0#"
b0 -
b0 2"
b0 k"
b0 p"
b0 v"
b0 0
b0 l"
b0 o"
b0 ~"
b0 1
b0 m"
b0 n"
b0 }"
0/
0.
b100000 |"
02
0="
19
1<"
0:
0"
#12
1"
#25
b10100 *
b10100 o
b10100 f"
16
b1010 3
b1010 p
b1010 O"
b1010 ##
b1010 4
b1010 "#
1_
b100 @"
b1010 E"
b1010 :"
b1010 x"
b10011 r
b110000000000001010010011 +
b110000000000001010010011 `"
b110000000000001010010011 c"
b1000 F
b1000 g"
b1000 t"
b101000000000001000010011 H
b101000000000001000010011 _"
b101000000000001000010011 a"
b1000 ,
b1000 k
b1000 e"
b100 )
b100 l
b100 ^"
b100 d"
b100 u"
b1 #
1!
#50
0!
#75
b1010 ^
b1010 d
b1010 w
b1100 3
b1100 p
b1100 O"
b1100 ##
b1100 4
b1100 "#
b1010 ;
b1010 b
b1010 s"
b11111111001100000000001100010011 +
b11111111001100000000001100010011 `"
b11111111001100000000001100010011 c"
b1100 F
b1100 g"
b1100 t"
b101 @"
b1100 E"
b1100 :"
b1100 x"
b1100 ,
b1100 k
b1100 e"
b1000 )
b1000 l
b1000 ^"
b1000 d"
b1000 u"
b11100 *
b11100 o
b11100 f"
b100 G
b100 q
b100 ]"
b100 b"
b110000000000001010010011 H
b110000000000001010010011 _"
b110000000000001010010011 a"
b100 P
b100 z
b100 ;"
b100 A"
b100 V"
b1010 N
b1010 5"
b1010 F"
b1010 Y"
b1010 Y
b1010 N"
b1010 U"
b1010 r"
1Z
1S
1T"
b10 #
1!
#100
0!
#125
b1100 ^
b1100 d
b1100 w
b11111111111111111111111111110011 3
b11111111111111111111111111110011 p
b11111111111111111111111111110011 O"
b11111111111111111111111111110011 ##
b111111110011 4
b111111110011 "#
b1100 ;
b1100 b
b1100 s"
b110 @"
b10011 E"
b1111111 G"
b10011 :"
b10011 x"
b1000000000000001110010011 +
b1000000000000001110010011 `"
b1000000000000001110010011 c"
b10000 F
b10000 g"
b10000 t"
b100 ?
b100 y
b100 1"
b100 j"
b100 $"
b1010 E
b1010 v
b1010 |
b1010 }
b1010 %"
b1010 +"
b1010 h"
1@
1#"
b101 P
b101 z
b101 ;"
b101 A"
b101 V"
b1100 N
b1100 5"
b1100 F"
b1100 Y"
b1100 Y
b1100 N"
b1100 U"
b1100 r"
b11111111111111111111111111101110 *
b11111111111111111111111111101110 o
b11111111111111111111111111101110 f"
b1000 G
b1000 q
b1000 ]"
b1000 b"
b11111111001100000000001100010011 H
b11111111001100000000001100010011 _"
b11111111001100000000001100010011 a"
b10000 ,
b10000 k
b10000 e"
b1100 )
b1100 l
b1100 ^"
b1100 d"
b1100 u"
b11 #
1!
#150
0!
#175
b11111111111111111111111111110011 ^
b11111111111111111111111111110011 d
b11111111111111111111111111110011 w
b10000 3
b10000 p
b10000 O"
b10000 ##
b10000 4
b10000 "#
b10010000000011 +
b10010000000011 `"
b10010000000011 c"
b10100 F
b10100 g"
b10100 t"
b111 @"
b10000 E"
b0 G"
b10000 :"
b10000 x"
b11111111111111111111111111110011 ;
b11111111111111111111111111110011 b
b11111111111111111111111111110011 s"
b1010 5
b1010 )"
b1010 /"
b1010 {"
b1010 !#
b10100 ,
b10100 k
b10100 e"
b10000 )
b10000 l
b10000 ^"
b10000 d"
b10000 u"
b101100 *
b101100 o
b101100 f"
b1100 G
b1100 q
b1100 ]"
b1100 b"
b1000000000000001110010011 H
b1000000000000001110010011 _"
b1000000000000001110010011 a"
b110 P
b110 z
b110 ;"
b110 A"
b110 V"
b10011 N
b10011 5"
b10011 F"
b10011 Y"
b1111111 Q
b1111111 f
b1111111 L"
b1111111 Z"
b11111111111111111111111111110011 Y
b11111111111111111111111111110011 N"
b11111111111111111111111111110011 U"
b11111111111111111111111111110011 r"
b101 ?
b101 y
b101 1"
b101 j"
b101 $"
b1100 E
b1100 v
b1100 |
b1100 }
b1100 %"
b1100 +"
b1100 h"
b100 -
b100 2"
b100 k"
b100 p"
b100 v"
b1010 1
b1010 m"
b1010 n"
b1010 }"
1.
b100 #
1!
#200
0!
#225
b10000 ^
b10000 d
b10000 w
1<
b0 3
b0 p
b0 O"
b0 ##
b0 4
b0 "#
1>
b1100 5
b1100 )"
b1100 /"
b1100 {"
b1100 !#
b10000 ;
b10000 b
b10000 s"
b1000 @"
b0 E"
b10 B"
b0 :"
b0 x"
b11 r
b10000000010010010000011 +
b10000000010010010000011 `"
b10000000010010010000011 c"
b11000 F
b11000 g"
b11000 t"
b101 -
b101 2"
b101 k"
b101 p"
b101 v"
b1100 1
b1100 m"
b1100 n"
b1100 }"
b110 ?
b110 y
b110 1"
b110 j"
b110 $"
b11111111111111111111111111110011 E
b11111111111111111111111111110011 v
b11111111111111111111111111110011 |
b11111111111111111111111111110011 }
b11111111111111111111111111110011 %"
b11111111111111111111111111110011 +"
b11111111111111111111111111110011 h"
b111 P
b111 z
b111 ;"
b111 A"
b111 V"
b10000 N
b10000 5"
b10000 F"
b10000 Y"
b0 Q
b0 f
b0 L"
b0 Z"
b10000 Y
b10000 N"
b10000 U"
b10000 r"
b10000 *
b10000 o
b10000 f"
b10000 G
b10000 q
b10000 ]"
b10000 b"
b10010000000011 H
b10010000000011 _"
b10010000000011 a"
b11000 ,
b11000 k
b11000 e"
b10100 )
b10100 l
b10100 ^"
b10100 d"
b10100 u"
b101 #
1!
#250
0!
#275
b101 a
b101 e
b101 i
b0 ^
b0 d
b0 w
b100 3
b100 p
b100 O"
b100 ##
b100 4
b100 "#
b1010 7
b1010 m
b1010 I"
b1010 y"
b100000000010010100000011 +
b100000000010010100000011 `"
b100000000010010100000011 c"
b11100 F
b11100 g"
b11100 t"
b1001 @"
b100 E"
b100 :"
b100 x"
b0 ;
b0 b
b0 s"
b11111111111111111111111111110011 5
b11111111111111111111111111110011 )"
b11111111111111111111111111110011 /"
b11111111111111111111111111110011 {"
b11111111111111111111111111110011 !#
b11100 ,
b11100 k
b11100 e"
b11000 )
b11000 l
b11000 ^"
b11000 d"
b11000 u"
b11100 *
b11100 o
b11100 f"
b10100 G
b10100 q
b10100 ]"
b10100 b"
b10000000010010010000011 H
b10000000010010010000011 _"
b10000000010010010000011 a"
b1000 P
b1000 z
b1000 ;"
b1000 A"
b1000 V"
b0 N
b0 5"
b0 F"
b0 Y"
b10 R
b10 g
b10 M"
b10 W"
b0 Y
b0 N"
b0 U"
b0 r"
1X
1Q"
1V
1S"
b111 ?
b111 y
b111 1"
b111 j"
b111 $"
b10000 E
b10000 v
b10000 |
b10000 }
b10000 %"
b10000 +"
b10000 h"
b110 -
b110 2"
b110 k"
b110 p"
b110 v"
b11111111111111111111111111110011 1
b11111111111111111111111111110011 m"
b11111111111111111111111111110011 n"
b11111111111111111111111111110011 }"
b110 #
1!
#300
0!
#325
b100 ^
b100 d
b100 w
b1000 3
b1000 p
b1000 O"
b1000 ##
b1000 4
b1000 "#
b0 7
b0 m
b0 I"
b0 y"
b10000 5
b10000 )"
b10000 /"
b10000 {"
b10000 !#
b101 \
b101 t
b101 i"
b100 ;
b100 b
b100 s"
b1010 J
b1010 {
b1010 -"
b1010 q"
b1010 @"
b1000 E"
b1000 :"
b1000 x"
b11000101010000000100011 +
b11000101010000000100011 `"
b11000101010000000100011 c"
b100000 F
b100000 g"
b100000 t"
b111 -
b111 2"
b111 k"
b111 p"
b111 v"
b10000 1
b10000 m"
b10000 n"
b10000 }"
b1000 ?
b1000 y
b1000 1"
b1000 j"
b1000 $"
b0 E
b0 v
b0 |
b0 }
b0 %"
b0 +"
b0 h"
1C
1A
1""
b1001 P
b1001 z
b1001 ;"
b1001 A"
b1001 V"
b100 N
b100 5"
b100 F"
b100 Y"
b100 Y
b100 N"
b100 U"
b100 r"
b1010 T
b1010 0"
b1010 H"
b1010 \"
b101000 *
b101000 o
b101000 f"
b11000 G
b11000 q
b11000 ]"
b11000 b"
b100000000010010100000011 H
b100000000010010100000011 _"
b100000000010010100000011 a"
b100000 ,
b100000 k
b100000 e"
b11100 )
b11100 l
b11100 ^"
b11100 d"
b11100 u"
b111 #
1!
#350
0!
#375
b1000 ^
b1000 d
b1000 w
06
0<
0>
1=
b0 3
b0 p
b0 O"
b0 ##
b0 4
b0 "#
b1100 8
b1100 n
b1100 K"
b1100 z"
b110 \
b110 t
b110 i"
b11111111111111111111111111110011 7
b11111111111111111111111111110011 m
b11111111111111111111111111110011 I"
b11111111111111111111111111110011 y"
b11100111000000100000110011 +
b11100111000000100000110011 `"
b11100111000000100000110011 c"
b100100 F
b100100 g"
b100100 t"
b0 @"
b110 E"
b101 C"
b110 :"
b101 9"
b110 x"
b101 w"
b100011 r
b1000 ;
b1000 b
b1000 s"
b101 J
b101 {
b101 -"
b101 q"
b1 I
b1 ."
b1 3"
b1 8"
b101 5
b101 )"
b101 /"
b101 {"
b101 !#
b100100 ,
b100100 k
b100100 e"
b100000 )
b100000 l
b100000 ^"
b100000 d"
b100000 u"
b11100 *
b11100 o
b11100 f"
b11100 G
b11100 q
b11100 ]"
b11100 b"
b11000101010000000100011 H
b11000101010000000100011 _"
b11000101010000000100011 a"
b1010 P
b1010 z
b1010 ;"
b1010 A"
b1010 V"
b1000 N
b1000 5"
b1000 F"
b1000 Y"
b1000 Y
b1000 N"
b1000 U"
b1000 r"
b0 T
b0 0"
b0 H"
b0 \"
b1001 ?
b1001 y
b1001 1"
b1001 j"
b1001 $"
b1010 D
b1010 u
b1010 x
b1010 ~
b100 E
b100 v
b100 |
b100 }
b100 %"
b100 +"
b100 h"
b1000 -
b1000 2"
b1000 k"
b1000 p"
b1000 v"
b101 0
b101 l"
b101 o"
b101 ~"
b0 1
b0 m"
b0 n"
b0 }"
1/
b1000 #
1!
#400
0!
#425
b1100 ^
b1100 d
b1100 w
16
0=
b1010 \
b1010 t
b1010 i"
b11111111111111111111111111110011 J
b11111111111111111111111111110011 {
b11111111111111111111111111110011 -"
b11111111111111111111111111110011 q"
b111001 3
b111001 p
b111001 O"
b111001 ##
b111001 4
b111001 "#
b11111111111111111111111111100111 7
b11111111111111111111111111100111 m
b11111111111111111111111111100111 I"
b11111111111111111111111111100111 y"
b11111111111111111111111111101000 8
b11111111111111111111111111101000 n
b11111111111111111111111111101000 K"
b11111111111111111111111111101000 z"
b10 `
b10 s
b10 >"
0_
b110 5
b110 )"
b110 /"
b110 {"
b110 !#
b0 I
b0 ."
b0 3"
b0 8"
b0 ;
b0 b
b0 s"
b1100 L
b1100 c
b1100 '"
b10000 @"
b11001 E"
b11000 C"
b0 B"
b1 G"
b11001 :"
b11000 9"
b11001 x"
b11000 w"
b110011 r
b11101111010000100010110011 +
b11101111010000100010110011 `"
b11101111010000100010110011 c"
b101000 F
b101000 g"
b101000 t"
b1001 -
b1001 2"
b1001 k"
b1001 p"
b1001 v"
b110 0
b110 l"
b110 o"
b110 ~"
b100 1
b100 m"
b100 n"
b100 }"
b1010 ?
b1010 y
b1010 1"
b1010 j"
b1010 $"
b101 D
b101 u
b101 x
b101 ~
b1000 E
b1000 v
b1000 |
b1000 }
b1000 %"
b1000 +"
b1000 h"
b0 P
b0 z
b0 ;"
b0 A"
b0 V"
b110 N
b110 5"
b110 F"
b110 Y"
b101 O
b101 6"
b101 D"
b101 X"
b0 Y
b0 N"
b0 U"
b0 r"
b11111111111111111111111111110011 T
b11111111111111111111111111110011 0"
b11111111111111111111111111110011 H"
b11111111111111111111111111110011 \"
b1100 U
b1100 *"
b1100 J"
b1100 ["
1W
1R"
0X
0Q"
0V
0S"
0S
0T"
b10010010 *
b10010010 o
b10010010 f"
b100000 G
b100000 q
b100000 ]"
b100000 b"
b11100111000000100000110011 H
b11100111000000100000110011 _"
b11100111000000100000110011 a"
b101000 ,
b101000 k
b101000 e"
b100100 )
b100100 l
b100100 ^"
b100100 d"
b100100 u"
b1001 #
1!
#450
0!
