Computer architecture/lab2/lab2/log/waveform_4.vcd
$date
	Tue Nov 28 09:49:13 2023
$end
$version
	Icarus Verilog
$end
$timescale
	1s
$end
$scope module TestBench $end
$var reg 1 ! Clk $end
$var reg 1 " Reset $end
$var integer 32 # counter [31:0] $end
$var integer 32 $ flush [31:0] $end
$var integer 32 % i [31:0] $end
$var integer 32 & outfile [31:0] $end
$var integer 32 ' stall [31:0] $end
$scope module CPU $end
$var wire 1 ! clk_i $end
$var wire 1 " rst_i $end
$var wire 1 ( zero_out $end
$var wire 32 ) pc_out [31:0] $end
$var wire 32 * next_pc_out [31:0] $end
$var wire 32 + instr_o [31:0] $end
$var wire 32 , added_pc_out [31:0] $end
$var wire 5 - WB_inst11_7_out [4:0] $end
$var wire 1 . WB_RegWrite_out $end
$var wire 1 / WB_MemtoReg_out $end
$var wire 32 0 WB_Data_Memory_out [31:0] $end
$var wire 32 1 WB_ALU_result_out [31:0] $end
$var wire 1 2 Stall_out $end
$var wire 32 3 Sign_Extend_out [31:0] $end
$var wire 12 4 Sign_Extend_in [11:0] $end
$var wire 32 5 RightMost_MUX_out [31:0] $end
$var wire 1 6 RegWrite_out $end
$var wire 32 7 RS2data_o [31:0] $end
$var wire 32 8 RS1data_o [31:0] $end
$var wire 1 9 PCWrite_out $end
$var wire 1 : NoOp_out $end
$var wire 32 ; Middle_MUX_out [31:0] $end
$var wire 1 < MemtoReg_out $end
$var wire 1 = MemWrite_out $end
$var wire 1 > MemRead_out $end
$var wire 5 ? MEM_inst11_7_out [4:0] $end
$var wire 1 @ MEM_RegWrite_out $end
$var wire 1 A MEM_MemtoReg_out $end
$var wire 1 B MEM_MemWrite_out $end
$var wire 1 C MEM_MemRead_out $end
$var wire 32 D MEM_Forward_B_MUX_out [31:0] $end
$var wire 32 E MEM_ALU_result_out [31:0] $end
$var wire 32 F LeftMost_Mux_out [31:0] $end
$var wire 32 G ID_pc_out [31:0] $end
$var wire 32 H ID_instr_out [31:0] $end
$var wire 2 I Forward_B_out [1:0] $end
$var wire 32 J Forward_B_MUX_out [31:0] $end
$var wire 2 K Forward_A_out [1:0] $end
$var wire 32 L Forward_A_MUX_out [31:0] $end
$var wire 1 M Flush_out $end
$var wire 5 N EX_inst24_20_out [4:0] $end
$var wire 5 O EX_inst19_15_out [4:0] $end
$var wire 5 P EX_inst11_7_out [4:0] $end
$var wire 7 Q EX_funct7_out [6:0] $end
$var wire 3 R EX_funct3_out [2:0] $end
$var wire 1 S EX_RegWrite_out $end
$var wire 32 T EX_Read_data_2_out [31:0] $end
$var wire 32 U EX_Read_data_1_out [31:0] $end
$var wire 1 V EX_MemtoReg_out $end
$var wire 1 W EX_MemWrite_out $end
$var wire 1 X EX_MemRead_out $end
$var wire 32 Y EX_Imme32_out [31:0] $end
$var wire 1 Z EX_ALUSrc_out $end
$var wire 2 [ EX_ALUOp_out [1:0] $end
$var wire 32 \ Data_Memory_out [31:0] $end
$var wire 1 ] Branch_out $end
$var wire 32 ^ ALU_result_out [31:0] $end
$var wire 1 _ ALUSrc_out $end
$var wire 2 ` ALUOp_out [1:0] $end
$var wire 3 a ALUControl_out [2:0] $end
$scope module ALU $end
$var wire 1 ( zero_out $end
$var wire 32 b read_data_2_in [31:0] $end
$var wire 32 c read_data_1_in [31:0] $end
$var wire 32 d ALU_result_out [31:0] $end
$var wire 3 e ALUControl_in [2:0] $end
$upscope $end
$scope module ALU_Control $end
$var wire 7 f funct7_in [6:0] $end
$var wire 3 g funct3_in [2:0] $end
$var wire 2 h ALUOp_in [1:0] $end
$var wire 3 i ALUControl_out [2:0] $end
$upscope $end
$scope module Add_PC $end
$var wire 32 j input_data_2 [31:0] $end
$var wire 32 k output_data [31:0] $end
$var wire 32 l input_data_1 [31:0] $end
$upscope $end
$scope module Branch_Unit $end
$var wire 32 m read_data_2_in [31:0] $end
$var wire 32 n read_data_1_in [31:0] $end
$var wire 32 o next_pc_out [31:0] $end
$var wire 32 p imme32_in [31:0] $end
$var wire 32 q ID_pc_in [31:0] $end
$var wire 1 M Flush_out $end
$var wire 1 ] Branch_in $end
$var reg 1 M flush_register $end
$upscope $end
$scope module Control $end
$var wire 7 r opcode_in [6:0] $end
$var wire 1 6 RegWrite_out $end
$var wire 1 : NoOp_in $end
$var wire 1 < MemtoReg_out $end
$var wire 1 = MemWrite_out $end
$var wire 1 > MemRead_out $end
$var wire 1 ] Branch_out $end
$var wire 1 _ ALUSrc_out $end
$var wire 2 s ALUOP_out [1:0] $end
$upscope $end
$scope module Data_Memory $end
$var wire 1 ! clk_i $end
$var wire 32 t data_o [31:0] $end
$var wire 32 u data_i [31:0] $end
$var wire 32 v addr_i [31:0] $end
$var wire 1 B MemWrite_i $end
$var wire 1 C MemRead_i $end
$upscope $end
$scope module EX_MEM_Register $end
$var wire 32 w ALU_result_in [31:0] $end
$var wire 32 x MUX_out [31:0] $end
$var wire 1 B MemWrite_out $end
$var wire 1 A MemtoReg_out $end
$var wire 1 @ RegWrite_out $end
$var wire 1 ! clk_i $end
$var wire 5 y inst11_7_out [4:0] $end
$var wire 1 " rst_i $end
$var wire 5 z inst11_7_in [4:0] $end
$var wire 1 S RegWrite_in $end
$var wire 1 V MemtoReg_in $end
$var wire 1 W MemWrite_in $end
$var wire 1 C MemRead_out $end
$var wire 1 X MemRead_in $end
$var wire 32 { MUX_in [31:0] $end
$var wire 32 | ALU_result_out [31:0] $end
$var reg 32 } ALU_result_register [31:0] $end
$var reg 32 ~ MUX_register [31:0] $end
$var reg 1 C MemRead_register $end
$var reg 1 !" MemWrite_register $end
$var reg 1 "" MemtoReg_register $end
$var reg 1 #" RegWrite_register $end
$var reg 5 $" inst11_7_register [4:0] $end
$upscope $end
$scope module Forward_A_MUX $end
$var wire 32 %" input_data_3 [31:0] $end
$var wire 32 &" input_data_4 [31:0] $end
$var wire 32 '" output_data [31:0] $end
$var wire 2 (" mux_select [1:0] $end
$var wire 32 )" input_data_2 [31:0] $end
$var wire 32 *" input_data_1 [31:0] $end
$upscope $end
$scope module Forward_B_MUX $end
$var wire 32 +" input_data_3 [31:0] $end
$var wire 32 ," input_data_4 [31:0] $end
$var wire 32 -" output_data [31:0] $end
$var wire 2 ." mux_select [1:0] $end
$var wire 32 /" input_data_2 [31:0] $end
$var wire 32 0" input_data_1 [31:0] $end
$upscope $end
$scope module Forwarding_Unit $end
$var wire 5 1" MEM_Rd_in [4:0] $end
$var wire 1 @ MEM_RegWrite_in $end
$var wire 1 . WB_RegWrite_in $end
$var wire 5 2" WB_Rd_in [4:0] $end
$var wire 2 3" Forward_B_out [1:0] $end
$var wire 2 4" Forward_A_out [1:0] $end
$var wire 5 5" EX_Rs2_in [4:0] $end
$var wire 5 6" EX_Rs1_in [4:0] $end
$var reg 2 7" Forward_A_register [1:0] $end
$var reg 2 8" Forward_B_register [1:0] $end
$upscope $end
$scope module Hazard_Detection_Unit $end
$var wire 1 9 PCWrite_out $end
$var wire 1 2 Stall_out $end
$var wire 5 9" inst19_15_in [4:0] $end
$var wire 5 :" inst24_20_in [4:0] $end
$var wire 1 " rst_i $end
$var wire 1 : NoOp_out $end
$var wire 5 ;" EX_inst11_7_in [4:0] $end
$var wire 1 X EX_MemRead_in $end
$var reg 1 : NoOp_register $end
$var reg 1 <" PCWrite_register $end
$var reg 1 =" Stall_register $end
$upscope $end
$scope module ID_EX_Register $end
$var wire 2 >" ALUOp_in [1:0] $end
$var wire 2 ?" ALUOp_out [1:0] $end
$var wire 1 _ ALUSrc_in $end
$var wire 1 > MemRead_in $end
$var wire 1 X MemRead_out $end
$var wire 1 = MemWrite_in $end
$var wire 1 W MemWrite_out $end
$var wire 1 < MemtoReg_in $end
$var wire 1 V MemtoReg_out $end
$var wire 1 6 RegWrite_in $end
$var wire 1 S RegWrite_out $end
$var wire 1 ! clk_i $end
$var wire 5 @" inst11_7_in [4:0] $end
$var wire 5 A" inst11_7_out [4:0] $end
$var wire 3 B" inst14_12_in [2:0] $end
$var wire 5 C" inst19_15_in [4:0] $end
$var wire 5 D" inst19_15_out [4:0] $end
$var wire 5 E" inst24_20_in [4:0] $end
$var wire 5 F" inst24_20_out [4:0] $end
$var wire 7 G" inst31_25_in [6:0] $end
$var wire 1 " rst_i $end
$var wire 32 H" read_data_2_out [31:0] $end
$var wire 32 I" read_data_2_in [31:0] $end
$var wire 32 J" read_data_1_out [31:0] $end
$var wire 32 K" read_data_1_in [31:0] $end
$var wire 7 L" inst31_25_out [6:0] $end
$var wire 3 M" inst14_12_out [2:0] $end
$var wire 32 N" imme_out [31:0] $end
$var wire 32 O" imme_in [31:0] $end
$var wire 1 Z ALUSrc_out $end
$var reg 2 P" ALUOP_register [1:0] $end
$var reg 1 Z ALUSrc_register $end
$var reg 1 Q" MemRead_register $end
$var reg 1 R" MemWrite_register $end
$var reg 1 S" MemtoReg_register $end
$var reg 1 T" RegWrite_register $end
$var reg 32 U" imme_register [31:0] $end
$var reg 5 V" inst11_7_register [4:0] $end
$var reg 3 W" inst14_12_register [2:0] $end
$var reg 5 X" inst19_15_register [4:0] $end
$var reg 5 Y" inst24_20_register [4:0] $end
$var reg 7 Z" inst31_25_register [6:0] $end
$var reg 32 [" read_data_1_register [31:0] $end
$var reg 32 \" read_data_2_register [31:0] $end
$upscope $end
$scope module IF_ID_Register $end
$var wire 1 M Flush_in $end
$var wire 1 2 Stall_in $end
$var wire 1 ! clk_i $end
$var wire 1 " rst_i $end
$var wire 32 ]" pc_out [31:0] $end
$var wire 32 ^" pc_in [31:0] $end
$var wire 32 _" instruction_out [31:0] $end
$var wire 32 `" instruction_in [31:0] $end
$var reg 32 a" instruction_register [31:0] $end
$var reg 32 b" pc_register [31:0] $end
$upscope $end
$scope module Instruction_Memory $end
$var wire 32 c" instr_o [31:0] $end
$var wire 32 d" addr_i [31:0] $end
$upscope $end
$scope module LeftMost_MUX $end
$var wire 32 e" input_data_1 [31:0] $end
$var wire 32 f" input_data_2 [31:0] $end
$var wire 1 M mux_select $end
$var wire 32 g" output_data [31:0] $end
$upscope $end
$scope module MEM_WB_Register $end
$var wire 32 h" ALU_result_in [31:0] $end
$var wire 1 A MemtoReg_in $end
$var wire 32 i" Read_data_in [31:0] $end
$var wire 1 @ RegWrite_in $end
$var wire 1 ! clk_i $end
$var wire 5 j" inst11_7_in [4:0] $end
$var wire 1 " rst_i $end
$var wire 5 k" inst11_7_out [4:0] $end
$var wire 1 . RegWrite_out $end
$var wire 32 l" Read_data_out [31:0] $end
$var wire 1 / MemtoReg_out $end
$var wire 32 m" ALU_result_out [31:0] $end
$var reg 32 n" ALU_result_register [31:0] $end
$var reg 1 / MemtoReg_register $end
$var reg 32 o" Read_data_register [31:0] $end
$var reg 1 . RegWrite_register $end
$var reg 5 p" inst11_7_register [4:0] $end
$upscope $end
$scope module MUX_ALUSrc $end
$var wire 32 q" input_data_1 [31:0] $end
$var wire 32 r" input_data_2 [31:0] $end
$var wire 1 Z mux_select $end
$var wire 32 s" output_data [31:0] $end
$upscope $end
$scope module PC $end
$var wire 1 9 PCWrite_i $end
$var wire 1 ! clk_i $end
$var wire 32 t" pc_i [31:0] $end
$var wire 1 " rst_i $end
$var reg 32 u" pc_o [31:0] $end
$upscope $end
$scope module Registers $end
$var wire 5 v" RDaddr_i [4:0] $end
$var wire 5 w" RS1addr_i [4:0] $end
$var wire 5 x" RS2addr_i [4:0] $end
$var wire 1 . RegWrite_i $end
$var wire 1 ! clk_i $end
$var wire 1 " rst_i $end
$var wire 32 y" RS2data_o [31:0] $end
$var wire 32 z" RS1data_o [31:0] $end
$var wire 32 {" RDdata_i [31:0] $end
$var integer 32 |" i [31:0] $end
$upscope $end
$scope module RightMost_MUX $end
$var wire 32 }" input_data_1 [31:0] $end
$var wire 32 ~" input_data_2 [31:0] $end
$var wire 1 / mux_select $end
$var wire 32 !# output_data [31:0] $end
$upscope $end
$scope module Sign_Extend $end
$var wire 12 "# instruction20to31 [11:0] $end
$var wire 32 ## SignExtend [31:0] $end
$upscope $end
$upscope $end
$upscope $end
$enddefinitions $end
#0
$dumpvars
bx ##
bx "#
bx !#
bx ~"
bx }"
bx |"
bx {"
bx z"
bx y"
bx x"
bx w"
bx v"
bx u"
bx t"
bx s"
bx r"
bx q"
bx p"
bx o"
bx n"
bx m"
bx l"
bx k"
bx j"
bx i"
bx h"
bx g"
bx f"
bx e"
bx d"
bx c"
bx b"
bx a"
bx `"
bx _"
bx ^"
bx ]"
bx \"
bx ["
bx Z"
bx Y"
bx X"
bx W"
bx V"
bx U"
xT"
xS"
xR"
xQ"
bx P"
bx O"
bx N"
bx M"
bx L"
bx K"
bx J"
bx I"
bx H"
bx G"
bx F"
bx E"
bx D"
bx C"
bx B"
bx A"
bx @"
bx ?"
bx >"
x="
x<"
bx ;"
bx :"
bx 9"
bx 8"
bx 7"
bx 6"
bx 5"
bx 4"
bx 3"
bx 2"
bx 1"
bx 0"
bx /"
bx ."
bx -"
b0 ,"
bx +"
bx *"
bx )"
bx ("
bx '"
b0 &"
bx %"
bx $"
x#"
x""
x!"
bx ~
bx }
bx |
bx {
bx z
bx y
bx x
bx w
bx v
bx u
bx t
bx s
bx r
bx q
bx p
bx o
bx n
bx m
bx l
bx k
b100 j
bx i
bx h
bx g
bx f
bx e
bx d
bx c
bx b
bx a
bx `
x_
bx ^
x]
bx \
bx [
xZ
bx Y
xX
xW
xV
bx U
bx T
xS
bx R
bx Q
bx P
bx O
bx N
0M
bx L
bx K
bx J
bx I
bx H
bx G
bx F
bx E
bx D
xC
xB
xA
x@
bx ?
x>
x=
x<
bx ;
x:
x9
bx 8
bx 7
x6
bx 5
bx 4
bx 3
x2
bx 1
bx 0
x/
x.
bx -
bx ,
bx +
bx *
bx )
z(
b0 '
b11 &
b100000 %
b0 $
b0 #
1"
0!
$end
#6
b0 ^
b0 d
b0 w
b101 a
b101 e
b101 i
b0 *
b0 o
b0 f"
b0 3
b0 p
b0 O"
b0 ##
b0 4
b0 "#
06
0<
0>
0=
0]
b0 `
b0 s
b0 >"
0_
b0 8
b0 n
b0 K"
b0 z"
b0 7
b0 m
b0 I"
b0 y"
b110000010011 +
b110000010011 `"
b110000010011 c"
b100 F
b100 g"
b100 t"
b0 @"
b0 E"
b0 C"
b0 B"
b0 G"
b0 :"
b0 9"
b0 x"
b0 w"
b0 r
b0 ;
b0 b
b0 s"
b0 J
b0 {
b0 -"
b0 q"
b0 L
b0 c
b0 '"
b0 \
b0 t
b0 i"
b0 5
b0 )"
b0 /"
b0 {"
b0 !#
b0 I
b0 ."
b0 3"
b0 8"
b0 K
b0 ("
b0 4"
b0 7"
b100 ,
b100 k
b100 e"
b0 )
b0 l
b0 ^"
b0 d"
b0 u"
b0 G
b0 q
b0 ]"
b0 b"
b0 H
b0 _"
b0 a"
b0 P
b0 z
b0 ;"
b0 A"
b0 V"
b0 N
b0 5"
b0 F"
b0 Y"
b0 O
b0 6"
b0 D"
b0 X"
b0 R
b0 g
b0 M"
b0 W"
b0 Q
b0 f
b0 L"
b0 Z"
b0 Y
b0 N"
b0 U"
b0 r"
b0 T
b0 0"
b0 H"
b0 \"
b0 U
b0 *"
b0 J"
b0 ["
0Z
b0 [
b0 h
b0 ?"
b0 P"
0W
0R"
0X
0Q"
0V
0S"
0S
0T"
b0 ?
b0 y
b0 1"
b0 j"
b0 $"
b0 D
b0 u
b0 x
b0 ~
b0 E
b0 v
b0 |
b0 }
b0 %"
b0 +"
b0 h"
0B
0!"
0C
0A
0""
0@
0#"
b0 -
b0 2"
b0 k"
b0 p"
b0 v"
b0 0
b0 l"
b0 o"
b0 ~"
b0 1
b0 m"
b0 n"
b0 }"
0/
0.
b100000 |"
02
0="
19
1<"
0:
0"
#12
1"
#25
16
1_
b11000 @"
b10011 r
b10000000000110100010011 +
b10000000000110100010011 `"
b10000000000110100010011 c"
b1000 F
b1000 g"
b1000 t"
b110000010011 H
b110000010011 _"
b110000010011 a"
b1000 ,
b1000 k
b1000 e"
b100 )
b100 l
b100 ^"
b100 d"
b100 u"
b1 #
1!
#50
0!
#75
b100 3
b100 p
b100 O"
b100 ##
b100 4
b100 "#
b10000000000111000010011 +
b10000000000111000010011 `"
b10000000000111000010011 c"
b1100 F
b1100 g"
b1100 t"
b11010 @"
b100 E"
b100 :"
b100 x"
b1100 ,
b1100 k
b1100 e"
b1000 )
b1000 l
b1000 ^"
b1000 d"
b1000 u"
b1100 *
b1100 o
b1100 f"
b100 G
b100 q
b100 ]"
b100 b"
b10000000000110100010011 H
b10000000000110100010011 _"
b10000000000110100010011 a"
b11000 P
b11000 z
b11000 ;"
b11000 A"
b11000 V"
1Z
1S
1T"
b10 #
1!
#100
0!
#125
b100 ^
b100 d
b100 w
b100 ;
b100 b
b100 s"
b11100 @"
b11111111111100000000011110010011 +
b11111111111100000000011110010011 `"
b11111111111100000000011110010011 c"
b10000 F
b10000 g"
b10000 t"
b11000 ?
b11000 y
b11000 1"
b11000 j"
b11000 $"
1@
1#"
b11010 P
b11010 z
b11010 ;"
b11010 A"
b11010 V"
b100 N
b100 5"
b100 F"
b100 Y"
b100 Y
b100 N"
b100 U"
b100 r"
b10000 *
b10000 o
b10000 f"
b1000 G
b1000 q
b1000 ]"
b1000 b"
b10000000000111000010011 H
b10000000000111000010011 _"
b10000000000111000010011 a"
b10000 ,
b10000 k
b10000 e"
b1100 )
b1100 l
b1100 ^"
b1100 d"
b1100 u"
b11 #
1!
#150
0!
#175
b11111111111111111111111111111111 3
b11111111111111111111111111111111 p
b11111111111111111111111111111111 O"
b11111111111111111111111111111111 ##
b111111111111 4
b111111111111 "#
b111110 7
b111110 m
b111110 I"
b111110 y"
b11110011010000110010110011 +
b11110011010000110010110011 `"
b11110011010000110010110011 c"
b10100 F
b10100 g"
b10100 t"
b1111 @"
b11111 E"
b1111111 G"
b11111 :"
b11111 x"
b10100 ,
b10100 k
b10100 e"
b10000 )
b10000 l
b10000 ^"
b10000 d"
b10000 u"
b1010 *
b1010 o
b1010 f"
b1100 G
b1100 q
b1100 ]"
b1100 b"
b11111111111100000000011110010011 H
b11111111111100000000011110010011 _"
b11111111111100000000011110010011 a"
b11100 P
b11100 z
b11100 ;"
b11100 A"
b11100 V"
b11010 ?
b11010 y
b11010 1"
b11010 j"
b11010 $"
b100 E
b100 v
b100 |
b100 }
b100 %"
b100 +"
b100 h"
b11000 -
b11000 2"
b11000 k"
b11000 p"
b11000 v"
1.
b100 #
1!
#200
0!
#225
b11111111111111111111111111111111 ^
b11111111111111111111111111111111 d
b11111111111111111111111111111111 w
b111100 3
b111100 p
b111100 O"
b111100 ##
b111100 4
b111100 "#
b111000 7
b111000 m
b111000 I"
b111000 y"
b100 8
b100 n
b100 K"
b100 z"
b10 `
b10 s
b10 >"
0_
b100 5
b100 )"
b100 /"
b100 {"
b100 !#
b11111111111111111111111111111111 ;
b11111111111111111111111111111111 b
b11111111111111111111111111111111 s"
b111110 J
b111110 {
b111110 -"
b111110 q"
b11001 @"
b11100 E"
b11010 C"
b1 G"
b11100 :"
b11010 9"
b11100 x"
b11010 w"
b110011 r
b11111111111111010000110100010011 +
b11111111111111010000110100010011 `"
b11111111111111010000110100010011 c"
b11000 F
b11000 g"
b11000 t"
b11010 -
b11010 2"
b11010 k"
b11010 p"
b11010 v"
b100 1
b100 m"
b100 n"
b100 }"
b11100 ?
b11100 y
b11100 1"
b11100 j"
b11100 $"
b1111 P
b1111 z
b1111 ;"
b1111 A"
b1111 V"
b11111 N
b11111 5"
b11111 F"
b11111 Y"
b1111111 Q
b1111111 f
b1111111 L"
b1111111 Z"
b11111111111111111111111111111111 Y
b11111111111111111111111111111111 N"
b11111111111111111111111111111111 U"
b11111111111111111111111111111111 r"
b111110 T
b111110 0"
b111110 H"
b111110 \"
b10001000 *
b10001000 o
b10001000 f"
b10000 G
b10000 q
b10000 ]"
b10000 b"
b11110011010000110010110011 H
b11110011010000110010110011 _"
b11110011010000110010110011 a"
b11000 ,
b11000 k
b11000 e"
b10100 )
b10100 l
b10100 ^"
b10100 d"
b10100 u"
b101 #
1!
#250
0!
#275
b100 a
b100 e
b100 i
b10000 ^
b10000 d
b10000 w
b11111111111111111111111111111111 3
b11111111111111111111111111111111 p
b11111111111111111111111111111111 O"
b11111111111111111111111111111111 ##
b111111111111 4
b111111111111 "#
b0 `
b0 s
b0 >"
1_
b111110 7
b111110 m
b111110 I"
b111110 y"
b11001010110110000011 +
b11001010110110000011 `"
b11001010110110000011 c"
b11100 F
b11100 g"
b11100 t"
b11010 @"
b11111 E"
b1111111 G"
b11111 :"
b11111 x"
b10011 r
b100 ;
b100 b
b100 s"
b100 J
b100 {
b100 -"
b100 q"
b100 L
b100 c
b100 '"
b1 I
b1 ."
b1 3"
b1 8"
b11100 ,
b11100 k
b11100 e"
b11000 )
b11000 l
b11000 ^"
b11000 d"
b11000 u"
b10010 *
b10010 o
b10010 f"
b10100 G
b10100 q
b10100 ]"
b10100 b"
b11111111111111010000110100010011 H
b11111111111111010000110100010011 _"
b11111111111111010000110100010011 a"
b11001 P
b11001 z
b11001 ;"
b11001 A"
b11001 V"
b11100 N
b11100 5"
b11100 F"
b11100 Y"
b11010 O
b11010 6"
b11010 D"
b11010 X"
b1 Q
b1 f
b1 L"
b1 Z"
b111100 Y
b111100 N"
b111100 U"
b111100 r"
b111000 T
b111000 0"
b111000 H"
b111000 \"
b100 U
b100 *"
b100 J"
b100 ["
0Z
b10 [
b10 h
b10 ?"
b10 P"
b1111 ?
b1111 y
b1111 1"
b1111 j"
b1111 $"
b111110 D
b111110 u
b111110 x
b111110 ~
b11111111111111111111111111111111 E
b11111111111111111111111111111111 v
b11111111111111111111111111111111 |
b11111111111111111111111111111111 }
b11111111111111111111111111111111 %"
b11111111111111111111111111111111 +"
b11111111111111111111111111111111 h"
b11100 -
b11100 2"
b11100 k"
b11100 p"
b11100 v"
b110 #
1!
#300
0!
#325
b101 a
b101 e
b101 i
b11 ^
b11 d
b11 w
1<
b0 3
b0 p
b0 O"
b0 ##
b0 4
b0 "#
1>
b111110 J
b111110 {
b111110 -"
b111110 q"
b11111111111111111111111111111111 ;
b11111111111111111111111111111111 b
b11111111111111111111111111111111 s"
b0 7
b0 m
b0 I"
b0 y"
b11111111111111111111111111100111 8
b11111111111111111111111111100111 n
b11111111111111111111111111100111 K"
b11111111111111111111111111100111 z"
b11111111111111111111111111111111 5
b11111111111111111111111111111111 )"
b11111111111111111111111111111111 /"
b11111111111111111111111111111111 {"
b11111111111111111111111111111111 !#
b0 I
b0 ."
b0 3"
b0 8"
b11011 @"
b0 E"
b11001 C"
b10 B"
b0 G"
b0 :"
b11001 9"
b0 x"
b11001 w"
b11 r
b1101111000000110000110011 +
b1101111000000110000110011 `"
b1101111000000110000110011 c"
b100000 F
b100000 g"
b100000 t"
b1111 -
b1111 2"
b1111 k"
b1111 p"
b1111 v"
b11111111111111111111111111111111 1
b11111111111111111111111111111111 m"
b11111111111111111111111111111111 n"
b11111111111111111111111111111111 }"
b11001 ?
b11001 y
b11001 1"
b11001 j"
b11001 $"
b100 D
b100 u
b100 x
b100 ~
b10000 E
b10000 v
b10000 |
b10000 }
b10000 %"
b10000 +"
b10000 h"
b11010 P
b11010 z
b11010 ;"
b11010 A"
b11010 V"
b11111 N
b11111 5"
b11111 F"
b11111 Y"
b1111111 Q
b1111111 f
b1111111 L"
b1111111 Z"
b11111111111111111111111111111111 Y
b11111111111111111111111111111111 N"
b11111111111111111111111111111111 U"
b11111111111111111111111111111111 r"
b111110 T
b111110 0"
b111110 H"
b111110 \"
1Z
b0 [
b0 h
b0 ?"
b0 P"
b11000 *
b11000 o
b11000 f"
b11000 G
b11000 q
b11000 ]"
b11000 b"
b11001010110110000011 H
b11001010110110000011 _"
b11001010110110000011 a"
b100000 ,
b100000 k
b100000 e"
b11100 )
b11100 l
b11100 ^"
b11100 d"
b11100 u"
b111 #
1!
#350
0!
#375
b101 a
b101 e
b101 i
b10000 ^
b10000 d
b10000 w
06
b11011 3
b11011 p
b11011 O"
b11011 ##
b11011 4
b11011 "#
0<
0>
12
1="
09
0<"
1:
b11111111111111111111111111100101 7
b11111111111111111111111111100101 m
b11111111111111111111111111100101 I"
b11111111111111111111111111100101 y"
b10 `
b10 s
b10 >"
0_
b0 8
b0 n
b0 K"
b0 z"
b111111010000010001100011 +
b111111010000010001100011 `"
b111111010000010001100011 c"
b100100 F
b100100 g"
b100100 t"
b11000 @"
b11011 E"
b11000 C"
b0 B"
b11011 :"
b11000 9"
b11011 x"
b11000 w"
b110011 r
b0 ;
b0 b
b0 s"
b0 J
b0 {
b0 -"
b0 q"
b10000 L
b10000 c
b10000 '"
b1 K
b1 ("
b1 4"
b1 7"
b10000 5
b10000 )"
b10000 /"
b10000 {"
b10000 !#
b100100 ,
b100100 k
b100100 e"
b100000 )
b100000 l
b100000 ^"
b100000 d"
b100000 u"
b1010010 *
b1010010 o
b1010010 f"
b11100 G
b11100 q
b11100 ]"
b11100 b"
b1101111000000110000110011 H
b1101111000000110000110011 _"
b1101111000000110000110011 a"
b11011 P
b11011 z
b11011 ;"
b11011 A"
b11011 V"
b0 N
b0 5"
b0 F"
b0 Y"
b11001 O
b11001 6"
b11001 D"
b11001 X"
b10 R
b10 g
b10 M"
b10 W"
b0 Q
b0 f
b0 L"
b0 Z"
b0 Y
b0 N"
b0 U"
b0 r"
b0 T
b0 0"
b0 H"
b0 \"
b11111111111111111111111111100111 U
b11111111111111111111111111100111 *"
b11111111111111111111111111100111 J"
b11111111111111111111111111100111 ["
1X
1Q"
1V
1S"
b11010 ?
b11010 y
b11010 1"
b11010 j"
b11010 $"
b111110 D
b111110 u
b111110 x
b111110 ~
b11 E
b11 v
b11 |
b11 }
b11 %"
b11 +"
b11 h"
b11001 -
b11001 2"
b11001 k"
b11001 p"
b11001 v"
b10000 1
b10000 m"
b10000 n"
b10000 }"
b1000 #
1!
#400
0!
#425
b10000 ^
b10000 d
b10000 w
16
b0 L
b0 c
b0 '"
b11 5
b11 )"
b11 /"
b11 {"
b11 !#
b11101 \
b11101 t
b11101 i"
b10 I
b10 ."
b10 3"
b10 8"
b0 K
b0 ("
b0 4"
b0 7"
b10000 ;
b10000 b
b10000 s"
b10000 J
b10000 {
b10000 -"
b10000 q"
02
0="
19
1<"
0:
b11010 -
b11010 2"
b11010 k"
b11010 p"
b11010 v"
b11 1
b11 m"
b11 n"
b11 }"
b11011 ?
b11011 y
b11011 1"
b11011 j"
b11011 $"
b0 D
b0 u
b0 x
b0 ~
b10000 E
b10000 v
b10000 |
b10000 }
b10000 %"
b10000 +"
b10000 h"
1C
1A
1""
b11000 P
b11000 z
b11000 ;"
b11000 A"
b11000 V"
b11011 N
b11011 5"
b11011 F"
b11011 Y"
b11000 O
b11000 6"
b11000 D"
b11000 X"
b0 R
b0 g
b0 M"
b0 W"
b11011 Y
b11011 N"
b11011 U"
b11011 r"
b11111111111111111111111111100101 T
b11111111111111111111111111100101 0"
b11111111111111111111111111100101 H"
b11111111111111111111111111100101 \"
b0 U
b0 *"
b0 J"
b0 ["
0Z
b10 [
b10 h
b10 ?"
b10 P"
0X
0Q"
0V
0S"
0S
0T"
b1001 #
b1 '
1!
#450
0!
#475
b11101 ^
b11101 d
b11101 w
b11101 ;
b11101 b
b11101 s"
b100 3
b100 p
b100 O"
b100 ##
b100 4
b100 "#
06
1]
b11101 J
b11101 {
b11101 -"
b11101 q"
b11 8
b11 n
b11 K"
b11 z"
b1 `
b1 s
b1 >"
b11111111111111111111111111111111 7
b11111111111111111111111111111111 m
b11111111111111111111111111111111 I"
b11111111111111111111111111111111 y"
b11111110000000000000011011100011 +
b11111110000000000000011011100011 `"
b11111110000000000000011011100011 c"
b101000 F
b101000 g"
b101000 t"
b1000 @"
b1111 E"
b11010 C"
b1111 :"
b11010 9"
b1111 x"
b11010 w"
b1100011 r
b0 \
b0 t
b0 i"
b1 I
b1 ."
b1 3"
b1 8"
b11101 5
b11101 )"
b11101 /"
b11101 {"
b11101 !#
b101000 ,
b101000 k
b101000 e"
b100100 )
b100100 l
b100100 ^"
b100100 d"
b100100 u"
b101000 *
b101000 o
b101000 f"
b100000 G
b100000 q
b100000 ]"
b100000 b"
b111111010000010001100011 H
b111111010000010001100011 _"
b111111010000010001100011 a"
1S
1T"
b11000 ?
b11000 y
b11000 1"
b11000 j"
b11000 $"
b10000 D
b10000 u
b10000 x
b10000 ~
0C
0A
0""
0@
0#"
b11011 -
b11011 2"
b11011 k"
b11011 p"
b11011 v"
b11101 0
b11101 l"
b11101 o"
b11101 ~"
b10000 1
b10000 m"
b10000 n"
b10000 }"
1/
b1010 #
1!
#500
0!
