Computer architecture/lab2/lab2/log/waveform_2.vcd
$date
	Tue Nov 28 09:49:13 2023
$end
$version
	Icarus Verilog
$end
$timescale
	1s
$end
$scope module TestBench $end
$var reg 1 ! Clk $end
$var reg 1 " Reset $end
$var integer 32 # counter [31:0] $end
$var integer 32 $ flush [31:0] $end
$var integer 32 % i [31:0] $end
$var integer 32 & outfile [31:0] $end
$var integer 32 ' stall [31:0] $end
$scope module CPU $end
$var wire 1 ! clk_i $end
$var wire 1 " rst_i $end
$var wire 1 ( zero_out $end
$var wire 32 ) pc_out [31:0] $end
$var wire 32 * next_pc_out [31:0] $end
$var wire 32 + instr_o [31:0] $end
$var wire 32 , added_pc_out [31:0] $end
$var wire 5 - WB_inst11_7_out [4:0] $end
$var wire 1 . WB_RegWrite_out $end
$var wire 1 / WB_MemtoReg_out $end
$var wire 32 0 WB_Data_Memory_out [31:0] $end
$var wire 32 1 WB_ALU_result_out [31:0] $end
$var wire 1 2 Stall_out $end
$var wire 32 3 Sign_Extend_out [31:0] $end
$var wire 12 4 Sign_Extend_in [11:0] $end
$var wire 32 5 RightMost_MUX_out [31:0] $end
$var wire 1 6 RegWrite_out $end
$var wire 32 7 RS2data_o [31:0] $end
$var wire 32 8 RS1data_o [31:0] $end
$var wire 1 9 PCWrite_out $end
$var wire 1 : NoOp_out $end
$var wire 32 ; Middle_MUX_out [31:0] $end
$var wire 1 < MemtoReg_out $end
$var wire 1 = MemWrite_out $end
$var wire 1 > MemRead_out $end
$var wire 5 ? MEM_inst11_7_out [4:0] $end
$var wire 1 @ MEM_RegWrite_out $end
$var wire 1 A MEM_MemtoReg_out $end
$var wire 1 B MEM_MemWrite_out $end
$var wire 1 C MEM_MemRead_out $end
$var wire 32 D MEM_Forward_B_MUX_out [31:0] $end
$var wire 32 E MEM_ALU_result_out [31:0] $end
$var wire 32 F LeftMost_Mux_out [31:0] $end
$var wire 32 G ID_pc_out [31:0] $end
$var wire 32 H ID_instr_out [31:0] $end
$var wire 2 I Forward_B_out [1:0] $end
$var wire 32 J Forward_B_MUX_out [31:0] $end
$var wire 2 K Forward_A_out [1:0] $end
$var wire 32 L Forward_A_MUX_out [31:0] $end
$var wire 1 M Flush_out $end
$var wire 5 N EX_inst24_20_out [4:0] $end
$var wire 5 O EX_inst19_15_out [4:0] $end
$var wire 5 P EX_inst11_7_out [4:0] $end
$var wire 7 Q EX_funct7_out [6:0] $end
$var wire 3 R EX_funct3_out [2:0] $end
$var wire 1 S EX_RegWrite_out $end
$var wire 32 T EX_Read_data_2_out [31:0] $end
$var wire 32 U EX_Read_data_1_out [31:0] $end
$var wire 1 V EX_MemtoReg_out $end
$var wire 1 W EX_MemWrite_out $end
$var wire 1 X EX_MemRead_out $end
$var wire 32 Y EX_Imme32_out [31:0] $end
$var wire 1 Z EX_ALUSrc_out $end
$var wire 2 [ EX_ALUOp_out [1:0] $end
$var wire 32 \ Data_Memory_out [31:0] $end
$var wire 1 ] Branch_out $end
$var wire 32 ^ ALU_result_out [31:0] $end
$var wire 1 _ ALUSrc_out $end
$var wire 2 ` ALUOp_out [1:0] $end
$var wire 3 a ALUControl_out [2:0] $end
$scope module ALU $end
$var wire 1 ( zero_out $end
$var wire 32 b read_data_2_in [31:0] $end
$var wire 32 c read_data_1_in [31:0] $end
$var wire 32 d ALU_result_out [31:0] $end
$var wire 3 e ALUControl_in [2:0] $end
$upscope $end
$scope module ALU_Control $end
$var wire 7 f funct7_in [6:0] $end
$var wire 3 g funct3_in [2:0] $end
$var wire 2 h ALUOp_in [1:0] $end
$var wire 3 i ALUControl_out [2:0] $end
$upscope $end
$scope module Add_PC $end
$var wire 32 j input_data_2 [31:0] $end
$var wire 32 k output_data [31:0] $end
$var wire 32 l input_data_1 [31:0] $end
$upscope $end
$scope module Branch_Unit $end
$var wire 32 m read_data_2_in [31:0] $end
$var wire 32 n read_data_1_in [31:0] $end
$var wire 32 o next_pc_out [31:0] $end
$var wire 32 p imme32_in [31:0] $end
$var wire 32 q ID_pc_in [31:0] $end
$var wire 1 M Flush_out $end
$var wire 1 ] Branch_in $end
$var reg 1 M flush_register $end
$upscope $end
$scope module Control $end
$var wire 7 r opcode_in [6:0] $end
$var wire 1 6 RegWrite_out $end
$var wire 1 : NoOp_in $end
$var wire 1 < MemtoReg_out $end
$var wire 1 = MemWrite_out $end
$var wire 1 > MemRead_out $end
$var wire 1 ] Branch_out $end
$var wire 1 _ ALUSrc_out $end
$var wire 2 s ALUOP_out [1:0] $end
$upscope $end
$scope module Data_Memory $end
$var wire 1 ! clk_i $end
$var wire 32 t data_o [31:0] $end
$var wire 32 u data_i [31:0] $end
$var wire 32 v addr_i [31:0] $end
$var wire 1 B MemWrite_i $end
$var wire 1 C MemRead_i $end
$upscope $end
$scope module EX_MEM_Register $end
$var wire 32 w ALU_result_in [31:0] $end
$var wire 32 x MUX_out [31:0] $end
$var wire 1 B MemWrite_out $end
$var wire 1 A MemtoReg_out $end
$var wire 1 @ RegWrite_out $end
$var wire 1 ! clk_i $end
$var wire 5 y inst11_7_out [4:0] $end
$var wire 1 " rst_i $end
$var wire 5 z inst11_7_in [4:0] $end
$var wire 1 S RegWrite_in $end
$var wire 1 V MemtoReg_in $end
$var wire 1 W MemWrite_in $end
$var wire 1 C MemRead_out $end
$var wire 1 X MemRead_in $end
$var wire 32 { MUX_in [31:0] $end
$var wire 32 | ALU_result_out [31:0] $end
$var reg 32 } ALU_result_register [31:0] $end
$var reg 32 ~ MUX_register [31:0] $end
$var reg 1 C MemRead_register $end
$var reg 1 !" MemWrite_register $end
$var reg 1 "" MemtoReg_register $end
$var reg 1 #" RegWrite_register $end
$var reg 5 $" inst11_7_register [4:0] $end
$upscope $end
$scope module Forward_A_MUX $end
$var wire 32 %" input_data_3 [31:0] $end
$var wire 32 &" input_data_4 [31:0] $end
$var wire 32 '" output_data [31:0] $end
$var wire 2 (" mux_select [1:0] $end
$var wire 32 )" input_data_2 [31:0] $end
$var wire 32 *" input_data_1 [31:0] $end
$upscope $end
$scope module Forward_B_MUX $end
$var wire 32 +" input_data_3 [31:0] $end
$var wire 32 ," input_data_4 [31:0] $end
$var wire 32 -" output_data [31:0] $end
$var wire 2 ." mux_select [1:0] $end
$var wire 32 /" input_data_2 [31:0] $end
$var wire 32 0" input_data_1 [31:0] $end
$upscope $end
$scope module Forwarding_Unit $end
$var wire 5 1" MEM_Rd_in [4:0] $end
$var wire 1 @ MEM_RegWrite_in $end
$var wire 1 . WB_RegWrite_in $end
$var wire 5 2" WB_Rd_in [4:0] $end
$var wire 2 3" Forward_B_out [1:0] $end
$var wire 2 4" Forward_A_out [1:0] $end
$var wire 5 5" EX_Rs2_in [4:0] $end
$var wire 5 6" EX_Rs1_in [4:0] $end
$var reg 2 7" Forward_A_register [1:0] $end
$var reg 2 8" Forward_B_register [1:0] $end
$upscope $end
$scope module Hazard_Detection_Unit $end
$var wire 1 9 PCWrite_out $end
$var wire 1 2 Stall_out $end
$var wire 5 9" inst19_15_in [4:0] $end
$var wire 5 :" inst24_20_in [4:0] $end
$var wire 1 " rst_i $end
$var wire 1 : NoOp_out $end
$var wire 5 ;" EX_inst11_7_in [4:0] $end
$var wire 1 X EX_MemRead_in $end
$var reg 1 : NoOp_register $end
$var reg 1 <" PCWrite_register $end
$var reg 1 =" Stall_register $end
$upscope $end
$scope module ID_EX_Register $end
$var wire 2 >" ALUOp_in [1:0] $end
$var wire 2 ?" ALUOp_out [1:0] $end
$var wire 1 _ ALUSrc_in $end
$var wire 1 > MemRead_in $end
$var wire 1 X MemRead_out $end
$var wire 1 = MemWrite_in $end
$var wire 1 W MemWrite_out $end
$var wire 1 < MemtoReg_in $end
$var wire 1 V MemtoReg_out $end
$var wire 1 6 RegWrite_in $end
$var wire 1 S RegWrite_out $end
$var wire 1 ! clk_i $end
$var wire 5 @" inst11_7_in [4:0] $end
$var wire 5 A" inst11_7_out [4:0] $end
$var wire 3 B" inst14_12_in [2:0] $end
$var wire 5 C" inst19_15_in [4:0] $end
$var wire 5 D" inst19_15_out [4:0] $end
$var wire 5 E" inst24_20_in [4:0] $end
$var wire 5 F" inst24_20_out [4:0] $end
$var wire 7 G" inst31_25_in [6:0] $end
$var wire 1 " rst_i $end
$var wire 32 H" read_data_2_out [31:0] $end
$var wire 32 I" read_data_2_in [31:0] $end
$var wire 32 J" read_data_1_out [31:0] $end
$var wire 32 K" read_data_1_in [31:0] $end
$var wire 7 L" inst31_25_out [6:0] $end
$var wire 3 M" inst14_12_out [2:0] $end
$var wire 32 N" imme_out [31:0] $end
$var wire 32 O" imme_in [31:0] $end
$var wire 1 Z ALUSrc_out $end
$var reg 2 P" ALUOP_register [1:0] $end
$var reg 1 Z ALUSrc_register $end
$var reg 1 Q" MemRead_register $end
$var reg 1 R" MemWrite_register $end
$var reg 1 S" MemtoReg_register $end
$var reg 1 T" RegWrite_register $end
$var reg 32 U" imme_register [31:0] $end
$var reg 5 V" inst11_7_register [4:0] $end
$var reg 3 W" inst14_12_register [2:0] $end
$var reg 5 X" inst19_15_register [4:0] $end
$var reg 5 Y" inst24_20_register [4:0] $end
$var reg 7 Z" inst31_25_register [6:0] $end
$var reg 32 [" read_data_1_register [31:0] $end
$var reg 32 \" read_data_2_register [31:0] $end
$upscope $end
$scope module IF_ID_Register $end
$var wire 1 M Flush_in $end
$var wire 1 2 Stall_in $end
$var wire 1 ! clk_i $end
$var wire 1 " rst_i $end
$var wire 32 ]" pc_out [31:0] $end
$var wire 32 ^" pc_in [31:0] $end
$var wire 32 _" instruction_out [31:0] $end
$var wire 32 `" instruction_in [31:0] $end
$var reg 32 a" instruction_register [31:0] $end
$var reg 32 b" pc_register [31:0] $end
$upscope $end
$scope module Instruction_Memory $end
$var wire 32 c" instr_o [31:0] $end
$var wire 32 d" addr_i [31:0] $end
$upscope $end
$scope module LeftMost_MUX $end
$var wire 32 e" input_data_1 [31:0] $end
$var wire 32 f" input_data_2 [31:0] $end
$var wire 1 M mux_select $end
$var wire 32 g" output_data [31:0] $end
$upscope $end
$scope module MEM_WB_Register $end
$var wire 32 h" ALU_result_in [31:0] $end
$var wire 1 A MemtoReg_in $end
$var wire 32 i" Read_data_in [31:0] $end
$var wire 1 @ RegWrite_in $end
$var wire 1 ! clk_i $end
$var wire 5 j" inst11_7_in [4:0] $end
$var wire 1 " rst_i $end
$var wire 5 k" inst11_7_out [4:0] $end
$var wire 1 . RegWrite_out $end
$var wire 32 l" Read_data_out [31:0] $end
$var wire 1 / MemtoReg_out $end
$var wire 32 m" ALU_result_out [31:0] $end
$var reg 32 n" ALU_result_register [31:0] $end
$var reg 1 / MemtoReg_register $end
$var reg 32 o" Read_data_register [31:0] $end
$var reg 1 . RegWrite_register $end
$var reg 5 p" inst11_7_register [4:0] $end
$upscope $end
$scope module MUX_ALUSrc $end
$var wire 32 q" input_data_1 [31:0] $end
$var wire 32 r" input_data_2 [31:0] $end
$var wire 1 Z mux_select $end
$var wire 32 s" output_data [31:0] $end
$upscope $end
$scope module PC $end
$var wire 1 9 PCWrite_i $end
$var wire 1 ! clk_i $end
$var wire 32 t" pc_i [31:0] $end
$var wire 1 " rst_i $end
$var reg 32 u" pc_o [31:0] $end
$upscope $end
$scope module Registers $end
$var wire 5 v" RDaddr_i [4:0] $end
$var wire 5 w" RS1addr_i [4:0] $end
$var wire 5 x" RS2addr_i [4:0] $end
$var wire 1 . RegWrite_i $end
$var wire 1 ! clk_i $end
$var wire 1 " rst_i $end
$var wire 32 y" RS2data_o [31:0] $end
$var wire 32 z" RS1data_o [31:0] $end
$var wire 32 {" RDdata_i [31:0] $end
$var integer 32 |" i [31:0] $end
$upscope $end
$scope module RightMost_MUX $end
$var wire 32 }" input_data_1 [31:0] $end
$var wire 32 ~" input_data_2 [31:0] $end
$var wire 1 / mux_select $end
$var wire 32 !# output_data [31:0] $end
$upscope $end
$scope module Sign_Extend $end
$var wire 12 "# instruction20to31 [11:0] $end
$var wire 32 ## SignExtend [31:0] $end
$upscope $end
$upscope $end
$upscope $end
$enddefinitions $end
#0
$dumpvars
bx ##
bx "#
bx !#
bx ~"
bx }"
bx |"
bx {"
bx z"
bx y"
bx x"
bx w"
bx v"
bx u"
bx t"
bx s"
bx r"
bx q"
bx p"
bx o"
bx n"
bx m"
bx l"
bx k"
bx j"
bx i"
bx h"
bx g"
bx f"
bx e"
bx d"
bx c"
bx b"
bx a"
bx `"
bx _"
bx ^"
bx ]"
bx \"
bx ["
bx Z"
bx Y"
bx X"
bx W"
bx V"
bx U"
xT"
xS"
xR"
xQ"
bx P"
bx O"
bx N"
bx M"
bx L"
bx K"
bx J"
bx I"
bx H"
bx G"
bx F"
bx E"
bx D"
bx C"
bx B"
bx A"
bx @"
bx ?"
bx >"
x="
x<"
bx ;"
bx :"
bx 9"
bx 8"
bx 7"
bx 6"
bx 5"
bx 4"
bx 3"
bx 2"
bx 1"
bx 0"
bx /"
bx ."
bx -"
b0 ,"
bx +"
bx *"
bx )"
bx ("
bx '"
b0 &"
bx %"
bx $"
x#"
x""
x!"
bx ~
bx }
bx |
bx {
bx z
bx y
bx x
bx w
bx v
bx u
bx t
bx s
bx r
bx q
bx p
bx o
bx n
bx m
bx l
bx k
b100 j
bx i
bx h
bx g
bx f
bx e
bx d
bx c
bx b
bx a
bx `
x_
bx ^
x]
bx \
bx [
xZ
bx Y
xX
xW
xV
bx U
bx T
xS
bx R
bx Q
bx P
bx O
bx N
0M
bx L
bx K
bx J
bx I
bx H
bx G
bx F
bx E
bx D
xC
xB
xA
x@
bx ?
x>
x=
x<
bx ;
x:
x9
bx 8
bx 7
x6
bx 5
bx 4
bx 3
x2
bx 1
bx 0
x/
x.
bx -
bx ,
bx +
bx *
bx )
z(
b0 '
b11 &
b100000 %
b0 $
b0 #
1"
0!
$end
#6
b0 ^
b0 d
b0 w
b101 a
b101 e
b101 i
b0 *
b0 o
b0 f"
b0 3
b0 p
b0 O"
b0 ##
b0 4
b0 "#
06
0<
0>
0=
0]
b0 `
b0 s
b0 >"
0_
b0 8
b0 n
b0 K"
b0 z"
b0 7
b0 m
b0 I"
b0 y"
b1100010000000100000110011 +
b1100010000000100000110011 `"
b1100010000000100000110011 c"
b100 F
b100 g"
b100 t"
b0 @"
b0 E"
b0 C"
b0 B"
b0 G"
b0 :"
b0 9"
b0 x"
b0 w"
b0 r
b0 ;
b0 b
b0 s"
b0 J
b0 {
b0 -"
b0 q"
b0 L
b0 c
b0 '"
b0 \
b0 t
b0 i"
b0 5
b0 )"
b0 /"
b0 {"
b0 !#
b0 I
b0 ."
b0 3"
b0 8"
b0 K
b0 ("
b0 4"
b0 7"
b100 ,
b100 k
b100 e"
b0 )
b0 l
b0 ^"
b0 d"
b0 u"
b0 G
b0 q
b0 ]"
b0 b"
b0 H
b0 _"
b0 a"
b0 P
b0 z
b0 ;"
b0 A"
b0 V"
b0 N
b0 5"
b0 F"
b0 Y"
b0 O
b0 6"
b0 D"
b0 X"
b0 R
b0 g
b0 M"
b0 W"
b0 Q
b0 f
b0 L"
b0 Z"
b0 Y
b0 N"
b0 U"
b0 r"
b0 T
b0 0"
b0 H"
b0 \"
b0 U
b0 *"
b0 J"
b0 ["
0Z
b0 [
b0 h
b0 ?"
b0 P"
0W
0R"
0X
0Q"
0V
0S"
0S
0T"
b0 ?
b0 y
b0 1"
b0 j"
b0 $"
b0 D
b0 u
b0 x
b0 ~
b0 E
b0 v
b0 |
b0 }
b0 %"
b0 +"
b0 h"
0B
0!"
0C
0A
0""
0@
0#"
b0 -
b0 2"
b0 k"
b0 p"
b0 v"
b0 0
b0 l"
b0 o"
b0 ~"
b0 1
b0 m"
b0 n"
b0 }"
0/
0.
b100000 |"
02
0="
19
1<"
0:
0"
#12
1"
#25
b110000 *
b110000 o
b110000 f"
b11000 3
b11000 p
b11000 O"
b11000 ##
b11000 4
b11000 "#
16
b11111111111111111111111111101000 7
b11111111111111111111111111101000 m
b11111111111111111111111111101000 I"
b11111111111111111111111111101000 y"
b10 `
b10 s
b10 >"
b10000 @"
b11000 E"
b10000 C"
b11000 :"
b10000 9"
b11000 x"
b10000 w"
b110011 r
b1100110000000100000110011 +
b1100110000000100000110011 `"
b1100110000000100000110011 c"
b1000 F
b1000 g"
b1000 t"
b1100010000000100000110011 H
b1100010000000100000110011 _"
b1100010000000100000110011 a"
b1000 ,
b1000 k
b1000 e"
b100 )
b100 l
b100 ^"
b100 d"
b100 u"
b1 #
1!
#50
0!
#75
b11111111111111111111111111101000 ^
b11111111111111111111111111101000 d
b11111111111111111111111111101000 w
b11001 3
b11001 p
b11001 O"
b11001 ##
b11001 4
b11001 "#
b11111111111111111111111111100111 7
b11111111111111111111111111100111 m
b11111111111111111111111111100111 I"
b11111111111111111111111111100111 y"
b11111111111111111111111111101000 ;
b11111111111111111111111111101000 b
b11111111111111111111111111101000 s"
b1101010000000100000110011 +
b1101010000000100000110011 `"
b1101010000000100000110011 c"
b1100 F
b1100 g"
b1100 t"
b11001 E"
b11001 :"
b11001 x"
b11111111111111111111111111101000 J
b11111111111111111111111111101000 {
b11111111111111111111111111101000 -"
b11111111111111111111111111101000 q"
b1100 ,
b1100 k
b1100 e"
b1000 )
b1000 l
b1000 ^"
b1000 d"
b1000 u"
b110110 *
b110110 o
b110110 f"
b100 G
b100 q
b100 ]"
b100 b"
b1100110000000100000110011 H
b1100110000000100000110011 _"
b1100110000000100000110011 a"
b10000 P
b10000 z
b10000 ;"
b10000 A"
b10000 V"
b11000 N
b11000 5"
b11000 F"
b11000 Y"
b10000 O
b10000 6"
b10000 D"
b10000 X"
b11000 Y
b11000 N"
b11000 U"
b11000 r"
b11111111111111111111111111101000 T
b11111111111111111111111111101000 0"
b11111111111111111111111111101000 H"
b11111111111111111111111111101000 \"
b10 [
b10 h
b10 ?"
b10 P"
1S
1T"
b10 #
1!
#100
0!
#125
b11111111111111111111111111001111 ^
b11111111111111111111111111001111 d
b11111111111111111111111111001111 w
b11111111111111111111111111101000 L
b11111111111111111111111111101000 c
b11111111111111111111111111101000 '"
b11010 3
b11010 p
b11010 O"
b11010 ##
b11010 4
b11010 "#
b11111111111111111111111111100111 ;
b11111111111111111111111111100111 b
b11111111111111111111111111100111 s"
b11111111111111111111111111100110 7
b11111111111111111111111111100110 m
b11111111111111111111111111100110 I"
b11111111111111111111111111100110 y"
b10 K
b10 ("
b10 4"
b10 7"
b11111111111111111111111111100111 J
b11111111111111111111111111100111 {
b11111111111111111111111111100111 -"
b11111111111111111111111111100111 q"
b11010 E"
b11010 :"
b11010 x"
b1110010000000100000110011 +
b1110010000000100000110011 `"
b1110010000000100000110011 c"
b10000 F
b10000 g"
b10000 t"
b10000 ?
b10000 y
b10000 1"
b10000 j"
b10000 $"
b11111111111111111111111111101000 D
b11111111111111111111111111101000 u
b11111111111111111111111111101000 x
b11111111111111111111111111101000 ~
b11111111111111111111111111101000 E
b11111111111111111111111111101000 v
b11111111111111111111111111101000 |
b11111111111111111111111111101000 }
b11111111111111111111111111101000 %"
b11111111111111111111111111101000 +"
b11111111111111111111111111101000 h"
1@
1#"
b11001 N
b11001 5"
b11001 F"
b11001 Y"
b11001 Y
b11001 N"
b11001 U"
b11001 r"
b11111111111111111111111111100111 T
b11111111111111111111111111100111 0"
b11111111111111111111111111100111 H"
b11111111111111111111111111100111 \"
b111100 *
b111100 o
b111100 f"
b1000 G
b1000 q
b1000 ]"
b1000 b"
b1101010000000100000110011 H
b1101010000000100000110011 _"
b1101010000000100000110011 a"
b10000 ,
b10000 k
b10000 e"
b1100 )
b1100 l
b1100 ^"
b1100 d"
b1100 u"
b11 #
1!
#150
0!
#175
b11111111111111111111111110110101 ^
b11111111111111111111111110110101 d
b11111111111111111111111110110101 w
b11100 3
b11100 p
b11100 O"
b11100 ##
b11100 4
b11100 "#
b11111111111111111111111111001111 L
b11111111111111111111111111001111 c
b11111111111111111111111111001111 '"
b111000 7
b111000 m
b111000 I"
b111000 y"
b11111111111111111111111111100110 ;
b11111111111111111111111111100110 b
b11111111111111111111111111100110 s"
b11111111111111111111111111101000 8
b11111111111111111111111111101000 n
b11111111111111111111111111101000 K"
b11111111111111111111111111101000 z"
b1000000000010110000100011 +
b1000000000010110000100011 `"
b1000000000010110000100011 c"
b10100 F
b10100 g"
b10100 t"
b11100 E"
b11100 :"
b11100 x"
b11111111111111111111111111100110 J
b11111111111111111111111111100110 {
b11111111111111111111111111100110 -"
b11111111111111111111111111100110 q"
b11111111111111111111111111101000 5
b11111111111111111111111111101000 )"
b11111111111111111111111111101000 /"
b11111111111111111111111111101000 {"
b11111111111111111111111111101000 !#
b10 K
b10 ("
b10 4"
b10 7"
b10100 ,
b10100 k
b10100 e"
b10000 )
b10000 l
b10000 ^"
b10000 d"
b10000 u"
b1000100 *
b1000100 o
b1000100 f"
b1100 G
b1100 q
b1100 ]"
b1100 b"
b1110010000000100000110011 H
b1110010000000100000110011 _"
b1110010000000100000110011 a"
b11010 N
b11010 5"
b11010 F"
b11010 Y"
b11010 Y
b11010 N"
b11010 U"
b11010 r"
b11111111111111111111111111100110 T
b11111111111111111111111111100110 0"
b11111111111111111111111111100110 H"
b11111111111111111111111111100110 \"
b11111111111111111111111111100111 D
b11111111111111111111111111100111 u
b11111111111111111111111111100111 x
b11111111111111111111111111100111 ~
b11111111111111111111111111001111 E
b11111111111111111111111111001111 v
b11111111111111111111111111001111 |
b11111111111111111111111111001111 }
b11111111111111111111111111001111 %"
b11111111111111111111111111001111 +"
b11111111111111111111111111001111 h"
b10000 -
b10000 2"
b10000 k"
b10000 p"
b10000 v"
b11111111111111111111111111101000 1
b11111111111111111111111111101000 m"
b11111111111111111111111111101000 n"
b11111111111111111111111111101000 }"
1.
b100 #
1!
#200
0!
#225
b11111111111111111111111111101101 ^
b11111111111111111111111111101101 d
b11111111111111111111111111101101 w
1_
b11111111111111111111111110110101 L
b11111111111111111111111110110101 c
b11111111111111111111111110110101 '"
06
1=
b0 8
b0 n
b0 K"
b0 z"
b111000 ;
b111000 b
b111000 s"
b11000 3
b11000 p
b11000 O"
b11000 ##
b11000 4
b11000 "#
b11111111111111111111111111001111 7
b11111111111111111111111111001111 m
b11111111111111111111111111001111 I"
b11111111111111111111111111001111 y"
b0 `
b0 s
b0 >"
b11111111111111111111111111001111 5
b11111111111111111111111111001111 )"
b11111111111111111111111111001111 /"
b11111111111111111111111111001111 {"
b11111111111111111111111111001111 !#
b10 K
b10 ("
b10 4"
b10 7"
b111000 J
b111000 {
b111000 -"
b111000 q"
b11000 @"
b10000 E"
b0 C"
b10 B"
b10000 :"
b0 9"
b10000 x"
b0 w"
b100011 r
b1000001111011111000000010110011 +
b1000001111011111000000010110011 `"
b1000001111011111000000010110011 c"
b11000 F
b11000 g"
b11000 t"
b11111111111111111111111111001111 1
b11111111111111111111111111001111 m"
b11111111111111111111111111001111 n"
b11111111111111111111111111001111 }"
b11111111111111111111111111100110 D
b11111111111111111111111111100110 u
b11111111111111111111111111100110 x
b11111111111111111111111111100110 ~
b11111111111111111111111110110101 E
b11111111111111111111111110110101 v
b11111111111111111111111110110101 |
b11111111111111111111111110110101 }
b11111111111111111111111110110101 %"
b11111111111111111111111110110101 +"
b11111111111111111111111110110101 h"
b11100 N
b11100 5"
b11100 F"
b11100 Y"
b11100 Y
b11100 N"
b11100 U"
b11100 r"
b111000 T
b111000 0"
b111000 H"
b111000 \"
b11111111111111111111111111101000 U
b11111111111111111111111111101000 *"
b11111111111111111111111111101000 J"
b11111111111111111111111111101000 ["
b1000000 *
b1000000 o
b1000000 f"
b10000 G
b10000 q
b10000 ]"
b10000 b"
b1000000000010110000100011 H
b1000000000010110000100011 _"
b1000000000010110000100011 a"
b11000 ,
b11000 k
b11000 e"
b10100 )
b10100 l
b10100 ^"
b10100 d"
b10100 u"
b101 #
1!
#250
0!
#275
b11000 ^
b11000 d
b11000 w
b101 a
b101 e
b101 i
16
0=
b10000011110 3
b10000011110 p
b10000011110 O"
b10000011110 ##
b10000011110 4
b10000011110 "#
b111110 8
b111110 n
b111110 K"
b111110 z"
b10 `
b10 s
b10 >"
0_
b0 L
b0 c
b0 '"
b11000 ;
b11000 b
b11000 s"
b111100 7
b111100 m
b111100 I"
b111100 y"
b1111000001000000100110011 +
b1111000001000000100110011 `"
b1111000001000000100110011 c"
b11100 F
b11100 g"
b11100 t"
b1 @"
b11110 E"
b11111 C"
b0 B"
b100000 G"
b11110 :"
b11111 9"
b11110 x"
b11111 w"
b110011 r
b10 I
b10 ."
b10 3"
b10 8"
b0 K
b0 ("
b0 4"
b0 7"
b11111111111111111111111111101101 J
b11111111111111111111111111101101 {
b11111111111111111111111111101101 -"
b11111111111111111111111111101101 q"
b11111111111111111111111110110101 5
b11111111111111111111111110110101 )"
b11111111111111111111111110110101 /"
b11111111111111111111111110110101 {"
b11111111111111111111111110110101 !#
b11100 ,
b11100 k
b11100 e"
b11000 )
b11000 l
b11000 ^"
b11000 d"
b11000 u"
b100001010000 *
b100001010000 o
b100001010000 f"
b10100 G
b10100 q
b10100 ]"
b10100 b"
b1000001111011111000000010110011 H
b1000001111011111000000010110011 _"
b1000001111011111000000010110011 a"
b11000 P
b11000 z
b11000 ;"
b11000 A"
b11000 V"
b10000 N
b10000 5"
b10000 F"
b10000 Y"
b0 O
b0 6"
b0 D"
b0 X"
b10 R
b10 g
b10 M"
b10 W"
b11000 Y
b11000 N"
b11000 U"
b11000 r"
b11111111111111111111111111001111 T
b11111111111111111111111111001111 0"
b11111111111111111111111111001111 H"
b11111111111111111111111111001111 \"
b0 U
b0 *"
b0 J"
b0 ["
1Z
b0 [
b0 h
b0 ?"
b0 P"
1W
1R"
0S
0T"
b111000 D
b111000 u
b111000 x
b111000 ~
b11111111111111111111111111101101 E
b11111111111111111111111111101101 v
b11111111111111111111111111101101 |
b11111111111111111111111111101101 }
b11111111111111111111111111101101 %"
b11111111111111111111111111101101 +"
b11111111111111111111111111101101 h"
b11111111111111111111111110110101 1
b11111111111111111111111110110101 m"
b11111111111111111111111110110101 n"
b11111111111111111111111110110101 }"
b110 #
1!
#300
0!
#325
b10 ^
b10 d
b10 w
b11 a
b11 e
b11 i
b11110 3
b11110 p
b11110 O"
b11110 ##
b11110 4
b11110 "#
b111100 J
b111100 {
b111100 -"
b111100 q"
b0 8
b0 n
b0 K"
b0 z"
b11111111111111111111111111101101 5
b11111111111111111111111111101101 )"
b11111111111111111111111111101101 /"
b11111111111111111111111111101101 {"
b11111111111111111111111111101101 !#
b0 I
b0 ."
b0 3"
b0 8"
b111100 ;
b111100 b
b111100 s"
b111110 L
b111110 c
b111110 '"
b10 @"
b1 C"
b0 G"
b1 9"
b1 w"
b1000000001000010101000110010011 +
b1000000001000010101000110010011 `"
b1000000001000010101000110010011 c"
b100000 F
b100000 g"
b100000 t"
b11111111111111111111111111101101 1
b11111111111111111111111111101101 m"
b11111111111111111111111111101101 n"
b11111111111111111111111111101101 }"
b11000 ?
b11000 y
b11000 1"
b11000 j"
b11000 $"
b11111111111111111111111111101101 D
b11111111111111111111111111101101 u
b11111111111111111111111111101101 x
b11111111111111111111111111101101 ~
b11000 E
b11000 v
b11000 |
b11000 }
b11000 %"
b11000 +"
b11000 h"
1B
1!"
0@
0#"
b1 P
b1 z
b1 ;"
b1 A"
b1 V"
b11110 N
b11110 5"
b11110 F"
b11110 Y"
b11111 O
b11111 6"
b11111 D"
b11111 X"
b0 R
b0 g
b0 M"
b0 W"
b100000 Q
b100000 f
b100000 L"
b100000 Z"
b10000011110 Y
b10000011110 N"
b10000011110 U"
b10000011110 r"
b111100 T
b111100 0"
b111100 H"
b111100 \"
b111110 U
b111110 *"
b111110 J"
b111110 ["
0Z
b10 [
b10 h
b10 ?"
b10 P"
0W
0R"
1S
1T"
b1010100 *
b1010100 o
b1010100 f"
b11000 G
b11000 q
b11000 ]"
b11000 b"
b1111000001000000100110011 H
b1111000001000000100110011 _"
b1111000001000000100110011 a"
b100000 ,
b100000 k
b100000 e"
b11100 )
b11100 l
b11100 ^"
b11100 d"
b11100 u"
b111 #
1!
#350
0!
#375
b101 a
b101 e
b101 i
b111110 ^
b111110 d
b111110 w
b10000000010 3
b10000000010 p
b10000000010 O"
b10000000010 ##
b10000000010 4
b10000000010 "#
b0 7
b0 m
b0 I"
b0 y"
b0 `
b0 s
b0 >"
1_
b1000000000011010010011 +
b1000000000011010010011 `"
b1000000000011010010011 c"
b100100 F
b100100 g"
b100100 t"
b11 @"
b10 E"
b10 C"
b101 B"
b100000 G"
b10 :"
b10 9"
b10 x"
b10 w"
b10011 r
b10 L
b10 c
b10 '"
b11000 5
b11000 )"
b11000 /"
b11000 {"
b11000 !#
b10 K
b10 ("
b10 4"
b10 7"
b100100 ,
b100100 k
b100100 e"
b100000 )
b100000 l
b100000 ^"
b100000 d"
b100000 u"
b100000100000 *
b100000100000 o
b100000100000 f"
b11100 G
b11100 q
b11100 ]"
b11100 b"
b1000000001000010101000110010011 H
b1000000001000010101000110010011 _"
b1000000001000010101000110010011 a"
b10 P
b10 z
b10 ;"
b10 A"
b10 V"
b1 O
b1 6"
b1 D"
b1 X"
b0 Q
b0 f
b0 L"
b0 Z"
b11110 Y
b11110 N"
b11110 U"
b11110 r"
b0 U
b0 *"
b0 J"
b0 ["
b1 ?
b1 y
b1 1"
b1 j"
b1 $"
b111100 D
b111100 u
b111100 x
b111100 ~
b10 E
b10 v
b10 |
b10 }
b10 %"
b10 +"
b10 h"
0B
0!"
1@
1#"
b11000 -
b11000 2"
b11000 k"
b11000 p"
b11000 v"
b11000 1
b11000 m"
b11000 n"
b11000 }"
0.
b1000 #
1!
#400
0!
