Computer architecture/lab2/lab2/simulation_output.txt
VCD info: dumpfile waveform.vcd opened for output.
WARNING: code/supplied/testbench.v:38: $readmemb(instruction.txt): Not enough words in the file for the requested range [0:255].
cycle =           0, Stall = 0, Flush = 0
PC =          0
Registers
x0 =          0, x8  =          0, x16 =          0, x24 =        -24
x1 =          0, x9  =          0, x17 =          0, x25 =        -25
x2 =          0, x10 =          0, x18 =          0, x26 =        -26
x3 =          0, x11 =          0, x19 =          0, x27 =        -27
x4 =          0, x12 =          0, x20 =          0, x28 =         56
x5 =          0, x13 =          0, x21 =          0, x29 =         58
x6 =          0, x14 =          0, x22 =          0, x30 =         60
x7 =          0, x15 =          0, x23 =          0, x31 =         62
Data Memory: 0x00 =          5
Data Memory: 0x04 =          6
Data Memory: 0x08 =         10
Data Memory: 0x0C =         18
Data Memory: 0x10 =         29
Data Memory: 0x14 =          0
Data Memory: 0x18 =          0
Data Memory: 0x1C =          0


cycle =           1, Stall = 0, Flush = 0
PC =          4
Registers
x0 =          0, x8  =          0, x16 =          0, x24 =        -24
x1 =          0, x9  =          0, x17 =          0, x25 =        -25
x2 =          0, x10 =          0, x18 =          0, x26 =        -26
x3 =          0, x11 =          0, x19 =          0, x27 =        -27
x4 =          0, x12 =          0, x20 =          0, x28 =         56
x5 =          0, x13 =          0, x21 =          0, x29 =         58
x6 =          0, x14 =          0, x22 =          0, x30 =         60
x7 =          0, x15 =          0, x23 =          0, x31 =         62
Data Memory: 0x00 =          5
Data Memory: 0x04 =          6
Data Memory: 0x08 =         10
Data Memory: 0x0C =         18
Data Memory: 0x10 =         29
Data Memory: 0x14 =          0
Data Memory: 0x18 =          0
Data Memory: 0x1C =          0


cycle =           2, Stall = 0, Flush = 0
PC =          8
Registers
x0 =          0, x8  =          0, x16 =          0, x24 =        -24
x1 =          0, x9  =          0, x17 =          0, x25 =        -25
x2 =          0, x10 =          0, x18 =          0, x26 =        -26
x3 =          0, x11 =          0, x19 =          0, x27 =        -27
x4 =          0, x12 =          0, x20 =          0, x28 =         56
x5 =          0, x13 =          0, x21 =          0, x29 =         58
x6 =          0, x14 =          0, x22 =          0, x30 =         60
x7 =          0, x15 =          0, x23 =          0, x31 =         62
Data Memory: 0x00 =          5
Data Memory: 0x04 =          6
Data Memory: 0x08 =         10
Data Memory: 0x0C =         18
Data Memory: 0x10 =         29
Data Memory: 0x14 =          0
Data Memory: 0x18 =          0
Data Memory: 0x1C =          0


cycle =           3, Stall = 0, Flush = 0
PC =         12
Registers
x0 =          0, x8  =          0, x16 =          0, x24 =        -24
x1 =          0, x9  =          0, x17 =          0, x25 =        -25
x2 =          0, x10 =          0, x18 =          0, x26 =        -26
x3 =          0, x11 =          0, x19 =          0, x27 =        -27
x4 =          0, x12 =          0, x20 =          0, x28 =         56
x5 =          0, x13 =          0, x21 =          0, x29 =         58
x6 =          0, x14 =          0, x22 =          0, x30 =         60
x7 =          0, x15 =          0, x23 =          0, x31 =         62
Data Memory: 0x00 =          5
Data Memory: 0x04 =          6
Data Memory: 0x08 =         10
Data Memory: 0x0C =         18
Data Memory: 0x10 =         29
Data Memory: 0x14 =          0
Data Memory: 0x18 =          0
Data Memory: 0x1C =          0


cycle =           4, Stall = 0, Flush = 0
PC =         16
Registers
x0 =          0, x8  =          0, x16 =          0, x24 =        -24
x1 =          0, x9  =          0, x17 =          0, x25 =        -25
x2 =          0, x10 =          0, x18 =          0, x26 =        -26
x3 =          0, x11 =          0, x19 =          0, x27 =        -27
x4 =          0, x12 =          0, x20 =          0, x28 =         56
x5 =          0, x13 =          0, x21 =          0, x29 =         58
x6 =          0, x14 =          0, x22 =          0, x30 =         60
x7 =          0, x15 =          0, x23 =          0, x31 =         62
Data Memory: 0x00 =          5
Data Memory: 0x04 =          6
Data Memory: 0x08 =         10
Data Memory: 0x0C =         18
Data Memory: 0x10 =         29
Data Memory: 0x14 =          0
Data Memory: 0x18 =          0
Data Memory: 0x1C =          0


cycle =           5, Stall = 0, Flush = 0
PC =         20
Registers
x0 =          0, x8  =          0, x16 =          0, x24 =        -24
x1 =          0, x9  =          0, x17 =          0, x25 =        -25
x2 =          0, x10 =          0, x18 =          0, x26 =        -26
x3 =          0, x11 =          0, x19 =          0, x27 =        -27
x4 =          0, x12 =          0, x20 =          0, x28 =         56
x5 =          0, x13 =          0, x21 =          0, x29 =         58
x6 =          0, x14 =          0, x22 =          0, x30 =          0
x7 =          0, x15 =          0, x23 =          0, x31 =         62
Data Memory: 0x00 =          5
Data Memory: 0x04 =          6
Data Memory: 0x08 =         10
Data Memory: 0x0C =         18
Data Memory: 0x10 =         29
Data Memory: 0x14 =          0
Data Memory: 0x18 =          0
Data Memory: 0x1C =          0


cycle =           6, Stall = 0, Flush = 0
PC =         24
Registers
x0 =          0, x8  =          0, x16 =          0, x24 =        -24
x1 =          0, x9  =          0, x17 =          0, x25 =        -25
x2 =          0, x10 =          0, x18 =          0, x26 =        -26
x3 =          0, x11 =          0, x19 =          0, x27 =        -27
x4 =          0, x12 =          0, x20 =          0, x28 =         56
x5 =          0, x13 =          0, x21 =          0, x29 =         58
x6 =          0, x14 =          0, x22 =          0, x30 =          0
x7 =          0, x15 =          0, x23 =          0, x31 =         62
Data Memory: 0x00 =          5
Data Memory: 0x04 =          6
Data Memory: 0x08 =         10
Data Memory: 0x0C =         18
Data Memory: 0x10 =         29
Data Memory: 0x14 =          0
Data Memory: 0x18 =          0
Data Memory: 0x1C =          0


cycle =           7, Stall = 0, Flush = 1
PC =         28
Registers
x0 =          0, x8  =        -14, x16 =          0, x24 =        -24
x1 =          0, x9  =          0, x17 =          0, x25 =        -25
x2 =          0, x10 =          0, x18 =          0, x26 =        -26
x3 =          0, x11 =          0, x19 =          0, x27 =        -27
x4 =          0, x12 =          0, x20 =          0, x28 =         56
x5 =          0, x13 =          0, x21 =          0, x29 =         58
x6 =          0, x14 =          0, x22 =          0, x30 =          0
x7 =          0, x15 =          0, x23 =          0, x31 =         62
Data Memory: 0x00 =          5
Data Memory: 0x04 =          6
Data Memory: 0x08 =         10
Data Memory: 0x0C =         18
Data Memory: 0x10 =         29
Data Memory: 0x14 =          0
Data Memory: 0x18 =          0
Data Memory: 0x1C =          0


cycle =           8, Stall = 0, Flush = 1
PC =         34
Registers
x0 =          0, x8  =        -14, x16 =          0, x24 =        -24
x1 =          0, x9  =          0, x17 =          0, x25 =        -25
x2 =          0, x10 =          0, x18 =          0, x26 =        -26
x3 =          0, x11 =          0, x19 =          0, x27 =        -27
x4 =          0, x12 =          0, x20 =          0, x28 =         56
x5 =          0, x13 =          0, x21 =          0, x29 =         58
x6 =          0, x14 =          0, x22 =          0, x30 =          0
x7 =          0, x15 =          0, x23 =          0, x31 =         62
Data Memory: 0x00 =          5
Data Memory: 0x04 =          6
Data Memory: 0x08 =         10
Data Memory: 0x0C =         18
Data Memory: 0x10 =         29
Data Memory: 0x14 =          0
Data Memory: 0x18 =          0
Data Memory: 0x1C =          0


cycle =           9, Stall = 0, Flush = 1
PC =         38
Registers
x0 =          0, x8  =        -14, x16 =          0, x24 =        -24
x1 =          0, x9  =          0, x17 =          0, x25 =        -25
x2 =          0, x10 =          0, x18 =          0, x26 =        -26
x3 =          0, x11 =          0, x19 =          0, x27 =        -27
x4 =          0, x12 =          0, x20 =          0, x28 =         56
x5 =          0, x13 =          0, x21 =          0, x29 =         58
x6 =          0, x14 =          0, x22 =          0, x30 =          0
x7 =          0, x15 =          0, x23 =          0, x31 =         62
Data Memory: 0x00 =          5
Data Memory: 0x04 =          6
Data Memory: 0x08 =         10
Data Memory: 0x0C =         18
Data Memory: 0x10 =         29
Data Memory: 0x14 =          0
Data Memory: 0x18 =          0
Data Memory: 0x1C =          0


cycle =          10, Stall = 0, Flush = 1
PC =         42
Registers
x0 =          0, x8  =        -14, x16 =          0, x24 =        -24
x1 =          0, x9  =          0, x17 =          0, x25 =        -25
x2 =          0, x10 =          0, x18 =          0, x26 =        -26
x3 =          0, x11 =          0, x19 =          0, x27 =        -27
x4 =          0, x12 =          0, x20 =          0, x28 =         56
x5 =          0, x13 =          0, x21 =          0, x29 =         58
x6 =          0, x14 =          0, x22 =          0, x30 =          0
x7 =          0, x15 =          0, x23 =          0, x31 =         62
Data Memory: 0x00 =          5
Data Memory: 0x04 =          6
Data Memory: 0x08 =         10
Data Memory: 0x0C =         18
Data Memory: 0x10 =         29
Data Memory: 0x14 =          0
Data Memory: 0x18 =          0
Data Memory: 0x1C =          0


cycle =          11, Stall = 0, Flush = 1
PC =         46
Registers
x0 =          0, x8  =        -14, x16 =          0, x24 =        -24
x1 =          0, x9  =          0, x17 =          0, x25 =        -25
x2 =          0, x10 =          0, x18 =          0, x26 =        -26
x3 =          0, x11 =          0, x19 =          0, x27 =        -27
x4 =          0, x12 =          0, x20 =          0, x28 =         56
x5 =          0, x13 =          0, x21 =          0, x29 =         58
x6 =          0, x14 =          0, x22 =          0, x30 =          0
x7 =          0, x15 =          0, x23 =          0, x31 =         62
Data Memory: 0x00 =          5
Data Memory: 0x04 =          6
Data Memory: 0x08 =         10
Data Memory: 0x0C =         18
Data Memory: 0x10 =         29
Data Memory: 0x14 =          0
Data Memory: 0x18 =          0
Data Memory: 0x1C =          0


cycle =          12, Stall = 0, Flush = 1
PC =         50
Registers
x0 =          0, x8  =        -14, x16 =          0, x24 =        -24
x1 =          0, x9  =          0, x17 =          0, x25 =        -25
x2 =          0, x10 =          0, x18 =          0, x26 =        -26
x3 =          0, x11 =          0, x19 =          0, x27 =        -27
x4 =          0, x12 =          0, x20 =          0, x28 =         56
x5 =          0, x13 =          0, x21 =          0, x29 =         58
x6 =          0, x14 =          0, x22 =          0, x30 =          0
x7 =          0, x15 =          0, x23 =          0, x31 =         62
Data Memory: 0x00 =          5
Data Memory: 0x04 =          6
Data Memory: 0x08 =          0
Data Memory: 0x0C =         18
Data Memory: 0x10 =         29
Data Memory: 0x14 =          0
Data Memory: 0x18 =          0
Data Memory: 0x1C =          0


cycle =          13, Stall = 0, Flush = 1
PC =         54
Registers
x0 =          0, x8  =        -14, x16 =          0, x24 =        -24
x1 =          0, x9  =          0, x17 =          0, x25 =        -25
x2 =          0, x10 =          0, x18 =          0, x26 =        -26
x3 =          0, x11 =          0, x19 =          0, x27 =        -27
x4 =          0, x12 =          0, x20 =          0, x28 =         56
x5 =          0, x13 =          0, x21 =          0, x29 =         58
x6 =          0, x14 =          0, x22 =          0, x30 =          0
x7 =          0, x15 =          0, x23 =          0, x31 =         62
Data Memory: 0x00 =          5
Data Memory: 0x04 =          6
Data Memory: 0x08 =          0
Data Memory: 0x0C =         18
Data Memory: 0x10 =         29
Data Memory: 0x14 =          0
Data Memory: 0x18 =          0
Data Memory: 0x1C =          0


cycle =          14, Stall = 0, Flush = 1
PC =         58
Registers
x0 =          0, x8  =        -14, x16 =          0, x24 =        -24
x1 =          0, x9  =          0, x17 =          0, x25 =        -25
x2 =          0, x10 =          0, x18 =          0, x26 =        -26
x3 =          0, x11 =          0, x19 =          0, x27 =        -27
x4 =          0, x12 =         50, x20 =          0, x28 =         56
x5 =          0, x13 =          0, x21 =          0, x29 =         58
x6 =          0, x14 =          0, x22 =          0, x30 =          0
x7 =          0, x15 =          0, x23 =          0, x31 =         62
Data Memory: 0x00 =          5
Data Memory: 0x04 =          6
Data Memory: 0x08 =          0
Data Memory: 0x0C =         18
Data Memory: 0x10 =         29
Data Memory: 0x14 =          0
Data Memory: 0x18 =          0
Data Memory: 0x1C =          0


cycle =          15, Stall = 0, Flush = 1
PC =         62
Registers
x0 =          0, x8  =        -14, x16 =          0, x24 =        -24
x1 =          0, x9  =          0, x17 =          0, x25 =        -25
x2 =          0, x10 =          0, x18 =          0, x26 =        -26
x3 =          0, x11 =          0, x19 =          0, x27 =        -27
x4 =          0, x12 =         50, x20 =          0, x28 =         56
x5 =          0, x13 =          0, x21 =          0, x29 =         58
x6 =          0, x14 =          0, x22 =          0, x30 =          0
x7 =          0, x15 =          0, x23 =          0, x31 =        -21
Data Memory: 0x00 =          5
Data Memory: 0x04 =          6
Data Memory: 0x08 =          0
Data Memory: 0x0C =         18
Data Memory: 0x10 =         29
Data Memory: 0x14 =          0
Data Memory: 0x18 =          0
Data Memory: 0x1C =          0


cycle =          16, Stall = 0, Flush = 1
PC =         66
Registers
x0 =          0, x8  =        -14, x16 =          0, x24 =        -24
x1 =          0, x9  =          0, x17 =          0, x25 =        -25
x2 =          0, x10 =          0, x18 =          0, x26 =        -26
x3 =          0, x11 =          0, x19 =          0, x27 =        -27
x4 =          0, x12 =         50, x20 =          0, x28 =         56
x5 =          0, x13 =          0, x21 =          0, x29 =         58
x6 =          0, x14 =          0, x22 =          0, x30 =          0
x7 =          0, x15 =          0, x23 =          0, x31 =        -21
Data Memory: 0x00 =          5
Data Memory: 0x04 =          6
Data Memory: 0x08 =          0
Data Memory: 0x0C =         18
Data Memory: 0x10 =         29
Data Memory: 0x14 =          0
Data Memory: 0x18 =          0
Data Memory: 0x1C =          0


cycle =          17, Stall = 0, Flush = 1
PC =         70
Registers
x0 =          0, x8  =        -14, x16 =          0, x24 =        -24
x1 =          0, x9  =          0, x17 =          0, x25 =        -25
x2 =          0, x10 =          0, x18 =          0, x26 =        -26
x3 =          0, x11 =          0, x19 =          0, x27 =        -27
x4 =          0, x12 =         50, x20 =          0, x28 =         56
x5 =          0, x13 =          0, x21 =          0, x29 =         58
x6 =          0, x14 =          0, x22 =          0, x30 =          0
x7 =          0, x15 =          0, x23 =          0, x31 =        -21
Data Memory: 0x00 =          5
Data Memory: 0x04 =          6
Data Memory: 0x08 =          0
Data Memory: 0x0C =         18
Data Memory: 0x10 =         29
Data Memory: 0x14 =          0
Data Memory: 0x18 =          0
Data Memory: 0x1C =          0


cycle =          18, Stall = 0, Flush = 2
PC =         74
Registers
x0 =          0, x8  =        -14, x16 =          0, x24 =        -24
x1 =          0, x9  =          0, x17 =          0, x25 =          0
x2 =          0, x10 =          0, x18 =          0, x26 =        -26
x3 =          0, x11 =          0, x19 =          0, x27 =        -27
x4 =          0, x12 =         50, x20 =          0, x28 =         56
x5 =          0, x13 =          0, x21 =          0, x29 =         58
x6 =          0, x14 =          0, x22 =          0, x30 =          0
x7 =          0, x15 =          0, x23 =          0, x31 =        -21
Data Memory: 0x00 =          5
Data Memory: 0x04 =          6
Data Memory: 0x08 =          0
Data Memory: 0x0C =         18
Data Memory: 0x10 =         29
Data Memory: 0x14 =          0
Data Memory: 0x18 =          0
Data Memory: 0x1C =          0


cycle =          19, Stall = 0, Flush = 2
PC =         82
Registers
x0 =          0, x8  =        -14, x16 =          0, x24 =        -24
x1 =          0, x9  =          0, x17 =          0, x25 =          0
x2 =          0, x10 =          0, x18 =          0, x26 =        -26
x3 =          0, x11 =          0, x19 =          0, x27 =        -27
x4 =          0, x12 =         50, x20 =          0, x28 =         56
x5 =          0, x13 =          0, x21 =          0, x29 =         58
x6 =          0, x14 =          0, x22 =          0, x30 =          0
x7 =          0, x15 =          0, x23 =          0, x31 =        -21
Data Memory: 0x00 =          5
Data Memory: 0x04 =          6
Data Memory: 0x08 =          0
Data Memory: 0x0C =         18
Data Memory: 0x10 =         29
Data Memory: 0x14 =          0
Data Memory: 0x18 =          0
Data Memory: 0x1C =          0


cycle =          20, Stall = 0, Flush = 2
PC =         86
Registers
x0 =          0, x8  =        -14, x16 =          0, x24 =        -24
x1 =          0, x9  =          0, x17 =          0, x25 =          0
x2 =          0, x10 =          0, x18 =          0, x26 =        -26
x3 =          0, x11 =          0, x19 =          0, x27 =        -27
x4 =          0, x12 =         50, x20 =          0, x28 =         56
x5 =          0, x13 =          0, x21 =          0, x29 =         58
x6 =          0, x14 =          0, x22 =          0, x30 =          0
x7 =          0, x15 =          0, x23 =          0, x31 =        -21
Data Memory: 0x00 =          5
Data Memory: 0x04 =          6
Data Memory: 0x08 =          0
Data Memory: 0x0C =         18
Data Memory: 0x10 =         29
Data Memory: 0x14 =          0
Data Memory: 0x18 =          0
Data Memory: 0x1C =          0


cycle =          21, Stall = 0, Flush = 2
PC =         90
Registers
x0 =          0, x8  =        -14, x16 =          0, x24 =        -24
x1 =          0, x9  =          0, x17 =          0, x25 =          0
x2 =          0, x10 =          0, x18 =          0, x26 =        -26
x3 =          0, x11 =          0, x19 =          0, x27 =        -27
x4 =          0, x12 =         50, x20 =          0, x28 =         56
x5 =          0, x13 =          0, x21 =          0, x29 =         58
x6 =          0, x14 =          0, x22 =          0, x30 =          0
x7 =          0, x15 =          0, x23 =          0, x31 =        -21
Data Memory: 0x00 =          5
Data Memory: 0x04 =          6
Data Memory: 0x08 =          0
Data Memory: 0x0C =         18
Data Memory: 0x10 =         29
Data Memory: 0x14 =          0
Data Memory: 0x18 =          0
Data Memory: 0x1C =          0


cycle =          22, Stall = 0, Flush = 2
PC =         94
Registers
x0 =          0, x8  =        -14, x16 =          0, x24 =        -24
x1 =          0, x9  =          0, x17 =          0, x25 =          0
x2 =          0, x10 =          0, x18 =          0, x26 =        -26
x3 =          0, x11 =          0, x19 =          0, x27 =        -27
x4 =          0, x12 =         50, x20 =          0, x28 =         56
x5 =          0, x13 =          0, x21 =          0, x29 =         58
x6 =          0, x14 =          0, x22 =          0, x30 =          0
x7 =          0, x15 =          0, x23 =          0, x31 =        -21
Data Memory: 0x00 =          5
Data Memory: 0x04 =          6
Data Memory: 0x08 =          0
Data Memory: 0x0C =         18
Data Memory: 0x10 =         29
Data Memory: 0x14 =          0
Data Memory: 0x18 =          0
Data Memory: 0x1C =          0


cycle =          23, Stall = 0, Flush = 2
PC =         98
Registers
x0 =          0, x8  =        -14, x16 =          0, x24 =        -24
x1 =          0, x9  =          0, x17 =          0, x25 =          0
x2 =          0, x10 =          0, x18 =          0, x26 =        -26
x3 =          0, x11 =          0, x19 =          0, x27 =        -27
x4 =          0, x12 =         50, x20 =          0, x28 =         56
x5 =          0, x13 =          0, x21 =          0, x29 =         58
x6 =          0, x14 =          0, x22 =          0, x30 =          0
x7 =          0, x15 =          0, x23 =          0, x31 =        -21
Data Memory: 0x00 =          5
Data Memory: 0x04 =          6
Data Memory: 0x08 =          0
Data Memory: 0x0C =         18
Data Memory: 0x10 =         29
Data Memory: 0x14 =          0
Data Memory: 0x18 =          0
Data Memory: 0x1C =          0


cycle =          24, Stall = 0, Flush = 2
PC =        102
Registers
x0 =          0, x8  =        -14, x16 =          0, x24 =        -24
x1 =          0, x9  =          0, x17 =          0, x25 =          0
x2 =          0, x10 =          0, x18 =          0, x26 =        -26
x3 =          0, x11 =          0, x19 =          0, x27 =        -27
x4 =          0, x12 =         50, x20 =          0, x28 =         56
x5 =          0, x13 =          0, x21 =          0, x29 =         58
x6 =          0, x14 =          0, x22 =          0, x30 =          0
x7 =          0, x15 =          0, x23 =          0, x31 =        -21
Data Memory: 0x00 =          5
Data Memory: 0x04 =          6
Data Memory: 0x08 =          0
Data Memory: 0x0C =         18
Data Memory: 0x10 =         29
Data Memory: 0x14 =          0
Data Memory: 0x18 =          0
Data Memory: 0x1C =          0


cycle =          25, Stall = 0, Flush = 2
PC =        106
Registers
x0 =          0, x8  =        -14, x16 =          0, x24 =        -24
x1 =          0, x9  =          0, x17 =          0, x25 =          0
x2 =          0, x10 =          0, x18 =          0, x26 =        -26
x3 =          0, x11 =          0, x19 =          0, x27 =        -27
x4 =          0, x12 =         50, x20 =          0, x28 =         56
x5 =          0, x13 =          0, x21 =          0, x29 =         58
x6 =          0, x14 =          0, x22 =          0, x30 =          0
x7 =          0, x15 =          0, x23 =          0, x31 =        -21
Data Memory: 0x00 =          5
Data Memory: 0x04 =          6
Data Memory: 0x08 =          0
Data Memory: 0x0C =         18
Data Memory: 0x10 =         29
Data Memory: 0x14 =          0
Data Memory: 0x18 =          0
Data Memory: 0x1C =          0


cycle =          26, Stall = 0, Flush = 2
PC =        110
Registers
x0 =          0, x8  =        -14, x16 =          0, x24 =        -24
x1 =          0, x9  =          0, x17 =          0, x25 =          0
x2 =          0, x10 =          0, x18 =          0, x26 =        -26
x3 =          0, x11 =          0, x19 =          0, x27 =        -27
x4 =          0, x12 =         50, x20 =          0, x28 =         56
x5 =          0, x13 =          0, x21 =          0, x29 =         58
x6 =          0, x14 =          0, x22 =          0, x30 =          0
x7 =          0, x15 =        -14, x23 =          0, x31 =        -21
Data Memory: 0x00 =          5
Data Memory: 0x04 =          6
Data Memory: 0x08 =          0
Data Memory: 0x0C =         18
Data Memory: 0x10 =         29
Data Memory: 0x14 =          0
Data Memory: 0x18 =          0
Data Memory: 0x1C =          0


cycle =          27, Stall = 0, Flush = 2
PC =        114
Registers
x0 =          0, x8  =          0, x16 =          0, x24 =        -24
x1 =          0, x9  =          0, x17 =          0, x25 =          0
x2 =          0, x10 =          0, x18 =          0, x26 =        -26
x3 =          0, x11 =          0, x19 =          0, x27 =        -27
x4 =          0, x12 =         50, x20 =          0, x28 =         56
x5 =          0, x13 =          0, x21 =          0, x29 =         58
x6 =          0, x14 =          0, x22 =          0, x30 =          0
x7 =          0, x15 =        -14, x23 =          0, x31 =        -21
Data Memory: 0x00 =          5
Data Memory: 0x04 =          6
Data Memory: 0x08 =          0
Data Memory: 0x0C =         18
Data Memory: 0x10 =         29
Data Memory: 0x14 =          0
Data Memory: 0x18 =          0
Data Memory: 0x1C =          0


cycle =          28, Stall = 0, Flush = 2
PC =        118
Registers
x0 =          0, x8  =          0, x16 =          0, x24 =        -24
x1 =          0, x9  =          0, x17 =          0, x25 =          0
x2 =          0, x10 =          0, x18 =          0, x26 =        -26
x3 =          0, x11 =          0, x19 =          0, x27 =        -27
x4 =          0, x12 =         50, x20 =          0, x28 =         56
x5 =          0, x13 =          7, x21 =          0, x29 =         58
x6 =          0, x14 =          0, x22 =          0, x30 =          0
x7 =          0, x15 =        -14, x23 =          0, x31 =        -21
Data Memory: 0x00 =          5
Data Memory: 0x04 =          6
Data Memory: 0x08 =          0
Data Memory: 0x0C =         18
Data Memory: 0x10 =         29
Data Memory: 0x14 =          0
Data Memory: 0x18 =          0
Data Memory: 0x1C =          0


cycle =          29, Stall = 0, Flush = 2
PC =        122
Registers
x0 =          0, x8  =          0, x16 =          0, x24 =        -24
x1 =          0, x9  =          0, x17 =          0, x25 =          0
x2 =          0, x10 =          0, x18 =          0, x26 =        -26
x3 =          0, x11 =          0, x19 =          0, x27 =        -27
x4 =          0, x12 =         50, x20 =          0, x28 =         56
x5 =          0, x13 =          7, x21 =          0, x29 =         58
x6 =          0, x14 =          0, x22 =          0, x30 =          0
x7 =          0, x15 =        -14, x23 =          0, x31 =        -21
Data Memory: 0x00 =          5
Data Memory: 0x04 =          6
Data Memory: 0x08 =          0
Data Memory: 0x0C =         18
Data Memory: 0x10 =         29
Data Memory: 0x14 =          0
Data Memory: 0x18 =          0
Data Memory: 0x1C =          0


cycle =          30, Stall = 0, Flush = 2
PC =        126
Registers
x0 =          0, x8  =          0, x16 =          0, x24 =        -24
x1 =          0, x9  =          0, x17 =          0, x25 =          0
x2 =          0, x10 =          0, x18 =          0, x26 =        -26
x3 =          0, x11 =          0, x19 =          0, x27 =        -27
x4 =          0, x12 =          0, x20 =          0, x28 =         56
x5 =          0, x13 =          7, x21 =          0, x29 =         58
x6 =          0, x14 =          0, x22 =          0, x30 =          0
x7 =          0, x15 =        -14, x23 =          0, x31 =        -21
Data Memory: 0x00 =          5
Data Memory: 0x04 =          6
Data Memory: 0x08 =          0
Data Memory: 0x0C =         18
Data Memory: 0x10 =         29
Data Memory: 0x14 =          0
Data Memory: 0x18 =          0
Data Memory: 0x1C =          0


cycle =          31, Stall = 0, Flush = 2
PC =        130
Registers
x0 =          0, x8  =          0, x16 =          0, x24 =        -24
x1 =          0, x9  =          6, x17 =          0, x25 =          0
x2 =          0, x10 =          0, x18 =          0, x26 =        -26
x3 =          0, x11 =          0, x19 =          0, x27 =        -27
x4 =          0, x12 =          0, x20 =          0, x28 =         56
x5 =          0, x13 =          7, x21 =          0, x29 =         58
x6 =          0, x14 =          0, x22 =          0, x30 =          0
x7 =          0, x15 =        -14, x23 =          0, x31 =        -21
Data Memory: 0x00 =        -26
Data Memory: 0x04 =          6
Data Memory: 0x08 =          0
Data Memory: 0x0C =         18
Data Memory: 0x10 =         29
Data Memory: 0x14 =          0
Data Memory: 0x18 =          0
Data Memory: 0x1C =          0


cycle =          32, Stall = 0, Flush = 2
PC =        134
Registers
x0 =          0, x8  =          0, x16 =          0, x24 =        -24
x1 =          0, x9  =          6, x17 =          0, x25 =          0
x2 =          0, x10 =          0, x18 =          0, x26 =        -26
x3 =          0, x11 =          0, x19 =          0, x27 =        -27
x4 =          0, x12 =          0, x20 =          0, x28 =         56
x5 =          0, x13 =          7, x21 =          0, x29 =         58
x6 =          0, x14 =          0, x22 =          0, x30 =          0
x7 =          0, x15 =        -14, x23 =          0, x31 =        -21
Data Memory: 0x00 =        -26
Data Memory: 0x04 =          6
Data Memory: 0x08 =          0
Data Memory: 0x0C =         18
Data Memory: 0x10 =         29
Data Memory: 0x14 =          0
Data Memory: 0x18 =          0
Data Memory: 0x1C =          0


cycle =          33, Stall = 0, Flush = 2
PC =        138
Registers
x0 =          0, x8  =          0, x16 =          0, x24 =        -24
x1 =          0, x9  =          6, x17 =          0, x25 =          0
x2 =          0, x10 =          0, x18 =          0, x26 =        -26
x3 =          0, x11 =          0, x19 =          0, x27 =        -27
x4 =          0, x12 =          0, x20 =          0, x28 =         56
x5 =          0, x13 =          7, x21 =          0, x29 =         58
x6 =          0, x14 =          0, x22 =          0, x30 =          0
x7 =          0, x15 =        -14, x23 =          0, x31 =        -21
Data Memory: 0x00 =        -26
Data Memory: 0x04 =          6
Data Memory: 0x08 =          0
Data Memory: 0x0C =         18
Data Memory: 0x10 =         29
Data Memory: 0x14 =          0
Data Memory: 0x18 =          0
Data Memory: 0x1C =          0


cycle =          34, Stall = 0, Flush = 2
PC =        142
Registers
x0 =          0, x8  =          0, x16 =          0, x24 =        -24
x1 =          0, x9  =          6, x17 =          0, x25 =          0
x2 =          0, x10 =          0, x18 =          0, x26 =        -26
x3 =          0, x11 =          0, x19 =          0, x27 =        -27
x4 =          0, x12 =          0, x20 =          0, x28 =         56
x5 =          0, x13 =          7, x21 =          0, x29 =         58
x6 =          0, x14 =          0, x22 =          0, x30 =          0
x7 =          0, x15 =        -14, x23 =          0, x31 =        -21
Data Memory: 0x00 =        -26
Data Memory: 0x04 =          6
Data Memory: 0x08 =          0
Data Memory: 0x0C =         18
Data Memory: 0x10 =         29
Data Memory: 0x14 =          0
Data Memory: 0x18 =          0
Data Memory: 0x1C =          0


cycle =          35, Stall = 0, Flush = 2
PC =        146
Registers
x0 =          0, x8  =          0, x16 =          0, x24 =        -24
x1 =          0, x9  =          6, x17 =          0, x25 =          0
x2 =          0, x10 =          0, x18 =          0, x26 =        -26
x3 =          0, x11 =          0, x19 =          0, x27 =        -27
x4 =          0, x12 =          0, x20 =          0, x28 =         56
x5 =          0, x13 =          7, x21 =          0, x29 =         58
x6 =          0, x14 =          0, x22 =          0, x30 =          0
x7 =          0, x15 =        -14, x23 =          0, x31 =        -21
Data Memory: 0x00 =        -26
Data Memory: 0x04 =          6
Data Memory: 0x08 =          0
Data Memory: 0x0C =         18
Data Memory: 0x10 =         29
Data Memory: 0x14 =          0
Data Memory: 0x18 =          0
Data Memory: 0x1C =          0


cycle =          36, Stall = 0, Flush = 2
PC =        150
Registers
x0 =          0, x8  =          0, x16 =          0, x24 =        -24
x1 =          0, x9  =          6, x17 =          0, x25 =          0
x2 =          0, x10 =          0, x18 =          0, x26 =        -26
x3 =          0, x11 =          0, x19 =          0, x27 =        -27
x4 =          0, x12 =          0, x20 =          0, x28 =         56
x5 =          0, x13 =          7, x21 =          0, x29 =         58
x6 =        -14, x14 =          0, x22 =          0, x30 =          0
x7 =          0, x15 =        -14, x23 =          0, x31 =        -21
Data Memory: 0x00 =        -26
Data Memory: 0x04 =          6
Data Memory: 0x08 =          0
Data Memory: 0x0C =         18
Data Memory: 0x10 =         29
Data Memory: 0x14 =          0
Data Memory: 0x18 =          0
Data Memory: 0x1C =          0


cycle =          37, Stall = 0, Flush = 2
PC =        154
Registers
x0 =          0, x8  =          0, x16 =          0, x24 =        -24
x1 =          0, x9  =          6, x17 =          0, x25 =          0
x2 =          0, x10 =          0, x18 =          0, x26 =          0
x3 =          0, x11 =          0, x19 =          0, x27 =        -27
x4 =          0, x12 =          0, x20 =          0, x28 =         56
x5 =          0, x13 =          7, x21 =          0, x29 =         58
x6 =        -14, x14 =          0, x22 =          0, x30 =          0
x7 =          0, x15 =        -14, x23 =          0, x31 =        -21
Data Memory: 0x00 =        -26
Data Memory: 0x04 =          6
Data Memory: 0x08 =          0
Data Memory: 0x0C =         18
Data Memory: 0x10 =         29
Data Memory: 0x14 =          0
Data Memory: 0x18 =          0
Data Memory: 0x1C =          0


cycle =          38, Stall = 0, Flush = 2
PC =        158
Registers
x0 =          0, x8  =          0, x16 =          0, x24 =        -24
x1 =          0, x9  =          6, x17 =          0, x25 =          0
x2 =          0, x10 =          0, x18 =          0, x26 =          0
x3 =          0, x11 =          0, x19 =          0, x27 =        -27
x4 =          0, x12 =          0, x20 =          0, x28 =         56
x5 =          0, x13 =          7, x21 =          0, x29 =         58
x6 =        -14, x14 =          0, x22 =          0, x30 =          0
x7 =          0, x15 =        -14, x23 =          0, x31 =        -21
Data Memory: 0x00 =        -26
Data Memory: 0x04 =          6
Data Memory: 0x08 =          0
Data Memory: 0x0C =         18
Data Memory: 0x10 =         29
Data Memory: 0x14 =          0
Data Memory: 0x18 =          0
Data Memory: 0x1C =          0


cycle =          39, Stall = 0, Flush = 2
PC =        162
Registers
x0 =          0, x8  =          0, x16 =          0, x24 =        -24
