Computer architecture/lab2/lab2/waveform.vcd
$date
	Mon Dec 25 18:22:18 2023
$end
$version
	Icarus Verilog
$end
$timescale
	1s
$end
$scope module TestBench $end
$var reg 1 ! Clk $end
$var reg 1 " Reset $end
$var integer 32 # counter [31:0] $end
$var integer 32 $ flush [31:0] $end
$var integer 32 % i [31:0] $end
$var integer 32 & outfile [31:0] $end
$var integer 32 ' stall [31:0] $end
$scope module CPU $end
$var wire 1 ! clk_i $end
$var wire 1 " rst_i $end
$var wire 1 ( zero_out $end
$var wire 32 ) pc_out [31:0] $end
$var wire 32 * next_pc_out [31:0] $end
$var wire 32 + instr_o [31:0] $end
$var wire 32 , added_pc_out [31:0] $end
$var wire 5 - WB_inst11_7_out [4:0] $end
$var wire 1 . WB_RegWrite_out $end
$var wire 1 / WB_MemtoReg_out $end
$var wire 32 0 WB_Data_Memory_out [31:0] $end
$var wire 32 1 WB_ALU_result_out [31:0] $end
$var wire 1 2 Stall_out $end
$var wire 32 3 Sign_Extend_out [31:0] $end
$var wire 12 4 Sign_Extend_in [11:0] $end
$var wire 32 5 RightMost_MUX_out [31:0] $end
$var wire 1 6 RegWrite_out $end
$var wire 32 7 RS2data_o [31:0] $end
$var wire 32 8 RS1data_o [31:0] $end
$var wire 1 9 PCWrite_out $end
$var wire 1 : NoOp_out $end
$var wire 32 ; Middle_MUX_out [31:0] $end
$var wire 1 < MemtoReg_out $end
$var wire 1 = MemWrite_out $end
$var wire 1 > MemRead_out $end
$var wire 5 ? MEM_inst11_7_out [4:0] $end
$var wire 1 @ MEM_RegWrite_out $end
$var wire 1 A MEM_MemtoReg_out $end
$var wire 1 B MEM_MemWrite_out $end
$var wire 1 C MEM_MemRead_out $end
$var wire 32 D MEM_Forward_B_MUX_out [31:0] $end
$var wire 32 E MEM_ALU_result_out [31:0] $end
$var wire 32 F LeftMost_Mux_out [31:0] $end
$var wire 32 G ID_pc_out [31:0] $end
$var wire 32 H ID_instr_out [31:0] $end
$var wire 2 I Forward_B_out [1:0] $end
$var wire 32 J Forward_B_MUX_out [31:0] $end
$var wire 2 K Forward_A_out [1:0] $end
$var wire 32 L Forward_A_MUX_out [31:0] $end
$var wire 1 M Flush_out $end
$var wire 5 N EX_inst24_20_out [4:0] $end
$var wire 5 O EX_inst19_15_out [4:0] $end
$var wire 5 P EX_inst11_7_out [4:0] $end
$var wire 7 Q EX_funct7_out [6:0] $end
$var wire 3 R EX_funct3_out [2:0] $end
$var wire 1 S EX_RegWrite_out $end
$var wire 32 T EX_Read_data_2_out [31:0] $end
$var wire 32 U EX_Read_data_1_out [31:0] $end
$var wire 1 V EX_MemtoReg_out $end
$var wire 1 W EX_MemWrite_out $end
$var wire 1 X EX_MemRead_out $end
$var wire 32 Y EX_Imme32_out [31:0] $end
$var wire 1 Z EX_ALUSrc_out $end
$var wire 2 [ EX_ALUOp_out [1:0] $end
$var wire 32 \ Data_Memory_out [31:0] $end
$var wire 1 ] Branch_out $end
$var wire 32 ^ ALU_result_out [31:0] $end
$var wire 1 _ ALUSrc_out $end
$var wire 2 ` ALUOp_out [1:0] $end
$var wire 3 a ALUControl_out [2:0] $end
$scope module ALU $end
$var wire 1 ( zero_out $end
$var wire 32 b read_data_2_in [31:0] $end
$var wire 32 c read_data_1_in [31:0] $end
$var wire 32 d ALU_result_out [31:0] $end
$var wire 3 e ALUControl_in [2:0] $end
$upscope $end
$scope module ALU_Control $end
$var wire 7 f funct7_in [6:0] $end
$var wire 3 g funct3_in [2:0] $end
$var wire 2 h ALUOp_in [1:0] $end
$var wire 3 i ALUControl_out [2:0] $end
$upscope $end
$scope module Add_PC $end
$var wire 32 j input_data_2 [31:0] $end
$var wire 32 k output_data [31:0] $end
$var wire 32 l input_data_1 [31:0] $end
$upscope $end
$scope module Branch_Unit $end
$var wire 1 ! clk_i $end
$var wire 32 m read_data_2_in [31:0] $end
$var wire 32 n read_data_1_in [31:0] $end
$var wire 32 o next_pc_out [31:0] $end
$var wire 32 p imme32_in [31:0] $end
$var wire 32 q ID_pc_in [31:0] $end
$var wire 1 M Flush_out $end
$var wire 1 ] Branch_in $end
$upscope $end
$scope module Control $end
$var wire 7 r opcode_in [6:0] $end
$var wire 1 6 RegWrite_out $end
$var wire 1 : NoOp_in $end
$var wire 1 < MemtoReg_out $end
$var wire 1 = MemWrite_out $end
$var wire 1 > MemRead_out $end
$var wire 1 ] Branch_out $end
$var wire 1 _ ALUSrc_out $end
$var wire 2 s ALUOP_out [1:0] $end
$upscope $end
$scope module Data_Memory $end
$var wire 1 ! clk_i $end
$var wire 32 t data_o [31:0] $end
$var wire 32 u data_i [31:0] $end
$var wire 32 v addr_i [31:0] $end
$var wire 1 B MemWrite_i $end
$var wire 1 C MemRead_i $end
$upscope $end
$scope module EX_MEM_Register $end
$var wire 32 w ALU_result_in [31:0] $end
$var wire 32 x MUX_out [31:0] $end
$var wire 1 B MemWrite_out $end
$var wire 1 A MemtoReg_out $end
$var wire 1 @ RegWrite_out $end
$var wire 1 ! clk_i $end
$var wire 5 y inst11_7_out [4:0] $end
$var wire 1 " rst_i $end
$var wire 5 z inst11_7_in [4:0] $end
$var wire 1 S RegWrite_in $end
$var wire 1 V MemtoReg_in $end
$var wire 1 W MemWrite_in $end
$var wire 1 C MemRead_out $end
$var wire 1 X MemRead_in $end
$var wire 32 { MUX_in [31:0] $end
$var wire 32 | ALU_result_out [31:0] $end
$var reg 32 } ALU_result_register [31:0] $end
$var reg 32 ~ MUX_register [31:0] $end
$var reg 1 C MemRead_register $end
$var reg 1 !" MemWrite_register $end
$var reg 1 "" MemtoReg_register $end
$var reg 1 #" RegWrite_register $end
$var reg 5 $" inst11_7_register [4:0] $end
$upscope $end
$scope module Forward_A_MUX $end
$var wire 32 %" input_data_3 [31:0] $end
$var wire 32 &" input_data_4 [31:0] $end
$var wire 32 '" output_data [31:0] $end
$var wire 2 (" mux_select [1:0] $end
$var wire 32 )" input_data_2 [31:0] $end
$var wire 32 *" input_data_1 [31:0] $end
$upscope $end
$scope module Forward_B_MUX $end
$var wire 32 +" input_data_3 [31:0] $end
$var wire 32 ," input_data_4 [31:0] $end
$var wire 32 -" output_data [31:0] $end
$var wire 2 ." mux_select [1:0] $end
$var wire 32 /" input_data_2 [31:0] $end
$var wire 32 0" input_data_1 [31:0] $end
$upscope $end
$scope module Forwarding_Unit $end
$var wire 5 1" MEM_Rd_in [4:0] $end
$var wire 1 @ MEM_RegWrite_in $end
$var wire 1 . WB_RegWrite_in $end
$var wire 5 2" WB_Rd_in [4:0] $end
$var wire 2 3" Forward_B_out [1:0] $end
$var wire 2 4" Forward_A_out [1:0] $end
$var wire 5 5" EX_Rs2_in [4:0] $end
$var wire 5 6" EX_Rs1_in [4:0] $end
$var reg 2 7" Forward_A_register [1:0] $end
$var reg 2 8" Forward_B_register [1:0] $end
$upscope $end
$scope module Hazard_Detection_Unit $end
$var wire 1 9 PCWrite_out $end
$var wire 1 2 Stall_out $end
$var wire 5 9" inst19_15_in [4:0] $end
$var wire 5 :" inst24_20_in [4:0] $end
$var wire 1 " rst_i $end
$var wire 1 : NoOp_out $end
$var wire 5 ;" EX_inst11_7_in [4:0] $end
$var wire 1 X EX_MemRead_in $end
$var reg 1 : NoOp_register $end
$var reg 1 <" PCWrite_register $end
$var reg 1 =" Stall_register $end
$upscope $end
$scope module ID_EX_Register $end
$var wire 2 >" ALUOp_in [1:0] $end
$var wire 2 ?" ALUOp_out [1:0] $end
$var wire 1 _ ALUSrc_in $end
$var wire 1 > MemRead_in $end
$var wire 1 X MemRead_out $end
$var wire 1 = MemWrite_in $end
$var wire 1 W MemWrite_out $end
$var wire 1 < MemtoReg_in $end
$var wire 1 V MemtoReg_out $end
$var wire 1 6 RegWrite_in $end
$var wire 1 S RegWrite_out $end
$var wire 1 ! clk_i $end
$var wire 5 @" inst11_7_in [4:0] $end
$var wire 5 A" inst11_7_out [4:0] $end
$var wire 3 B" inst14_12_in [2:0] $end
$var wire 5 C" inst19_15_in [4:0] $end
$var wire 5 D" inst19_15_out [4:0] $end
$var wire 5 E" inst24_20_in [4:0] $end
$var wire 5 F" inst24_20_out [4:0] $end
$var wire 7 G" inst31_25_in [6:0] $end
$var wire 1 " rst_i $end
$var wire 32 H" read_data_2_out [31:0] $end
$var wire 32 I" read_data_2_in [31:0] $end
$var wire 32 J" read_data_1_out [31:0] $end
$var wire 32 K" read_data_1_in [31:0] $end
$var wire 7 L" inst31_25_out [6:0] $end
$var wire 3 M" inst14_12_out [2:0] $end
$var wire 32 N" imme_out [31:0] $end
$var wire 32 O" imme_in [31:0] $end
$var wire 1 Z ALUSrc_out $end
$var reg 2 P" ALUOP_register [1:0] $end
$var reg 1 Z ALUSrc_register $end
$var reg 1 Q" MemRead_register $end
$var reg 1 R" MemWrite_register $end
$var reg 1 S" MemtoReg_register $end
$var reg 1 T" RegWrite_register $end
$var reg 32 U" imme_register [31:0] $end
$var reg 5 V" inst11_7_register [4:0] $end
$var reg 3 W" inst14_12_register [2:0] $end
$var reg 5 X" inst19_15_register [4:0] $end
$var reg 5 Y" inst24_20_register [4:0] $end
$var reg 7 Z" inst31_25_register [6:0] $end
$var reg 32 [" read_data_1_register [31:0] $end
$var reg 32 \" read_data_2_register [31:0] $end
$upscope $end
$scope module IF_ID_Register $end
$var wire 1 M Flush_in $end
$var wire 1 2 Stall_in $end
$var wire 1 ! clk_i $end
$var wire 1 " rst_i $end
$var wire 32 ]" pc_out [31:0] $end
$var wire 32 ^" pc_in [31:0] $end
$var wire 32 _" instruction_out [31:0] $end
$var wire 32 `" instruction_in [31:0] $end
$var reg 32 a" instruction_register [31:0] $end
$var reg 32 b" pc_register [31:0] $end
$upscope $end
$scope module Instruction_Memory $end
$var wire 32 c" instr_o [31:0] $end
$var wire 32 d" addr_i [31:0] $end
$upscope $end
$scope module LeftMost_MUX $end
$var wire 32 e" input_data_1 [31:0] $end
$var wire 32 f" input_data_2 [31:0] $end
$var wire 1 M mux_select $end
$var wire 32 g" output_data [31:0] $end
$upscope $end
$scope module MEM_WB_Register $end
$var wire 32 h" ALU_result_in [31:0] $end
$var wire 1 A MemtoReg_in $end
$var wire 32 i" Read_data_in [31:0] $end
$var wire 1 @ RegWrite_in $end
$var wire 1 ! clk_i $end
$var wire 5 j" inst11_7_in [4:0] $end
$var wire 1 " rst_i $end
$var wire 5 k" inst11_7_out [4:0] $end
$var wire 1 . RegWrite_out $end
$var wire 32 l" Read_data_out [31:0] $end
$var wire 1 / MemtoReg_out $end
$var wire 32 m" ALU_result_out [31:0] $end
$var reg 32 n" ALU_result_register [31:0] $end
$var reg 1 / MemtoReg_register $end
$var reg 32 o" Read_data_register [31:0] $end
$var reg 1 . RegWrite_register $end
$var reg 5 p" inst11_7_register [4:0] $end
$upscope $end
$scope module MUX_ALUSrc $end
$var wire 32 q" input_data_1 [31:0] $end
$var wire 32 r" input_data_2 [31:0] $end
$var wire 1 Z mux_select $end
$var wire 32 s" output_data [31:0] $end
$upscope $end
$scope module PC $end
$var wire 1 9 PCWrite_i $end
$var wire 1 ! clk_i $end
$var wire 32 t" pc_i [31:0] $end
$var wire 1 " rst_i $end
$var reg 32 u" pc_o [31:0] $end
$upscope $end
$scope module Registers $end
$var wire 5 v" RDaddr_i [4:0] $end
$var wire 5 w" RS1addr_i [4:0] $end
$var wire 5 x" RS2addr_i [4:0] $end
$var wire 1 . RegWrite_i $end
$var wire 1 ! clk_i $end
$var wire 1 " rst_i $end
$var wire 32 y" RS2data_o [31:0] $end
$var wire 32 z" RS1data_o [31:0] $end
$var wire 32 {" RDdata_i [31:0] $end
$var integer 32 |" i [31:0] $end
$upscope $end
$scope module RightMost_MUX $end
$var wire 32 }" input_data_1 [31:0] $end
$var wire 32 ~" input_data_2 [31:0] $end
$var wire 1 / mux_select $end
$var wire 32 !# output_data [31:0] $end
$upscope $end
$scope module Sign_Extend $end
$var wire 12 "# instruction20to31 [11:0] $end
$var wire 32 ## SignExtend [31:0] $end
$upscope $end
$upscope $end
$upscope $end
$enddefinitions $end
#0
$dumpvars
bx ##
bx "#
bx !#
bx ~"
bx }"
bx |"
bx {"
bx z"
bx y"
bx x"
bx w"
bx v"
bx u"
bx t"
bx s"
bx r"
bx q"
bx p"
bx o"
bx n"
bx m"
bx l"
bx k"
bx j"
bx i"
bx h"
bx g"
bx f"
bx e"
bx d"
bx c"
bx b"
bx a"
bx `"
bx _"
bx ^"
bx ]"
bx \"
bx ["
bx Z"
bx Y"
bx X"
bx W"
bx V"
bx U"
xT"
xS"
xR"
xQ"
bx P"
bx O"
bx N"
bx M"
bx L"
bx K"
bx J"
bx I"
bx H"
bx G"
bx F"
bx E"
bx D"
bx C"
bx B"
bx A"
bx @"
bx ?"
bx >"
x="
x<"
bx ;"
bx :"
bx 9"
bx 8"
bx 7"
bx 6"
bx 5"
bx 4"
bx 3"
bx 2"
bx 1"
bx 0"
bx /"
bx ."
bx -"
b0 ,"
bx +"
bx *"
bx )"
bx ("
bx '"
b0 &"
bx %"
bx $"
x#"
x""
x!"
bx ~
bx }
bx |
bx {
bx z
bx y
bx x
bx w
bx v
bx u
bx t
bx s
bx r
bx q
bx p
bx o
bx n
bx m
bx l
bx k
b100 j
bx i
bx h
bx g
bx f
bx e
bx d
bx c
bx b
bx a
bx `
x_
bx ^
x]
bx \
bx [
xZ
bx Y
xX
xW
xV
bx U
bx T
xS
bx R
bx Q
bx P
bx O
bx N
xM
bx L
bx K
bx J
bx I
bx H
bx G
bx F
bx E
bx D
xC
xB
xA
x@
bx ?
x>
x=
x<
bx ;
x:
x9
bx 8
bx 7
x6
bx 5
bx 4
bx 3
x2
bx 1
bx 0
x/
x.
bx -
bx ,
bx +
bx *
bx )
z(
b0 '
b11 &
b100000 %
b0 $
b0 #
1"
0!
$end
#6
b0 ^
b0 d
b0 w
b101 a
b101 e
b101 i
b100 F
b100 g"
b100 t"
0M
b0 *
b0 o
b0 f"
b0 3
b0 p
b0 O"
b0 ##
b0 4
b0 "#
06
0<
0>
0=
0]
b0 `
b0 s
b0 >"
0_
b0 8
b0 n
b0 K"
b0 z"
b0 7
b0 m
b0 I"
b0 y"
b10011011110000111100110011 +
b10011011110000111100110011 `"
b10011011110000111100110011 c"
b0 @"
b0 E"
b0 C"
b0 B"
b0 G"
b0 :"
b0 9"
b0 x"
b0 w"
b0 r
b0 ;
b0 b
b0 s"
b0 J
b0 {
b0 -"
b0 q"
b0 L
b0 c
b0 '"
b0 \
b0 t
b0 i"
b0 5
b0 )"
b0 /"
b0 {"
b0 !#
b0 I
b0 ."
b0 3"
b0 8"
b0 K
b0 ("
b0 4"
b0 7"
b100 ,
b100 k
b100 e"
b0 )
b0 l
b0 ^"
b0 d"
b0 u"
b0 G
b0 q
b0 ]"
b0 b"
b0 H
b0 _"
b0 a"
b0 P
b0 z
b0 ;"
b0 A"
b0 V"
b0 N
b0 5"
b0 F"
b0 Y"
b0 O
b0 6"
b0 D"
b0 X"
b0 R
b0 g
b0 M"
b0 W"
b0 Q
b0 f
b0 L"
b0 Z"
b0 Y
b0 N"
b0 U"
b0 r"
b0 T
b0 0"
b0 H"
b0 \"
b0 U
b0 *"
b0 J"
b0 ["
0Z
b0 [
b0 h
b0 ?"
b0 P"
0W
0R"
0X
0Q"
0V
0S"
0S
0T"
b0 ?
b0 y
b0 1"
b0 j"
b0 $"
b0 D
b0 u
b0 x
b0 ~
b0 E
b0 v
b0 |
b0 }
b0 %"
b0 +"
b0 h"
0B
0!"
0C
0A
0""
0@
0#"
b0 -
b0 2"
b0 k"
b0 p"
b0 v"
b0 0
b0 l"
b0 o"
b0 ~"
b0 1
b0 m"
b0 n"
b0 }"
0/
0.
b100000 |"
02
0="
19
1<"
0:
0"
#12
1"
#25
b1001100 *
b1001100 o
b1001100 f"
b100110 3
b100110 p
b100110 O"
b100110 ##
b100110 4
b100110 "#
16
b111100 8
b111100 n
b111100 K"
b111100 z"
b10 `
b10 s
b10 >"
b11110 @"
b110 E"
b11110 C"
b1 G"
b110 :"
b11110 9"
b110 x"
b11110 w"
b110011 r
b10011011111011010110011 +
b10011011111011010110011 `"
b10011011111011010110011 c"
b1000 F
b1000 g"
b1000 t"
b10011011110000111100110011 H
b10011011110000111100110011 _"
b10011011110000111100110011 a"
b1000 ,
b1000 k
b1000 e"
b100 )
b100 l
b100 ^"
b100 d"
b100 u"
b1 #
1!
#50
0!
#75
b100 a
b100 e
b100 i
b0 ^
b0 d
b0 w
b100 3
b100 p
b100 O"
b100 ##
b100 4
b100 "#
b11111111111111111111111111100101 8
b11111111111111111111111111100101 n
b11111111111111111111111111100101 K"
b11111111111111111111111111100101 z"
b11111111001010001000010000010011 +
b11111111001010001000010000010011 `"
b11111111001010001000010000010011 c"
b1100 F
b1100 g"
b1100 t"
b1101 @"
b100 E"
b11011 C"
b111 B"
b0 G"
b100 :"
b11011 9"
b100 x"
b11011 w"
b111100 L
b111100 c
b111100 '"
b1100 ,
b1100 k
b1100 e"
b1000 )
b1000 l
b1000 ^"
b1000 d"
b1000 u"
b1100 *
b1100 o
b1100 f"
b100 G
b100 q
b100 ]"
b100 b"
b10011011111011010110011 H
b10011011111011010110011 _"
b10011011111011010110011 a"
b11110 P
b11110 z
b11110 ;"
b11110 A"
b11110 V"
b110 N
b110 5"
b110 F"
b110 Y"
b11110 O
b11110 6"
b11110 D"
b11110 X"
b1 Q
b1 f
b1 L"
b1 Z"
b100110 Y
b100110 N"
b100110 U"
b100110 r"
b111100 U
b111100 *"
b111100 J"
b111100 ["
b10 [
b10 h
b10 ?"
b10 P"
1S
1T"
b10 #
1!
#100
0!
#125
b11111111111111111111111111110010 3
b11111111111111111111111111110010 p
b11111111111111111111111111110010 O"
b11111111111111111111111111110010 ##
b111111110010 4
b111111110010 "#
b0 a
b0 e
b0 i
b0 8
b0 n
b0 K"
b0 z"
b0 `
b0 s
b0 >"
1_
b11111111111111111111111111100101 L
b11111111111111111111111111100101 c
b11111111111111111111111111100101 '"
b1000 @"
b10010 E"
b10001 C"
b0 B"
b1111111 G"
b10010 :"
b10001 9"
b10010 x"
b10001 w"
b10011 r
b101100000010101000100011 +
b101100000010101000100011 `"
b101100000010101000100011 c"
b10000 F
b10000 g"
b10000 t"
b11110 ?
b11110 y
b11110 1"
b11110 j"
b11110 $"
1@
1#"
b1101 P
b1101 z
b1101 ;"
b1101 A"
b1101 V"
b100 N
b100 5"
b100 F"
b100 Y"
b11011 O
b11011 6"
b11011 D"
b11011 X"
b111 R
b111 g
b111 M"
b111 W"
b0 Q
b0 f
b0 L"
b0 Z"
b100 Y
b100 N"
b100 U"
b100 r"
b11111111111111111111111111100101 U
b11111111111111111111111111100101 *"
b11111111111111111111111111100101 J"
b11111111111111111111111111100101 ["
b11111111111111111111111111101100 *
b11111111111111111111111111101100 o
b11111111111111111111111111101100 f"
b1000 G
b1000 q
b1000 ]"
b1000 b"
b11111111001010001000010000010011 H
b11111111001010001000010000010011 _"
b11111111001010001000010000010011 a"
b10000 ,
b10000 k
b10000 e"
b1100 )
b1100 l
b1100 ^"
b1100 d"
b1100 u"
b11 #
1!
#150
0!
#175
06
1=
1_
b11111111111111111111111111110010 ^
b11111111111111111111111111110010 d
b11111111111111111111111111110010 w
b10100 3
b10100 p
b10100 O"
b10100 ##
b10100 4
b10100 "#
b101 a
b101 e
b101 i
b11111111111111111111111111110010 ;
b11111111111111111111111111110010 b
b11111111111111111111111111110010 s"
b10000000000011 +
b10000000000011 `"
b10000000000011 c"
b10100 F
b10100 g"
b10100 t"
b10100 @"
b1011 E"
b0 C"
b10 B"
b0 G"
b1011 :"
b0 9"
b1011 x"
b0 w"
b100011 r
b0 L
b0 c
b0 '"
b10100 ,
b10100 k
b10100 e"
b10000 )
b10000 l
b10000 ^"
b10000 d"
b10000 u"
b110100 *
b110100 o
b110100 f"
b1100 G
b1100 q
b1100 ]"
b1100 b"
b101100000010101000100011 H
b101100000010101000100011 _"
b101100000010101000100011 a"
b1000 P
b1000 z
b1000 ;"
b1000 A"
b1000 V"
b10010 N
b10010 5"
b10010 F"
b10010 Y"
b10001 O
b10001 6"
b10001 D"
b10001 X"
b0 R
b0 g
b0 M"
b0 W"
b1111111 Q
b1111111 f
b1111111 L"
b1111111 Z"
b11111111111111111111111111110010 Y
b11111111111111111111111111110010 N"
b11111111111111111111111111110010 U"
b11111111111111111111111111110010 r"
b0 U
b0 *"
b0 J"
b0 ["
1Z
b0 [
b0 h
b0 ?"
b0 P"
b1101 ?
b1101 y
b1101 1"
b1101 j"
b1101 $"
b11110 -
b11110 2"
b11110 k"
b11110 p"
b11110 v"
1.
b100 #
1!
#200
0!
#225
b101 a
b101 e
b101 i
b10100 ^
b10100 d
b10100 w
16
1<
1>
0=
b0 3
b0 p
b0 O"
b0 ##
b0 4
b0 "#
b10100 ;
b10100 b
b10100 s"
b0 @"
b0 E"
b0 :"
b0 x"
b11 r
b11100000010110000100011 +
b11100000010110000100011 `"
b11100000010110000100011 c"
b11000 F
b11000 g"
b11000 t"
b1101 -
b1101 2"
b1101 k"
b1101 p"
b1101 v"
b1000 ?
b1000 y
b1000 1"
b1000 j"
b1000 $"
b11111111111111111111111111110010 E
b11111111111111111111111111110010 v
b11111111111111111111111111110010 |
b11111111111111111111111111110010 }
b11111111111111111111111111110010 %"
b11111111111111111111111111110010 +"
b11111111111111111111111111110010 h"
b10100 P
b10100 z
b10100 ;"
b10100 A"
b10100 V"
b1011 N
b1011 5"
b1011 F"
b1011 Y"
b0 O
b0 6"
b0 D"
b0 X"
b10 R
b10 g
b10 M"
b10 W"
b0 Q
b0 f
b0 L"
b0 Z"
b10100 Y
b10100 N"
b10100 U"
b10100 r"
1W
1R"
0S
0T"
b10000 *
b10000 o
b10000 f"
b10000 G
b10000 q
b10000 ]"
b10000 b"
b10000000000011 H
b10000000000011 _"
b10000000000011 a"
b11000 ,
b11000 k
b11000 e"
b10100 )
b10100 l
b10100 ^"
b10100 d"
b10100 u"
b101 #
1!
#250
0!
#275
b0 ^
b0 d
b0 w
06
0<
0>
1=
b11000 3
b11000 p
b11000 O"
b11000 ##
b11000 4
b11000 "#
b11100010000010101100011 +
b11100010000010101100011 `"
b11100010000010101100011 c"
b11100 F
b11100 g"
b11100 t"
b11000 @"
b111 E"
b111 :"
b111 x"
b100011 r
b0 ;
b0 b
b0 s"
b11111111111111111111111111110010 5
b11111111111111111111111111110010 )"
b11111111111111111111111111110010 /"
b11111111111111111111111111110010 {"
b11111111111111111111111111110010 !#
b11100 ,
b11100 k
b11100 e"
b11000 )
b11000 l
b11000 ^"
b11000 d"
b11000 u"
b1000100 *
b1000100 o
b1000100 f"
b10100 G
b10100 q
b10100 ]"
b10100 b"
b11100000010110000100011 H
b11100000010110000100011 _"
b11100000010110000100011 a"
b0 P
b0 z
b0 ;"
b0 A"
b0 V"
b0 N
b0 5"
b0 F"
b0 Y"
b0 Y
b0 N"
b0 U"
b0 r"
0W
0R"
1X
1Q"
1V
1S"
1S
1T"
b10100 ?
b10100 y
b10100 1"
b10100 j"
b10100 $"
b10100 E
b10100 v
b10100 |
b10100 }
b10100 %"
b10100 +"
b10100 h"
1B
1!"
0@
0#"
b1000 -
b1000 2"
b1000 k"
b1000 p"
b1000 v"
b11111111111111111111111111110010 1
b11111111111111111111111111110010 m"
b11111111111111111111111111110010 n"
b11111111111111111111111111110010 }"
b110 #
1!
#300
0!
#325
b11000 ^
b11000 d
b11000 w
b1 `
b1 s
b1 >"
0_
1M
0=
1]
b101 \
b101 t
b101 i"
b101 3
b101 p
b101 O"
b101 ##
b101 4
b101 "#
b10100 5
b10100 )"
b10100 /"
b10100 {"
b10100 !#
b11000 ;
b11000 b
b11000 s"
b1010 @"
b10 C"
b0 B"
b10 9"
b10 w"
b1100011 r
b1101011001000010101100011 +
b1101011001000010101100011 `"
b1101011001000010101100011 c"
b100010 F
b100010 g"
b100010 t"
b10100 -
b10100 2"
b10100 k"
b10100 p"
b10100 v"
b10100 1
b10100 m"
b10100 n"
b10100 }"
0.
b0 ?
b0 y
b0 1"
b0 j"
b0 $"
b0 E
b0 v
b0 |
b0 }
b0 %"
b0 +"
b0 h"
0B
0!"
1C
1A
1""
1@
1#"
b11000 P
b11000 z
b11000 ;"
b11000 A"
b11000 V"
b111 N
b111 5"
b111 F"
b111 Y"
b11000 Y
b11000 N"
b11000 U"
b11000 r"
1W
1R"
0X
0Q"
0V
0S"
0S
0T"
b100010 *
b100010 o
b100010 f"
b11000 G
b11000 q
b11000 ]"
b11000 b"
b11100010000010101100011 H
b11100010000010101100011 _"
b11100010000010101100011 a"
b100000 ,
b100000 k
b100000 e"
b11100 )
b11100 l
b11100 ^"
b11100 d"
b11100 u"
b111 #
1!
#350
0!
#375
b11 a
b11 e
b11 i
b0 ^
b0 d
b0 w
b0 `
b0 s
b0 >"
0M
b0 3
b0 p
b0 O"
b0 ##
b0 4
b0 "#
b101 7
b101 m
b101 I"
b101 y"
b101 8
b101 n
b101 K"
b101 z"
0]
b1100000010010000100011 +
b1100000010010000100011 `"
b1100000010010000100011 c"
b100110 F
b100110 g"
b100110 t"
b0 @"
b0 E"
b0 C"
b0 :"
b0 9"
b0 x"
b0 w"
b0 r
b0 ;
b0 b
b0 s"
b0 \
b0 t
b0 i"
b101 5
b101 )"
b101 /"
b101 {"
b101 !#
b100110 ,
b100110 k
b100110 e"
b100010 )
b100010 l
b100010 ^"
b100010 d"
b100010 u"
b0 *
b0 o
b0 f"
b0 G
b0 q
b0 ]"
b0 b"
b0 H
b0 _"
b0 a"
b1010 P
b1010 z
b1010 ;"
b1010 A"
b1010 V"
b10 O
b10 6"
b10 D"
b10 X"
b0 R
b0 g
b0 M"
b0 W"
b101 Y
b101 N"
b101 U"
b101 r"
0Z
b1 [
b1 h
b1 ?"
b1 P"
0W
0R"
b11000 ?
b11000 y
b11000 1"
b11000 j"
b11000 $"
b11000 E
b11000 v
b11000 |
b11000 }
b11000 %"
b11000 +"
b11000 h"
1B
1!"
0C
0A
0""
0@
0#"
b0 -
b0 2"
b0 k"
b0 p"
b0 v"
b101 0
b101 l"
b101 o"
b101 ~"
b0 1
b0 m"
b0 n"
b0 }"
1/
1.
b1000 #
b1 $
1!
#400
0!
#425
b101 a
b101 e
b101 i
b1010 ^
b1010 d
b1010 w
1_
1=
b0 8
b0 n
b0 K"
b0 z"
b0 7
b0 m
b0 I"
b0 y"
b101 ;
b101 b
b101 s"
b1000 3
b1000 p
b1000 O"
b1000 ##
b1000 4
b1000 "#
b11000 5
b11000 )"
b11000 /"
b11000 {"
b11000 !#
b101 J
b101 {
b101 -"
b101 q"
b101 L
b101 c
b101 '"
b1000 @"
b11 E"
b10 B"
b11 :"
b11 x"
b100011 r
b11111111010011111000011000010011 +
b11111111010011111000011000010011 `"
b11111111010011111000011000010011 c"
b101010 F
b101010 g"
b101010 t"
b11000 -
b11000 2"
b11000 k"
b11000 p"
b11000 v"
b0 0
b0 l"
b0 o"
b0 ~"
b11000 1
b11000 m"
b11000 n"
b11000 }"
0/
0.
b1010 ?
b1010 y
b1010 1"
b1010 j"
b1010 $"
b0 E
b0 v
b0 |
b0 }
b0 %"
b0 +"
b0 h"
0B
0!"
b0 P
b0 z
b0 ;"
b0 A"
b0 V"
b0 N
b0 5"
b0 F"
b0 Y"
b0 O
b0 6"
b0 D"
b0 X"
b0 Y
b0 N"
b0 U"
b0 r"
b101 T
b101 0"
b101 H"
b101 \"
b101 U
b101 *"
b101 J"
b101 ["
b0 [
b0 h
b0 ?"
b0 P"
b110010 *
b110010 o
b110010 f"
b100010 G
b100010 q
b100010 ]"
b100010 b"
b1100000010010000100011 H
b1100000010010000100011 _"
b1100000010010000100011 a"
b101010 ,
b101010 k
b101010 e"
b100110 )
b100110 l
b100110 ^"
b100110 d"
b100110 u"
b1001 #
1!
#450
0!
#475
b101 a
b101 e
b101 i
b1000 ^
b1000 d
b1000 w
16
0=
b11111111111111111111111111110100 3
b11111111111111111111111111110100 p
b11111111111111111111111111110100 O"
b11111111111111111111111111110100 ##
b111111110100 4
b111111110100 "#
b111110 8
b111110 n
b111110 K"
b111110 z"
b1000 ;
b1000 b
b1000 s"
b11111110101100110000111110010011 +
b11111110101100110000111110010011 `"
b11111110101100110000111110010011 c"
b101110 F
b101110 g"
b101110 t"
b1100 @"
b10100 E"
b11111 C"
b0 B"
b1111111 G"
b10100 :"
b11111 9"
b10100 x"
b11111 w"
b10011 r
b0 J
b0 {
b0 -"
b0 q"
b0 L
b0 c
b0 '"
b0 5
b0 )"
b0 /"
b0 {"
b0 !#
b101110 ,
b101110 k
b101110 e"
b101010 )
b101010 l
b101010 ^"
b101010 d"
b101010 u"
b1110 *
b1110 o
b1110 f"
b100110 G
b100110 q
b100110 ]"
b100110 b"
b11111111010011111000011000010011 H
b11111111010011111000011000010011 _"
b11111111010011111000011000010011 a"
b1000 P
b1000 z
b1000 ;"
b1000 A"
b1000 V"
b11 N
b11 5"
b11 F"
b11 Y"
b10 R
b10 g
b10 M"
b10 W"
b1000 Y
b1000 N"
b1000 U"
b1000 r"
b0 T
b0 0"
b0 H"
b0 \"
b0 U
b0 *"
b0 J"
b0 ["
1Z
1W
1R"
b0 ?
b0 y
b0 1"
b0 j"
b0 $"
b101 D
b101 u
b101 x
b101 ~
b1010 E
b1010 v
b1010 |
b1010 }
b1010 %"
b1010 +"
b1010 h"
b1010 -
b1010 2"
b1010 k"
b1010 p"
b1010 v"
b0 1
b0 m"
b0 n"
b0 }"
b1010 #
1!
#500
0!
