Computer architecture/lab3/check/my_out/output_6.txt
VCD info: dumpfile waveform.vcd opened for output.
WARNING: code/supplied/testbench.v:35: $readmemb(instruction.txt): Not enough words in the file for the requested range [0:255].
cycle =      0, PC =      0, 
Predict =      1, IFID_Flush =      0
Registers
x0 =      0, x8  =      0, x16 =      0, x24 =    -24
x1 =      0, x9  =      0, x17 =      0, x25 =    -25
x2 =      0, x10 =      0, x18 =      0, x26 =    -26
x3 =      0, x11 =      0, x19 =      0, x27 =    -27
x4 =      0, x12 =      0, x20 =      0, x28 =     56
x5 =      0, x13 =      0, x21 =      0, x29 =     58
x6 =      0, x14 =      0, x22 =      0, x30 =     60
x7 =      0, x15 =      0, x23 =      0, x31 =     62
Data Memory: 0x00 =      5
Data Memory: 0x04 =      6
Data Memory: 0x08 =     10
Data Memory: 0x0C =     18
Data Memory: 0x10 =     29
Data Memory: 0x14 =      0
Data Memory: 0x18 =      0
Data Memory: 0x1C =      0


cycle =      1, PC =      4, 
Predict =      1, IFID_Flush =      0
Registers
x0 =      0, x8  =      0, x16 =      0, x24 =    -24
x1 =      0, x9  =      0, x17 =      0, x25 =    -25
x2 =      0, x10 =      0, x18 =      0, x26 =    -26
x3 =      0, x11 =      0, x19 =      0, x27 =    -27
x4 =      0, x12 =      0, x20 =      0, x28 =     56
x5 =      0, x13 =      0, x21 =      0, x29 =     58
x6 =      0, x14 =      0, x22 =      0, x30 =     60
x7 =      0, x15 =      0, x23 =      0, x31 =     62
Data Memory: 0x00 =      5
Data Memory: 0x04 =      6
Data Memory: 0x08 =     10
Data Memory: 0x0C =     18
Data Memory: 0x10 =     29
Data Memory: 0x14 =      0
Data Memory: 0x18 =      0
Data Memory: 0x1C =      0


cycle =      2, PC =      8, 
Predict =      1, IFID_Flush =      0
Registers
x0 =      0, x8  =      0, x16 =      0, x24 =    -24
x1 =      0, x9  =      0, x17 =      0, x25 =    -25
x2 =      0, x10 =      0, x18 =      0, x26 =    -26
x3 =      0, x11 =      0, x19 =      0, x27 =    -27
x4 =      0, x12 =      0, x20 =      0, x28 =     56
x5 =      0, x13 =      0, x21 =      0, x29 =     58
x6 =      0, x14 =      0, x22 =      0, x30 =     60
x7 =      0, x15 =      0, x23 =      0, x31 =     62
Data Memory: 0x00 =      5
Data Memory: 0x04 =      6
Data Memory: 0x08 =     10
Data Memory: 0x0C =     18
Data Memory: 0x10 =     29
Data Memory: 0x14 =      0
Data Memory: 0x18 =      0
Data Memory: 0x1C =      0


cycle =      3, PC =     12, 
Predict =      1, IFID_Flush =      0
Registers
x0 =      0, x8  =      0, x16 =      0, x24 =    -24
x1 =      0, x9  =      0, x17 =      0, x25 =    -25
x2 =      0, x10 =      0, x18 =      0, x26 =    -26
x3 =      0, x11 =      0, x19 =      0, x27 =    -27
x4 =      0, x12 =      0, x20 =      0, x28 =     56
x5 =      0, x13 =      0, x21 =      0, x29 =     58
x6 =      0, x14 =      0, x22 =      0, x30 =     60
x7 =      0, x15 =      0, x23 =      0, x31 =     62
Data Memory: 0x00 =      5
Data Memory: 0x04 =      6
Data Memory: 0x08 =     10
Data Memory: 0x0C =     18
Data Memory: 0x10 =     29
Data Memory: 0x14 =      0
Data Memory: 0x18 =      0
Data Memory: 0x1C =      0


cycle =      4, PC =     16, 
Predict =      1, IFID_Flush =      0
Registers
x0 =      0, x8  =      0, x16 =      0, x24 =    -24
x1 =      0, x9  =      0, x17 =      0, x25 =    -25
x2 =      0, x10 =      0, x18 =      0, x26 =    -26
x3 =      0, x11 =      0, x19 =      0, x27 =    -27
x4 =      0, x12 =      0, x20 =      0, x28 =     56
x5 =      0, x13 =      0, x21 =      0, x29 =     58
x6 =      0, x14 =      0, x22 =      0, x30 =     60
x7 =      0, x15 =      0, x23 =      0, x31 =     62
Data Memory: 0x00 =      5
Data Memory: 0x04 =      6
Data Memory: 0x08 =     10
Data Memory: 0x0C =     18
Data Memory: 0x10 =     29
Data Memory: 0x14 =      0
Data Memory: 0x18 =      0
Data Memory: 0x1C =      0


cycle =      5, PC =     20, 
Predict =      1, IFID_Flush =      1
Registers
x0 =      0, x8  =      0, x16 =      5, x24 =    -24
x1 =      0, x9  =      0, x17 =      0, x25 =    -25
x2 =      0, x10 =      0, x18 =      0, x26 =    -26
x3 =      0, x11 =      0, x19 =      0, x27 =    -27
x4 =      0, x12 =      0, x20 =      0, x28 =     56
x5 =      0, x13 =      0, x21 =      0, x29 =     58
x6 =      0, x14 =      0, x22 =      0, x30 =     60
x7 =      0, x15 =      0, x23 =      0, x31 =     62
Data Memory: 0x00 =      5
Data Memory: 0x04 =      6
Data Memory: 0x08 =     10
Data Memory: 0x0C =     18
Data Memory: 0x10 =     29
Data Memory: 0x14 =      0
Data Memory: 0x18 =      0
Data Memory: 0x1C =      0


cycle =      6, PC =     20, 
Predict =      1, IFID_Flush =      1
ALU_out = 4294967238
Registers
x0 =      0, x8  =      0, x16 =      5, x24 =    -24
x1 =      0, x9  =     -4, x17 =      0, x25 =    -25
x2 =      0, x10 =      0, x18 =      0, x26 =    -26
x3 =      0, x11 =      0, x19 =      0, x27 =    -27
x4 =      0, x12 =      0, x20 =      0, x28 =     56
x5 =      0, x13 =      0, x21 =      0, x29 =     58
x6 =      0, x14 =      0, x22 =      0, x30 =     60
x7 =      0, x15 =      0, x23 =      0, x31 =     62
Data Memory: 0x00 =      5
Data Memory: 0x04 =      6
Data Memory: 0x08 =     10
Data Memory: 0x0C =     18
Data Memory: 0x10 =     60
Data Memory: 0x14 =      0
Data Memory: 0x18 =      0
Data Memory: 0x1C =      0


cycle =      7, PC =     20, 
Predict =      1, IFID_Flush =      0
Registers
x0 =      0, x8  =      0, x16 =      5, x24 =    -24
x1 =      0, x9  =     -4, x17 =      0, x25 =    -25
x2 =      0, x10 =      0, x18 =      0, x26 =    -26
x3 =      0, x11 =      0, x19 =      0, x27 =    -27
x4 =      0, x12 =      0, x20 =      0, x28 =     56
x5 =      0, x13 =      0, x21 =      0, x29 =     58
x6 =      0, x14 =      0, x22 =      0, x30 =     60
x7 =      0, x15 =      0, x23 =      0, x31 =     62
Data Memory: 0x00 =      5
Data Memory: 0x04 =      6
Data Memory: 0x08 =     10
Data Memory: 0x0C =     18
Data Memory: 0x10 =     60
Data Memory: 0x14 =      0
Data Memory: 0x18 =      0
Data Memory: 0x1C =      0


cycle =      8, PC =     24, 
Predict =      1, IFID_Flush =      1
Registers
x0 =      0, x8  =      0, x16 =      5, x24 =    -24
x1 =      0, x9  =     -4, x17 =      0, x25 =    -25
x2 =      0, x10 =      0, x18 =      0, x26 =    -26
x3 =      0, x11 =      0, x19 =      0, x27 =    -27
x4 =      0, x12 =      0, x20 =      0, x28 =     56
x5 =      0, x13 =      0, x21 =      0, x29 =     58
x6 =      0, x14 =      0, x22 =      0, x30 =     60
x7 =      0, x15 =      0, x23 =      0, x31 =     62
Data Memory: 0x00 =      5
Data Memory: 0x04 =      6
Data Memory: 0x08 =     10
Data Memory: 0x0C =     18
Data Memory: 0x10 =     60
Data Memory: 0x14 =      0
Data Memory: 0x18 =      0
Data Memory: 0x1C =      0


cycle =      9, PC =     30, 
Predict =      1, IFID_Flush =      1
ALU_out =     24
Registers
x0 =      0, x8  =      0, x16 =      5, x24 =    -24
x1 =      0, x9  =     -4, x17 =      0, x25 =    -25
x2 =      0, x10 =      0, x18 =      0, x26 =    -26
x3 =      0, x11 =      0, x19 =      0, x27 =    -27
x4 =      0, x12 =      0, x20 =      0, x28 =     56
x5 =      0, x13 =      0, x21 =      0, x29 =     58
x6 =      0, x14 =      0, x22 =      0, x30 =     60
x7 =      0, x15 =      0, x23 =      0, x31 =     62
Data Memory: 0x00 =      5
Data Memory: 0x04 =      6
Data Memory: 0x08 =     10
Data Memory: 0x0C =     18
Data Memory: 0x10 =     60
Data Memory: 0x14 =      0
Data Memory: 0x18 =      0
Data Memory: 0x1C =      0


cycle =     10, PC =     24, 
Predict =      0, IFID_Flush =      0
Registers
x0 =      0, x8  =      0, x16 =      5, x24 =    -24
x1 =      0, x9  =     -4, x17 =      0, x25 =    -25
x2 =      0, x10 =      0, x18 =      0, x26 =    -26
x3 =      0, x11 =      0, x19 =      0, x27 =    -27
x4 =      0, x12 =      0, x20 =      0, x28 =     56
x5 =      0, x13 =      0, x21 =      0, x29 =     58
x6 =      0, x14 =      0, x22 =      0, x30 =     60
x7 =      0, x15 =      0, x23 =      0, x31 =     62
Data Memory: 0x00 =      5
Data Memory: 0x04 =      6
Data Memory: 0x08 =     10
Data Memory: 0x0C =     18
Data Memory: 0x10 =     60
Data Memory: 0x14 =      0
Data Memory: 0x18 =      0
Data Memory: 0x1C =      0


cycle =     11, PC =     28, 
Predict =      0, IFID_Flush =      0
Registers
x0 =      0, x8  =      0, x16 =      5, x24 =    -24
x1 =      0, x9  =     -4, x17 =      0, x25 =    -25
x2 =      0, x10 =      0, x18 =      0, x26 =    -26
x3 =      0, x11 =      0, x19 =      0, x27 =    -27
x4 =      0, x12 =      0, x20 =      0, x28 =     56
x5 =      0, x13 =      0, x21 =      0, x29 =     58
x6 =      0, x14 =      0, x22 =      0, x30 =     60
x7 =      0, x15 =      0, x23 =      0, x31 =     62
Data Memory: 0x00 =      5
Data Memory: 0x04 =      6
Data Memory: 0x08 =     10
Data Memory: 0x0C =     18
Data Memory: 0x10 =     60
Data Memory: 0x14 =      0
Data Memory: 0x18 =      0
Data Memory: 0x1C =      0


cycle =     12, PC =     32, 
Predict =      0, IFID_Flush =      1
ALU_out =      0
Registers
x0 =      0, x8  =      0, x16 =      5, x24 =    -24
x1 =      0, x9  =     -4, x17 =      0, x25 =    -25
x2 =      0, x10 =      0, x18 =      0, x26 =    -26
x3 =      0, x11 =      0, x19 =      0, x27 =    -27
x4 =      0, x12 =      0, x20 =      0, x28 =     56
x5 =      0, x13 =      0, x21 =      0, x29 =     58
x6 =      0, x14 =      0, x22 =      0, x30 =     60
x7 =      0, x15 =      0, x23 =      0, x31 =     62
Data Memory: 0x00 =      5
Data Memory: 0x04 =      6
Data Memory: 0x08 =     10
Data Memory: 0x0C =     18
Data Memory: 0x10 =     60
Data Memory: 0x14 =      0
Data Memory: 0x18 =      0
Data Memory: 0x1C =      0


cycle =     13, PC =     34, 
Predict =      1, IFID_Flush =      0
Registers
x0 =      0, x8  =      0, x16 =      5, x24 =    -24
x1 =      0, x9  =     -4, x17 =      0, x25 =    -25
x2 =      0, x10 =      0, x18 =      0, x26 =    -26
x3 =      0, x11 =      0, x19 =      0, x27 =    -27
x4 =      0, x12 =      0, x20 =      0, x28 =     56
x5 =      0, x13 =      0, x21 =      0, x29 =     58
x6 =      0, x14 =      0, x22 =      0, x30 =     60
x7 =      0, x15 =      0, x23 =      0, x31 =     62
Data Memory: 0x00 =      5
Data Memory: 0x04 =      6
Data Memory: 0x08 =     10
Data Memory: 0x0C =     18
Data Memory: 0x10 =     60
Data Memory: 0x14 =      0
Data Memory: 0x18 =      0
Data Memory: 0x1C =      0


cycle =     14, PC =     38, 
Predict =      1, IFID_Flush =      0
Registers
x0 =      0, x8  =      0, x16 =      5, x24 =    -24
x1 =      0, x9  =     -4, x17 =      0, x25 =    -25
x2 =      0, x10 =      0, x18 =      0, x26 =    -26
x3 =      0, x11 =      0, x19 =      0, x27 =    -27
x4 =      0, x12 =      0, x20 =      0, x28 =     56
x5 =      0, x13 =      0, x21 =      0, x29 =     58
x6 =      0, x14 =      0, x22 =      0, x30 =     60
x7 =      0, x15 =      0, x23 =      0, x31 =     62
Data Memory: 0x00 =      5
Data Memory: 0x04 =      6
Data Memory: 0x08 =     10
Data Memory: 0x0C =     18
Data Memory: 0x10 =     60
Data Memory: 0x14 =      0
Data Memory: 0x18 =      0
Data Memory: 0x1C =      0


cycle =     15, PC =     42, 
Predict =      1, IFID_Flush =      0
Registers
x0 =      0, x8  =      0, x16 =      5, x24 =    -24
x1 =      0, x9  =     -4, x17 =      0, x25 =    -25
x2 =      0, x10 =      0, x18 =      0, x26 =    -26
x3 =      0, x11 =      0, x19 =      0, x27 =    -27
x4 =      0, x12 =      0, x20 =      0, x28 =     56
x5 =      0, x13 =      0, x21 =      0, x29 =     58
x6 =      0, x14 =      0, x22 =      0, x30 =     60
x7 =      0, x15 =      0, x23 =      0, x31 =     62
Data Memory: 0x00 =      5
Data Memory: 0x04 =      6
Data Memory: 0x08 =     10
Data Memory: 0x0C =     18
Data Memory: 0x10 =     60
Data Memory: 0x14 =      0
Data Memory: 0x18 =      0
Data Memory: 0x1C =      0


cycle =     16, PC =     46, 
Predict =      1, IFID_Flush =      1
Registers
x0 =      0, x8  =      0, x16 =      5, x24 =    -24
x1 =      0, x9  =     -4, x17 =      0, x25 =    -25
x2 =      0, x10 =      0, x18 =      0, x26 =    -26
x3 =      0, x11 =      0, x19 =      0, x27 =    -27
x4 =      0, x12 =      0, x20 =      0, x28 =     56
x5 =      0, x13 =      0, x21 =      0, x29 =     58
x6 =      0, x14 =      0, x22 =      0, x30 =     60
x7 =      0, x15 =      0, x23 =      0, x31 =     62
Data Memory: 0x00 =      5
Data Memory: 0x04 =      6
Data Memory: 0x08 =     10
Data Memory: 0x0C =     18
Data Memory: 0x10 =     60
Data Memory: 0x14 =      0
Data Memory: 0x18 =      0
Data Memory: 0x1C =      0


cycle =     17, PC =     54, 
Predict =      1, IFID_Flush =      0
ALU_out =      0
Registers
x0 =      0, x8  =      0, x16 =      5, x24 =    -24
x1 =      0, x9  =     -4, x17 =      0, x25 =    -25
x2 =      0, x10 =      0, x18 =      0, x26 =    -26
x3 =      0, x11 =      0, x19 =      0, x27 =    -27
x4 =      0, x12 =      0, x20 =      0, x28 =     56
x5 =      0, x13 =      0, x21 =      0, x29 =     58
x6 =      0, x14 =      0, x22 =      0, x30 =     60
x7 =      0, x15 =      0, x23 =      0, x31 =     62
Data Memory: 0x00 =      5
Data Memory: 0x04 =      6
Data Memory: 0x08 =     10
Data Memory: 0x0C =     18
Data Memory: 0x10 =     60
Data Memory: 0x14 =      0
Data Memory: 0x18 =      0
Data Memory: 0x1C =      0


cycle =     18, PC =     58, 
Predict =      1, IFID_Flush =      0
Registers
x0 =      0, x8  =      0, x16 =      5, x24 =    -24
x1 =      0, x9  =     -4, x17 =      0, x25 =    -25
x2 =      0, x10 =      0, x18 =      0, x26 =    -26
x3 =      0, x11 =      0, x19 =      0, x27 =    -27
x4 =      0, x12 =      0, x20 =      0, x28 =     56
x5 =      0, x13 =      0, x21 =      0, x29 =     58
x6 =      0, x14 =      0, x22 =      0, x30 =     60
x7 =      0, x15 =      0, x23 =      0, x31 =     62
Data Memory: 0x00 =      5
Data Memory: 0x04 =      6
Data Memory: 0x08 =     10
Data Memory: 0x0C =     18
Data Memory: 0x10 =     60
Data Memory: 0x14 =      0
Data Memory: 0x18 =      0
Data Memory: 0x1C =      0


cycle =     19, PC =     62, 
Predict =      1, IFID_Flush =      0
Registers
x0 =      0, x8  =      0, x16 =      5, x24 =    -24
x1 =      0, x9  =     -4, x17 =      0, x25 =    -25
x2 =      0, x10 =      0, x18 =      0, x26 =    -26
x3 =      0, x11 =      0, x19 =      0, x27 =    -27
x4 =      0, x12 =      0, x20 =      0, x28 =     56
x5 =      8, x13 =      0, x21 =      0, x29 =     58
x6 =      0, x14 =      0, x22 =      0, x30 =     60
x7 =      0, x15 =      0, x23 =      0, x31 =     62
Data Memory: 0x00 =      5
Data Memory: 0x04 =      6
Data Memory: 0x08 =     10
Data Memory: 0x0C =     18
Data Memory: 0x10 =     60
Data Memory: 0x14 =      0
Data Memory: 0x18 =      0
Data Memory: 0x1C =      0


cycle =     20, PC =     66, 
Predict =      1, IFID_Flush =      0
Registers
x0 =      0, x8  =      0, x16 =      5, x24 =    -24
x1 =      0, x9  =     -4, x17 =      0, x25 =    -25
x2 =      0, x10 =      0, x18 =      0, x26 =    -26
x3 =      0, x11 =      0, x19 =      0, x27 =    -27
x4 =      0, x12 =      0, x20 =      0, x28 =     56
x5 =      8, x13 =      0, x21 =      0, x29 =     58
x6 =      0, x14 =      0, x22 =      0, x30 =     60
x7 =      0, x15 =      0, x23 =      0, x31 =     62
Data Memory: 0x00 =      5
Data Memory: 0x04 =      6
Data Memory: 0x08 =     10
Data Memory: 0x0C =     18
Data Memory: 0x10 =     60
Data Memory: 0x14 =      0
Data Memory: 0x18 =      0
Data Memory: 0x1C =      0


cycle =     21, PC =     70, 
Predict =      1, IFID_Flush =      0
Registers
x0 =      0, x8  =      0, x16 =      5, x24 =    -24
x1 =      0, x9  =     -4, x17 =      0, x25 =    -25
x2 =      0, x10 =      0, x18 =      0, x26 =    -26
x3 =      0, x11 =      0, x19 =      0, x27 =    -27
x4 =      0, x12 =      0, x20 =      0, x28 =     56
x5 =      8, x13 =      0, x21 =      0, x29 =     58
x6 =      0, x14 =      0, x22 =      0, x30 =     60
x7 =      0, x15 =      0, x23 =      0, x31 =     62
Data Memory: 0x00 =      5
Data Memory: 0x04 =      6
Data Memory: 0x08 =     10
Data Memory: 0x0C =     18
Data Memory: 0x10 =     60
Data Memory: 0x14 =      0
Data Memory: 0x18 =      0
Data Memory: 0x1C =      0


cycle =     22, PC =     74, 
Predict =      1, IFID_Flush =      0
Registers
x0 =      0, x8  =      0, x16 =      0, x24 =    -24
x1 =      0, x9  =     -4, x17 =      0, x25 =    -25
x2 =      0, x10 =      0, x18 =      0, x26 =    -26
x3 =      0, x11 =      0, x19 =      0, x27 =    -27
x4 =      0, x12 =      0, x20 =      0, x28 =     56
x5 =      8, x13 =      0, x21 =      0, x29 =     58
x6 =      0, x14 =      0, x22 =      0, x30 =     60
x7 =      0, x15 =      0, x23 =      0, x31 =     62
Data Memory: 0x00 =      5
Data Memory: 0x04 =      6
Data Memory: 0x08 =     10
Data Memory: 0x0C =     18
Data Memory: 0x10 =     60
Data Memory: 0x14 =      0
Data Memory: 0x18 =      0
Data Memory: 0x1C =      0


cycle =     23, PC =     78, 
Predict =      1, IFID_Flush =      0
Registers
x0 =      0, x8  =      0, x16 =      0, x24 =    -24
x1 =      0, x9  =     -4, x17 =      0, x25 =    -25
x2 =      0, x10 =      0, x18 =      0, x26 =    -26
x3 =      0, x11 =     -4, x19 =      0, x27 =    -27
x4 =      0, x12 =      0, x20 =      0, x28 =     56
x5 =      8, x13 =      0, x21 =      0, x29 =     58
x6 =      0, x14 =      0, x22 =      0, x30 =     60
x7 =      0, x15 =      0, x23 =      0, x31 =     62
Data Memory: 0x00 =      5
Data Memory: 0x04 =      6
Data Memory: 0x08 =     10
Data Memory: 0x0C =     18
Data Memory: 0x10 =     60
Data Memory: 0x14 =      0
Data Memory: 0x18 =      0
Data Memory: 0x1C =      0


cycle =     24, PC =     82, 
Predict =      1, IFID_Flush =      0
Registers
x0 =      0, x8  =      0, x16 =      0, x24 =    -24
x1 =      5, x9  =     -4, x17 =      0, x25 =    -25
x2 =      0, x10 =      0, x18 =      0, x26 =    -26
x3 =      0, x11 =     -4, x19 =      0, x27 =    -27
x4 =      0, x12 =      0, x20 =      0, x28 =     56
x5 =      8, x13 =      0, x21 =      0, x29 =     58
x6 =      0, x14 =      0, x22 =      0, x30 =     60
x7 =      0, x15 =      0, x23 =      0, x31 =     62
Data Memory: 0x00 =      5
Data Memory: 0x04 =      6
Data Memory: 0x08 =      0
Data Memory: 0x0C =     18
Data Memory: 0x10 =     60
Data Memory: 0x14 =      0
Data Memory: 0x18 =      0
Data Memory: 0x1C =      0


cycle =     25, PC =     86, 
Predict =      1, IFID_Flush =      0
Registers
x0 =      0, x8  =      0, x16 =      0, x24 =    -24
x1 =      5, x9  =     -4, x17 =      0, x25 =    -25
x2 =      0, x10 =      0, x18 =      0, x26 =    -26
x3 =      0, x11 =     -4, x19 =      0, x27 =    -27
x4 =      0, x12 =      0, x20 =      0, x28 =     56
x5 =      8, x13 =      0, x21 =      0, x29 =     58
x6 =      0, x14 =      0, x22 =      0, x30 =     60
x7 =      0, x15 =      0, x23 =      0, x31 =     62
Data Memory: 0x00 =      5
Data Memory: 0x04 =      6
Data Memory: 0x08 =      0
Data Memory: 0x0C =     18
Data Memory: 0x10 =     60
Data Memory: 0x14 =      0
Data Memory: 0x18 =      0
Data Memory: 0x1C =      0


cycle =     26, PC =     90, 
Predict =      1, IFID_Flush =      0
Registers
x0 =      0, x8  =      0, x16 =      0, x24 =    -24
x1 =      5, x9  =     -4, x17 =      0, x25 =    -25
x2 =      0, x10 =      0, x18 =      0, x26 =    -26
x3 =      0, x11 =     -4, x19 =      0, x27 =    -27
x4 =      0, x12 =      0, x20 =      0, x28 =     56
x5 =      8, x13 =      0, x21 =      0, x29 =     58
x6 =      0, x14 =      0, x22 =      0, x30 =     60
x7 =      0, x15 =      0, x23 =      0, x31 =     62
Data Memory: 0x00 =      5
Data Memory: 0x04 =      6
Data Memory: 0x08 =      0
Data Memory: 0x0C =     18
Data Memory: 0x10 =     60
Data Memory: 0x14 =      0
Data Memory: 0x18 =      0
Data Memory: 0x1C =      0


cycle =     27, PC =     94, 
Predict =      1, IFID_Flush =      0
Registers
x0 =      0, x8  =      0, x16 =      0, x24 =    -24
x1 =      5, x9  =     -4, x17 =      0, x25 =    -25
x2 =      0, x10 =      0, x18 =      0, x26 =    -26
x3 =      0, x11 =     -4, x19 =      0, x27 =    -27
x4 =      0, x12 =      0, x20 =      0, x28 =     56
x5 =      8, x13 =      0, x21 =      0, x29 =     58
x6 =     27, x14 =      0, x22 =      0, x30 =     60
x7 =      0, x15 =      0, x23 =      0, x31 =     62
Data Memory: 0x00 =      5
Data Memory: 0x04 =      6
Data Memory: 0x08 =      0
Data Memory: 0x0C =     18
Data Memory: 0x10 =     60
Data Memory: 0x14 =      0
Data Memory: 0x18 =      0
Data Memory: 0x1C =      0


cycle =     28, PC =     98, 
Predict =      1, IFID_Flush =      1
Registers
x0 =      0, x8  =      0, x16 =      0, x24 =    -24
x1 =      5, x9  =     -4, x17 =      0, x25 =    -25
x2 =      0, x10 =      0, x18 =      0, x26 =    -26
x3 =      5, x11 =     -4, x19 =      0, x27 =    -27
x4 =      0, x12 =      0, x20 =      0, x28 =     56
x5 =      8, x13 =      0, x21 =      0, x29 =     58
x6 =     27, x14 =      0, x22 =      0, x30 =     60
x7 =      0, x15 =      0, x23 =      0, x31 =     62
Data Memory: 0x00 =      5
Data Memory: 0x04 =      6
Data Memory: 0x08 =      0
Data Memory: 0x0C =     18
Data Memory: 0x10 =     60
Data Memory: 0x14 =      0
Data Memory: 0x18 =      0
Data Memory: 0x1C =      0


cycle =     29, PC =    102, 
Predict =      1, IFID_Flush =      0
ALU_out =      0
Registers
x0 =      0, x8  =      0, x16 =      0, x24 =    -24
x1 =      5, x9  =     -4, x17 =      0, x25 =    -25
x2 =      0, x10 =      0, x18 =      0, x26 =    -26
x3 =      5, x11 =     -4, x19 =      0, x27 =    -27
x4 =      0, x12 =      0, x20 =      0, x28 =     56
x5 =      8, x13 =      0, x21 =      0, x29 =     58
x6 =     27, x14 =      0, x22 =      0, x30 =     60
x7 =      0, x15 =      0, x23 =     -7, x31 =     62
Data Memory: 0x00 =      5
Data Memory: 0x04 =      6
Data Memory: 0x08 =      0
Data Memory: 0x0C =     18
Data Memory: 0x10 =     60
Data Memory: 0x14 =      0
Data Memory: 0x18 =      0
Data Memory: 0x1C =      0


cycle =     30, PC =    106, 
Predict =      1, IFID_Flush =      0
Registers
x0 =      0, x8  =      0, x16 =      0, x24 =    -24
x1 =      5, x9  =     -4, x17 =      0, x25 =    -25
x2 =      0, x10 =      0, x18 =      0, x26 =    -26
x3 =      5, x11 =     -4, x19 =      0, x27 =    -27
x4 =      0, x12 =      0, x20 =      0, x28 =     56
x5 =      8, x13 =      0, x21 =      0, x29 =     58
x6 =     27, x14 =      0, x22 =      0, x30 =     60
x7 =      0, x15 =      0, x23 =     -7, x31 =     62
Data Memory: 0x00 =    -25
Data Memory: 0x04 =      6
Data Memory: 0x08 =      0
Data Memory: 0x0C =     18
Data Memory: 0x10 =     60
Data Memory: 0x14 =      0
Data Memory: 0x18 =      0
Data Memory: 0x1C =      0


cycle =     31, PC =    110, 
Predict =      1, IFID_Flush =      0
Registers
x0 =      0, x8  =      0, x16 =      0, x24 =    -24
x1 =      5, x9  =     -4, x17 =      0, x25 =    -25
x2 =      0, x10 =      0, x18 =      0, x26 =    -26
x3 =      5, x11 =     -4, x19 =      0, x27 =    -27
x4 =      0, x12 =      0, x20 =      0, x28 =     56
x5 =      8, x13 =      0, x21 =      0, x29 =     58
x6 =     27, x14 =      0, x22 =      0, x30 =     60
x7 =      0, x15 =      0, x23 =     -7, x31 =     62
Data Memory: 0x00 =    -25
Data Memory: 0x04 =      6
Data Memory: 0x08 =      0
Data Memory: 0x0C =     18
Data Memory: 0x10 =     60
Data Memory: 0x14 =      0
Data Memory: 0x18 =      0
Data Memory: 0x1C =      0


cycle =     32, PC =    114, 
Predict =      1, IFID_Flush =      0
Registers
x0 =      0, x8  =      0, x16 =      0, x24 =    -24
x1 =      5, x9  =     -4, x17 =      0, x25 =    -25
x2 =      0, x10 =      0, x18 =      0, x26 =    -26
x3 =      5, x11 =     -4, x19 =      0, x27 =    -27
x4 =      0, x12 =      0, x20 =      0, x28 =     56
x5 =      8, x13 =      0, x21 =      0, x29 =     58
x6 =     27, x14 =      0, x22 =      0, x30 =     60
x7 =      0, x15 =      0, x23 =     -7, x31 =     62
Data Memory: 0x00 =    -25
Data Memory: 0x04 =      6
Data Memory: 0x08 =      0
Data Memory: 0x0C =     18
Data Memory: 0x10 =     60
Data Memory: 0x14 =      0
Data Memory: 0x18 =      0
Data Memory: 0x1C =      0


cycle =     33, PC =    118, 
Predict =      1, IFID_Flush =      0
Registers
x0 =      0, x8  =      0, x16 =      0, x24 =    -24
x1 =      5, x9  =     -4, x17 =      0, x25 =    -25
x2 =      0, x10 =      0, x18 =      0, x26 =    -26
x3 =      5, x11 =     -4, x19 =      0, x27 =    -27
x4 =      0, x12 =      0, x20 =      0, x28 =     56
x5 =      8, x13 =      0, x21 =      0, x29 =     58
x6 =     27, x14 =      0, x22 =      0, x30 =     60
x7 =      0, x15 =      0, x23 =     -7, x31 =     62
Data Memory: 0x00 =    -25
Data Memory: 0x04 =      6
Data Memory: 0x08 =      0
Data Memory: 0x0C =     18
Data Memory: 0x10 =     60
Data Memory: 0x14 =      0
Data Memory: 0x18 =      0
Data Memory: 0x1C =      0


cycle =     34, PC =    122, 
Predict =      1, IFID_Flush =      0
Registers
x0 =      0, x8  =      0, x16 =      0, x24 =    -24
x1 =      5, x9  =     -4, x17 =      0, x25 =    -25
x2 =      0, x10 =      0, x18 =      0, x26 =    -26
x3 =      5, x11 =     -4, x19 =      0, x27 =    -27
x4 =      0, x12 =      0, x20 =      0, x28 =     56
x5 =      8, x13 =      0, x21 =      0, x29 =     58
x6 =     27, x14 =      0, x22 =      0, x30 =     60
x7 =      0, x15 =      0, x23 =     -7, x31 =     33
Data Memory: 0x00 =    -25
Data Memory: 0x04 =      6
Data Memory: 0x08 =      0
Data Memory: 0x0C =     18
Data Memory: 0x10 =     60
Data Memory: 0x14 =      0
Data Memory: 0x18 =      0
Data Memory: 0x1C =      0


cycle =     35, PC =    126, 
Predict =      1, IFID_Flush =      0
Registers
x0 =      0, x8  =      0, x16 =      0, x24 =    -24
x1 =      5, x9  =     -4, x17 =      0, x25 =    -25
x2 =      0, x10 =      0, x18 =      0, x26 =    -26
x3 =      5, x11 =     -4, x19 =      0, x27 =    -27
x4 =      0, x12 =      0, x20 =      0, x28 =     56
x5 =      8, x13 =      0, x21 =      0, x29 =     58
x6 =     27, x14 =      0, x22 =      0, x30 =     60
x7 =      0, x15 =      0, x23 =     -7, x31 =     33
Data Memory: 0x00 =    -25
Data Memory: 0x04 =      6
Data Memory: 0x08 =      0
Data Memory: 0x0C =     18
Data Memory: 0x10 =     60
Data Memory: 0x14 =      0
Data Memory: 0x18 =      0
Data Memory: 0x1C =      0


cycle =     36, PC =    130, 
Predict =      1, IFID_Flush =      0
Registers
x0 =      0, x8  =      0, x16 =      0, x24 =    -24
x1 =      5, x9  =     -4, x17 =      0, x25 =    -25
x2 =      0, x10 =      0, x18 =      0, x26 =    -26
x3 =      5, x11 =     -4, x19 =      0, x27 =    -27
x4 =      0, x12 =      0, x20 =      0, x28 =     56
x5 =      8, x13 =      0, x21 =      0, x29 =     58
x6 =     27, x14 =      0, x22 =      0, x30 =     60
x7 =      0, x15 =      0, x23 =     -7, x31 =     33
Data Memory: 0x00 =    -25
Data Memory: 0x04 =      0
Data Memory: 0x08 =      0
Data Memory: 0x0C =     18
Data Memory: 0x10 =     60
Data Memory: 0x14 =      0
Data Memory: 0x18 =      0
Data Memory: 0x1C =      0


cycle =     37, PC =    134, 
Predict =      1, IFID_Flush =      1
Registers
x0 =      0, x8  =      0, x16 =      0, x24 =    -24
x1 =      5, x9  =     -4, x17 =      0, x25 =    -25
x2 =      0, x10 =      0, x18 =      0, x26 =    -26
x3 =      5, x11 =     -4, x19 =      0, x27 =    -27
x4 =      0, x12 =      0, x20 =      0, x28 =     56
x5 =      8, x13 =      0, x21 =      0, x29 =     58
x6 =     27, x14 =      0, x22 =      0, x30 =     60
x7 =      0, x15 =      0, x23 =     -7, x31 =     33
Data Memory: 0x00 =    -25
Data Memory: 0x04 =      0
Data Memory: 0x08 =      0
Data Memory: 0x0C =     18
Data Memory: 0x10 =     60
Data Memory: 0x14 =      0
Data Memory: 0x18 =      0
Data Memory: 0x1C =      0


cycle =     38, PC =    138, 
Predict =      1, IFID_Flush =      0
ALU_out =      0
Registers
x0 =      0, x8  =      0, x16 =      0, x24 =    -24
x1 =      5, x9  =     -4, x17 =      0, x25 =    -25
x2 =      0, x10 =      0, x18 =      0, x26 =    -26
